<?xml version="1.0" standalone="no"?>
<!DOCTYPE svg PUBLIC "-//W3C//DTD SVG 1.1//EN" "http://www.w3.org/Graphics/SVG/1.1/DTD/svg11.dtd" >
<svg xmlns="http://www.w3.org/2000/svg" xmlns:xlink="http://www.w3.org/1999/xlink" version="1.1">
<metadata>
Created by FontForge 20161013 at Thu Sep  7 17:03:51 2017
 By ,,,
Copyright (c) Mark Simonson, 2005. All rights reserved.
</metadata>
<defs>
<font id="ProximaNova-RegularIt" horiz-adv-x="1171" >
  <font-face 
    font-family="Proxima Nova Rg"
    font-weight="400"
    font-style="italic"
    font-stretch="normal"
    units-per-em="2048"
    panose-1="2 0 5 6 3 0 0 2 0 4"
    ascent="1618"
    descent="-430"
    x-height="989"
    cap-height="1366"
    bbox="-375 -408 2343 1821"
    underline-thickness="40"
    underline-position="-512"
    unicode-range="U+0020-FB04"
  />
<missing-glyph horiz-adv-x="748" 
d="M68 0v1365h544v-1365h-544zM136 68h408v1229h-408v-1229z" />
    <glyph glyph-name="uniFB01" unicode="fi" horiz-adv-x="1042" 
d="M86 0l188 854h-163l30 135h164l17 76q71 321 325 321q102 0 176 -47l-59 -110q-39 31 -105 31q-141 0 -184 -195l-16 -76h200l-30 -135h-201l-188 -854h-154zM625 0l219 989h153l-219 -989h-153zM868 1221q0 51 37 83.5t80 32.5q39 0 66.5 -26.5t27.5 -63.5
q0 -52 -36.5 -84.5t-79.5 -32.5q-41 0 -68 27t-27 64z" />
    <glyph glyph-name="uniFB02" unicode="fl" horiz-adv-x="1042" 
d="M86 0l188 854h-163l30 135h164l17 76q71 321 325 321q102 0 176 -47l-59 -110q-39 31 -105 31q-141 0 -184 -195l-16 -76h200l-30 -135h-201l-188 -854h-154zM625 0l301 1366h153l-301 -1366h-153z" />
    <glyph glyph-name="uniFB03" unicode="ffi" horiz-adv-x="1622" 
d="M86 0l188 854h-163l30 135h164l17 76q74 321 325 321q136 0 219 -83l-82 -95q-46 52 -125 52q-75 0 -119 -49.5t-65 -145.5l-16 -76h200l-30 -135h-201l-188 -854h-154zM668 0l188 854h-164l31 135h164l16 76q71 321 326 321q102 0 176 -47l-59 -110q-39 31 -105 31
q-141 0 -184 -195l-17 -76h201l-31 -135h-200l-189 -854h-153zM1204 0l219 989h154l-219 -989h-154zM1448 1221q0 51 37 83.5t80 32.5q39 0 66.5 -26.5t27.5 -63.5q0 -52 -36.5 -84.5t-80.5 -32.5q-40 0 -67 27t-27 64z" />
    <glyph glyph-name="uniFB04" unicode="ffl" horiz-adv-x="1622" 
d="M86 0l188 854h-163l30 135h164l17 76q74 321 325 321q136 0 219 -83l-82 -95q-46 52 -125 52q-75 0 -119 -49.5t-65 -145.5l-16 -76h200l-30 -135h-201l-188 -854h-154zM668 0l188 854h-164l31 135h164l16 76q71 321 326 321q102 0 176 -47l-59 -110q-39 31 -105 31
q-141 0 -184 -195l-17 -76h201l-31 -135h-200l-189 -854h-153zM1204 0l301 1366h154l-301 -1366h-154z" />
    <glyph glyph-name=".notdef" horiz-adv-x="748" 
d="M68 0v1365h544v-1365h-544zM136 68h408v1229h-408v-1229z" />
    <glyph glyph-name="glyph1" horiz-adv-x="0" 
 />
    <glyph glyph-name="glyph2" horiz-adv-x="682" 
 />
    <glyph glyph-name="space" unicode=" " horiz-adv-x="530" 
 />
    <glyph glyph-name="exclam" unicode="!" horiz-adv-x="471" 
d="M33 84q0 50 36 85.5t87 35.5q42 0 72 -31t30 -74q0 -51 -36 -85.5t-87 -34.5q-43 0 -72.5 30t-29.5 74zM145 383l185 983h192l-250 -983h-127z" />
    <glyph glyph-name="quotedbl" unicode="&#x22;" horiz-adv-x="704" 
d="M238 844q39 399 41 430q5 50 35 81t75 31q34 0 58 -24t24 -62q0 -7 -2 -16t-4.5 -18.5t-3.5 -12.5l-148 -409h-75zM539 844q39 399 41 430q3 50 33.5 81t76.5 31q34 0 58 -24t24 -62q0 -17 -12 -47l-146 -409h-75z" />
    <glyph glyph-name="numbersign" unicode="#" horiz-adv-x="1210" 
d="M16 371l58 108h221l225 408h-221l55 106h228l202 373h127l-204 -373h225l205 373h125l-207 -373h219l-53 -106h-224l-229 -408h227l-57 -108h-229l-205 -371h-125l207 371h-228l-204 -371h-127l206 371h-217zM420 479h223l227 408h-225z" />
    <glyph glyph-name="dollar" unicode="$" horiz-adv-x="1214" 
d="M43 221l117 121q53 -74 134 -126t179 -75l111 494q-64 26 -105 45.5t-92.5 52.5t-81.5 66.5t-51 82.5t-21 107q0 162 138.5 281t347.5 119q5 0 16 -1.5t17 -1.5l41 187h125l-46 -201q108 -23 196 -75.5t142 -125.5l-114 -118q-88 120 -258 166l-99 -447q45 -19 75.5 -33
t70.5 -36t67 -42t56.5 -48t46.5 -57.5t28 -67.5t11 -80q0 -83 -33 -159.5t-94.5 -138t-157.5 -98.5t-213 -37q-6 0 -17.5 1t-17.5 1l-39 -182h-125l43 195q-132 25 -236.5 86t-160.5 145zM416 1014q0 -63 54 -108t155 -87l92 418h-19q-118 0 -200 -67t-82 -156zM596 127h14
q76 0 136 23t95 61t52.5 81.5t17.5 88.5q0 69 -54.5 116t-158.5 91z" />
    <glyph glyph-name="percent" unicode="%" horiz-adv-x="1499" 
d="M152 0l1173 1366h115l-1176 -1366h-112zM178 989q0 173 108.5 285t256.5 112q129 0 217 -76.5t88 -199.5q0 -174 -108 -285.5t-257 -111.5q-128 0 -216.5 76.5t-88.5 199.5zM301 999q0 -78 52.5 -130t133.5 -52q97 0 168.5 81t71.5 202q0 78 -53.5 130t-134.5 52
q-96 0 -167 -81.5t-71 -201.5zM727 252q0 173 108.5 285t256.5 112q129 0 218 -76.5t89 -199.5q0 -173 -108.5 -285.5t-256.5 -112.5q-129 0 -218 77t-89 200zM850 262q0 -78 52.5 -130t133.5 -52q97 0 168.5 81t71.5 201q0 78 -54 130.5t-135 52.5q-96 0 -166.5 -81.5
t-70.5 -201.5z" />
    <glyph glyph-name="ampersand" unicode="&#x26;" horiz-adv-x="1314" 
d="M33 317q0 77 22.5 141.5t58 110.5t91 86.5t107.5 67.5t122 55q-47 133 -47 238q0 153 113 261.5t266 108.5q131 0 217 -64t86 -179q0 -86 -32.5 -151t-109.5 -115t-130.5 -75t-165.5 -68q-1 -1 -2 -1q51 -108 104 -194q66 -114 129 -211q136 147 219 301l117 -72
q-143 -217 -262 -338q70 -97 166 -219h-195q-43 52 -88 115q-185 -140 -375 -140q-180 0 -295.5 89t-115.5 253zM205 338q0 -113 75 -174.5t183 -61.5q132 0 282 119q-99 144 -145 223q-59 100 -121 228q-131 -60 -202.5 -137t-71.5 -197zM547 1016q0 -79 37 -180
q66 25 106.5 42t90 44.5t76.5 54t46 65.5t19 84q0 66 -43.5 104t-108.5 38q-84 0 -153.5 -68.5t-69.5 -183.5z" />
    <glyph glyph-name="quotesingle" unicode="'" horiz-adv-x="407" 
d="M238 844q39 399 41 430q5 50 35 81t75 31q34 0 58 -24t24 -62q0 -7 -2 -16t-4.5 -18.5t-3.5 -12.5l-148 -409h-75z" />
    <glyph glyph-name="parenleft" unicode="(" horiz-adv-x="507" 
d="M51 186q0 319 136.5 633.5t390.5 583.5l79 -78q-444 -579 -444 -1196q0 -215 76 -475l-109 -62q-129 255 -129 594z" />
    <glyph glyph-name="parenright" unicode=")" horiz-adv-x="507" 
d="M-152 -330q445 580 445 1196q0 215 -76 475l109 62q129 -255 129 -594q0 -319 -136.5 -633.5t-390.5 -583.5z" />
    <glyph glyph-name="asterisk" unicode="*" horiz-adv-x="696" 
d="M176 1016l234 84l-185 127l64 73l168 -145l39 231h96l-66 -239l226 104l26 -84l-229 -84l182 -127l-63 -73l-170 145l-39 -231h-94l65 239l-225 -102z" />
    <glyph glyph-name="plus" unicode="+" horiz-adv-x="1021" 
d="M90 637l23 106h393l92 424h119l-94 -424h393l-25 -106h-391l-98 -436h-117l96 436h-391z" />
    <glyph glyph-name="comma" unicode="," horiz-adv-x="471" 
d="M-37 -180q58 29 106.5 76t65.5 96h-16q-37 0 -62.5 25.5t-25.5 66.5q0 49 37.5 85t85.5 36q46 0 77 -31.5t31 -87.5q0 -94 -68.5 -188.5t-166.5 -145.5z" />
    <glyph glyph-name="hyphen" unicode="-" horiz-adv-x="614" 
d="M45 428l29 135h491l-28 -135h-492z" />
    <glyph glyph-name="period" unicode="." horiz-adv-x="473" 
d="M33 84q0 50 36 85.5t87 35.5q42 0 72 -31t30 -74q0 -51 -36 -85.5t-87 -34.5q-43 0 -72.5 30t-29.5 74z" />
    <glyph glyph-name="slash" unicode="/" horiz-adv-x="606" 
d="M-123 -41l805 1448h129l-807 -1448h-127z" />
    <glyph glyph-name="zero" unicode="0" horiz-adv-x="1253" 
d="M121 508q0 156 45.5 311t126.5 282t205 206t268 79q213 0 328.5 -141t115.5 -389q0 -156 -45 -311.5t-125 -283t-203.5 -207t-267.5 -79.5q-213 0 -330.5 143t-117.5 390zM293 498q0 -169 71.5 -270t219.5 -101q102 0 190 70.5t143.5 180.5t87 238.5t31.5 249.5
q0 169 -69.5 269t-218.5 100q-101 0 -189.5 -70t-145 -179.5t-88.5 -237.5t-32 -250z" />
    <glyph glyph-name="one" unicode="1" horiz-adv-x="694" 
d="M158 1014l417 352h150l-301 -1366h-170l252 1143l-270 -234z" />
    <glyph glyph-name="two" unicode="2" horiz-adv-x="1204" 
d="M0 0l37 168q134 82 226.5 140t199.5 130t177.5 126.5t140.5 117.5t110 116.5t65 110.5t25 111q0 100 -82 157.5t-213 57.5q-207 0 -350 -133l-80 121q77 74 195.5 118.5t244.5 44.5q93 0 175 -22t147.5 -65t104 -113t38.5 -158q0 -75 -30.5 -151.5t-91 -151.5
t-134.5 -145t-177.5 -146t-201.5 -140.5t-225 -141.5h670l-33 -152h-938z" />
    <glyph glyph-name="three" unicode="3" horiz-adv-x="1140" 
d="M-6 260l123 96q52 -106 161 -167.5t236 -61.5q150 0 238 80.5t88 206.5q0 96 -80 153.5t-223 57.5q-108 0 -131 -2l36 155q20 -2 185 -2q89 0 161.5 25t119 81t46.5 136q0 94 -84.5 155.5t-226.5 61.5q-196 0 -346 -133l-72 115q80 79 194 124t236 45q210 0 341.5 -91.5
t131.5 -252.5q0 -75 -33 -139.5t-86.5 -108t-118.5 -70.5t-132 -32q109 -25 179.5 -100.5t70.5 -192.5q0 -116 -62 -212.5t-175.5 -154t-254.5 -57.5q-175 0 -321 78.5t-201 206.5z" />
    <glyph glyph-name="four" unicode="4" horiz-adv-x="1142" 
d="M31 346l35 156l768 864h241l-192 -870h192l-33 -150h-192l-76 -346h-170l76 346h-649zM233 496h480l157 712z" />
    <glyph glyph-name="five" unicode="5" horiz-adv-x="1208" 
d="M72 248l129 102q107 -223 379 -223q143 0 241.5 95t98.5 233q0 123 -86 191.5t-222 68.5q-152 0 -284 -99l-111 56l152 694h835l-33 -152h-665l-100 -450q114 92 286 92q111 0 201.5 -42.5t147.5 -131t57 -209.5q0 -100 -39 -191t-107.5 -159t-167.5 -108t-213 -40
q-355 0 -499 273z" />
    <glyph glyph-name="six" unicode="6" horiz-adv-x="1210" 
d="M113 479q0 83 12.5 170.5t40 176.5t66.5 170.5t95 153t122.5 124t152.5 82.5t182 30q283 0 412 -204l-115 -115q-41 80 -121.5 124t-185.5 44q-76 0 -143.5 -30.5t-117 -79.5t-90.5 -117.5t-68 -138t-46 -146.5q-10 -30 -10 -43q61 68 170 122t223 54q183 0 298.5 -97.5
t115.5 -262.5q0 -138 -69 -257.5t-190.5 -191.5t-266.5 -72q-224 0 -345.5 132t-121.5 372zM276 449q0 -145 81 -233.5t225 -88.5q148 0 248 103t100 243q0 111 -84 176.5t-221 65.5q-191 0 -344 -170q-5 -40 -5 -96z" />
    <glyph glyph-name="seven" unicode="7" horiz-adv-x="1054" 
d="M133 0l815 1214h-727l33 152h932l-27 -117l-829 -1249h-197z" />
    <glyph glyph-name="eight" unicode="8" horiz-adv-x="1191" 
d="M61 324q0 150 112 255t302 144q-99 40 -168 115t-69 174q0 75 28.5 138t76.5 105.5t111 72.5t131 44t138 14q123 0 227.5 -37.5t172 -115.5t67.5 -182q0 -145 -106.5 -240.5t-280.5 -122.5q48 -22 90 -50.5t81 -68t62 -92.5t23 -112q0 -112 -69 -202.5t-183.5 -139
t-249.5 -48.5q-139 0 -249.5 38t-178.5 118.5t-68 192.5zM242 354q0 -108 91 -167.5t228 -59.5q130 0 229 70t99 184q0 61 -44 115.5t-101.5 86t-118.5 46.5q-166 -9 -274.5 -84.5t-108.5 -190.5zM408 995q0 -53 41 -101t95.5 -77t110.5 -43q158 11 255.5 76t97.5 174
q0 89 -85.5 149t-209.5 60q-126 0 -215.5 -64.5t-89.5 -173.5z" />
    <glyph glyph-name="nine" unicode="9" horiz-adv-x="1210" 
d="M92 182l115 115q41 -80 121.5 -124t185.5 -44q77 0 144.5 30.5t117 79.5t90.5 117.5t67.5 138t45.5 146.5q5 15 12 43q-64 -69 -172 -122.5t-221 -53.5q-183 0 -299.5 97.5t-116.5 262.5q0 138 69 257.5t191.5 191.5t268.5 72q222 0 344.5 -132t122.5 -372
q0 -98 -18.5 -200.5t-53.5 -205t-92.5 -192.5t-129.5 -159.5t-170.5 -110t-209.5 -40.5q-140 0 -245.5 54t-166.5 151zM360 891q0 -111 84.5 -176.5t219.5 -65.5q189 0 346 170q4 36 4 96q0 145 -81.5 233.5t-225.5 88.5q-148 0 -247.5 -103t-99.5 -243z" />
    <glyph glyph-name="colon" unicode=":" horiz-adv-x="460" 
d="M33 84q0 50 36 85.5t87 35.5q42 0 72 -31t30 -74q0 -51 -36 -85.5t-87 -34.5q-43 0 -72.5 30t-29.5 74zM209 883q0 51 36 86t87 35q43 0 72.5 -30t29.5 -73q0 -51 -36 -87t-87 -36q-42 0 -72 31t-30 74z" />
    <glyph glyph-name="semicolon" unicode=";" horiz-adv-x="471" 
d="M-37 -180q58 29 106.5 76t65.5 96h-16q-37 0 -62.5 25.5t-25.5 66.5q0 49 37.5 85t85.5 36q46 0 77 -31.5t31 -87.5q0 -94 -68.5 -188.5t-166.5 -145.5zM209 883q0 51 36 86t87 35q43 0 72.5 -30t29.5 -73q0 -51 -36 -87t-87 -36q-42 0 -72 31t-30 74z" />
    <glyph glyph-name="less" unicode="&#x3c;" horiz-adv-x="1021" 
d="M86 631l27 108l1001 449l-31 -135l-854 -375l689 -371l-27 -123z" />
    <glyph glyph-name="equal" unicode="=" horiz-adv-x="1021" 
d="M43 432l25 109h903l-25 -109h-903zM131 827l25 109h903l-25 -109h-903z" />
    <glyph glyph-name="greater" unicode="&#x3e;" horiz-adv-x="1021" 
d="M-12 184l30 135l856 371l-690 375l27 123l803 -449l-25 -108z" />
    <glyph glyph-name="question" unicode="?" horiz-adv-x="946" 
d="M186 1219q178 167 412 167q180 0 296 -82.5t116 -216.5q0 -74 -28.5 -134t-74.5 -100t-101 -73t-110 -60.5t-101 -56t-74.5 -66t-28.5 -83.5t34 -80l-137 -55q-47 61 -47 145q0 53 21 97t55 74.5t77.5 59.5t89 50.5t89 48.5t77.5 54t55 66t21 85q0 80 -65.5 128
t-183.5 48q-183 0 -314 -131zM254 84q0 49 37 85t88 36q42 0 72 -31t30 -74q0 -51 -37 -85.5t-88 -34.5q-43 0 -72.5 30t-29.5 74z" />
    <glyph glyph-name="at" unicode="@" horiz-adv-x="1603" 
d="M113 500q0 162 67.5 312t179 258t260.5 172.5t306 64.5q189 0 337.5 -88t228 -235.5t79.5 -326.5q0 -115 -31 -209t-82 -152.5t-113 -90t-128 -31.5q-82 0 -132 48.5t-55 117.5v14q-56 -80 -143 -130t-182 -50q-142 0 -228 92t-86 242q0 104 41.5 200t108.5 164.5
t154 109t177 40.5q95 0 163.5 -45t99.5 -115l26 127h139l-116 -555q-4 -24 -4 -43q0 -49 27.5 -77.5t68.5 -28.5q26 0 54 11t59 39t55 68.5t39.5 106.5t15.5 147q0 254 -160 417t-419 163q-145 0 -282 -61t-236.5 -161.5t-159.5 -235t-60 -275.5q0 -162 75.5 -295
t210.5 -209t302 -76q199 0 381 115l37 -53q-200 -129 -426 -129q-183 0 -332 85t-233 232t-84 326zM539 516q0 -101 55.5 -164t153.5 -63q95 0 172.5 53.5t130.5 130.5l59 285q-21 58 -75 103.5t-136 45.5q-150 0 -255 -119t-105 -272z" />
    <glyph glyph-name="A" unicode="A" horiz-adv-x="1347" 
d="M-92 0l852 1366h211l248 -1366h-185l-55 305h-680l-188 -305h-203zM383 455h580l-127 737z" />
    <glyph glyph-name="B" unicode="B" horiz-adv-x="1288" 
d="M49 0l301 1366h568q151 0 249.5 -88.5t98.5 -224.5q0 -142 -93.5 -247.5t-222.5 -119.5q87 -23 143 -103.5t56 -176.5q0 -78 -28 -148.5t-83 -129t-147 -93.5t-209 -35h-633zM252 152h426q139 0 218 78.5t79 187.5q0 90 -59 147.5t-160 57.5h-400zM389 774h424
q72 0 126 22t84 60t44 81t14 91q0 79 -59.5 132.5t-147.5 53.5h-387z" />
    <glyph glyph-name="C" unicode="C" horiz-adv-x="1384" 
d="M123 573q0 180 64.5 335t171.5 259t245.5 163t286.5 59q198 0 341.5 -86t217.5 -236l-164 -63q-58 117 -164 175t-239 58q-88 0 -173.5 -30t-158.5 -87.5t-128.5 -136t-87.5 -182.5t-32 -219q0 -203 125.5 -329t335.5 -126q200 0 366 158l127 -97
q-103 -108 -235.5 -160.5t-267.5 -52.5t-251.5 43t-200 120t-131.5 189.5t-48 245.5z" />
    <glyph glyph-name="D" unicode="D" horiz-adv-x="1433" 
d="M49 0l301 1366h457q113 0 217 -43.5t181 -119.5t123 -186t46 -235q0 -114 -31.5 -224t-100.5 -211.5t-168 -178t-243.5 -122.5t-316.5 -46h-465zM252 152h291q147 0 271 50t206.5 135t129 198t46.5 239q0 190 -120 315t-302 125h-287z" />
    <glyph glyph-name="E" unicode="E" horiz-adv-x="1165" 
d="M49 0l301 1366h895l-33 -152h-725l-98 -440h713l-35 -151h-711l-104 -471h725l-33 -152h-895z" />
    <glyph glyph-name="F" unicode="F" horiz-adv-x="1128" 
d="M49 0l301 1366h895l-33 -152h-725l-98 -440h713l-35 -151h-711l-137 -623h-170z" />
    <glyph glyph-name="G" unicode="G" horiz-adv-x="1460" 
d="M123 573q0 174 62 326.5t167 259.5t248.5 168.5t302.5 61.5q186 0 325.5 -82t213.5 -217l-154 -70q-53 103 -162 160t-243 57q-113 0 -218.5 -49.5t-185.5 -134.5t-128 -208.5t-48 -262.5q0 -204 126 -329.5t335 -125.5q196 0 360 145l62 279h-471l33 151h641l-111 -499
q-222 -228 -524 -228q-280 0 -455.5 166.5t-175.5 431.5z" />
    <glyph glyph-name="H" unicode="H" horiz-adv-x="1458" 
d="M49 0l301 1366h170l-129 -588h799l129 588h170l-301 -1366h-170l137 627h-799l-137 -627h-170z" />
    <glyph glyph-name="I" unicode="I" horiz-adv-x="489" 
d="M49 0l301 1366h170l-301 -1366h-170z" />
    <glyph glyph-name="J" unicode="J" horiz-adv-x="972" 
d="M-45 147l102 123q38 -67 104 -105t154 -38q123 0 201 77t109 210l209 952h170l-211 -954q-98 -437 -469 -437q-119 0 -217 44t-152 128z" />
    <glyph glyph-name="K" unicode="K" horiz-adv-x="1230" 
d="M49 0l301 1366h170l-153 -690l747 690h223l-712 -647l462 -719h-200l-389 623l-179 -164l-100 -459h-170z" />
    <glyph glyph-name="L" unicode="L" horiz-adv-x="1009" 
d="M27 0l301 1366h170l-269 -1214h635l-33 -152h-804z" />
    <glyph glyph-name="M" unicode="M" horiz-adv-x="1656" 
d="M49 0l301 1366h238l190 -1053l658 1053h252l-302 -1366h-169l253 1149l-716 -1149h-70l-211 1149l-254 -1149h-170z" />
    <glyph glyph-name="N" unicode="N" horiz-adv-x="1449" 
d="M49 0l301 1366h174l547 -1077l240 1077h170l-301 -1366h-164l-553 1100l-244 -1100h-170z" />
    <glyph glyph-name="O" unicode="O" horiz-adv-x="1566" 
d="M123 573q0 169 60.5 320.5t163.5 260t245 172t299 63.5q132 0 246.5 -40.5t200 -115t135 -188t49.5 -252.5q0 -169 -60 -321t-163 -260.5t-245 -172.5t-300 -64q-132 0 -246.5 40.5t-200 115.5t-135 189t-49.5 253zM303 582q0 -212 131.5 -333.5t329.5 -121.5
q115 0 221 49.5t184.5 135t125 208.5t46.5 262q0 142 -62.5 247t-165.5 156.5t-232 51.5q-116 0 -222 -49.5t-184.5 -135.5t-125 -208.5t-46.5 -261.5z" />
    <glyph glyph-name="P" unicode="P" horiz-adv-x="1202" 
d="M49 0l301 1366h531q153 0 255.5 -104t102.5 -248q0 -65 -17 -129t-57.5 -126.5t-99 -110t-149 -76.5t-201.5 -29h-377l-119 -543h-170zM371 694h358h-2q156 0 245 88t89 217q0 89 -65 152t-162 63h-347z" />
    <glyph glyph-name="Q" unicode="Q" horiz-adv-x="1566" 
d="M123 573q0 169 60.5 320.5t163.5 260t245 172t299 63.5q132 0 246.5 -40.5t200 -115t135 -188t49.5 -252.5q0 -202 -84 -375.5t-228 -286.5l84 -119l-135 -75l-80 112q-154 -74 -325 -74q-132 0 -246.5 40.5t-200 115.5t-135 189t-49.5 253zM303 582q0 -212 131.5 -333.5
t329.5 -121.5q117 0 225 51l-162 230l136 73l155 -219q103 91 163 225.5t60 294.5q0 142 -62.5 247t-165.5 156.5t-232 51.5q-116 0 -222 -49.5t-184.5 -135.5t-125 -208.5t-46.5 -261.5z" />
    <glyph glyph-name="R" unicode="R" horiz-adv-x="1247" 
d="M49 0l301 1366h502q156 0 271.5 -97.5t115.5 -258.5q0 -190 -122.5 -318t-321.5 -141l245 -551h-188l-229 543h-285l-119 -543h-170zM371 692h356h4q153 0 241.5 87.5t88.5 215.5q0 94 -70.5 156.5t-163.5 62.5h-340z" />
    <glyph glyph-name="S" unicode="S" horiz-adv-x="1200" 
d="M33 221l117 121q72 -100 190 -157.5t260 -57.5q76 0 136 23t95 61t52.5 81.5t17.5 88.5q0 54 -37.5 97t-97 73.5t-132 59t-145 61.5t-132 73.5t-97 102.5t-37.5 141q0 162 138.5 281t347.5 119q156 0 287.5 -59t203.5 -159l-115 -118q-66 90 -172.5 137t-224.5 47
t-200 -67t-82 -156q0 -44 29 -81t76.5 -63t108.5 -53.5t124.5 -51t124.5 -58.5t108.5 -73.5t76.5 -97t29 -128.5q0 -83 -33 -159.5t-94 -138t-157 -98.5t-213 -37q-180 0 -330.5 69t-222.5 177z" />
    <glyph glyph-name="T" unicode="T" horiz-adv-x="1167" 
d="M223 1214l33 152h1036l-32 -152h-435l-268 -1214h-170l268 1214h-432z" />
    <glyph glyph-name="U" unicode="U" horiz-adv-x="1435" 
d="M156 430q0 50 10 100l184 836h172l-184 -831q-10 -70 -10 -86q2 -142 97.5 -232t262.5 -90q181 0 279.5 104t142.5 304l184 831h172l-184 -834q-29 -132 -73.5 -230t-113.5 -173.5t-171 -114.5t-236 -39q-251 0 -391.5 123t-140.5 332z" />
    <glyph glyph-name="V" unicode="V" horiz-adv-x="1347" 
d="M209 1366h186l201 -1180l721 1180h203l-850 -1366h-211z" />
    <glyph glyph-name="W" unicode="W" horiz-adv-x="1808" 
d="M219 1366h184l52 -1139l563 1139h143l62 -1139l553 1139h194l-692 -1366h-184l-58 1102l-544 -1102h-185z" />
    <glyph glyph-name="X" unicode="X" horiz-adv-x="1335" 
d="M-86 0l690 713l-358 653h194l293 -543l514 543h223l-651 -676l381 -690h-194l-316 578l-557 -578h-219z" />
    <glyph glyph-name="Y" unicode="Y" horiz-adv-x="1282" 
d="M209 1366h186l285 -635l563 635h211l-711 -788l-127 -578h-170l127 578z" />
    <glyph glyph-name="Z" unicode="Z" horiz-adv-x="1198" 
d="M-12 0l30 141l994 1073h-756l33 152h987l-31 -141l-997 -1073h774l-33 -152h-1001z" />
    <glyph glyph-name="bracketleft" unicode="[" horiz-adv-x="497" 
d="M-115 -389l394 1778h380l-24 -113h-262l-344 -1552h262l-27 -113h-379z" />
    <glyph glyph-name="backslash" unicode="\" horiz-adv-x="606" 
d="M201 1407h121l163 -1448h-120z" />
    <glyph glyph-name="bracketright" unicode="]" horiz-adv-x="497" 
d="M-162 -389l27 113h260l344 1552h-262l24 113h383l-395 -1778h-381z" />
    <glyph glyph-name="asciicircum" unicode="^" horiz-adv-x="884" 
d="M78 682l497 684h117l193 -684h-121l-150 571l-403 -571h-133z" />
    <glyph glyph-name="underscore" unicode="_" horiz-adv-x="1155" 
d="M-160 -195l27 113h1165l-26 -113h-1166z" />
    <glyph glyph-name="grave" unicode="`" horiz-adv-x="462" 
d="M207 1434h160l237 -295h-117z" />
    <glyph glyph-name="a" unicode="a" horiz-adv-x="1177" 
d="M82 383q0 121 36.5 234.5t102 201.5t164.5 141.5t215 53.5q113 0 203 -48.5t141 -131.5l35 155h154l-220 -989h-153l31 141q-133 -166 -326 -166q-172 0 -277.5 109t-105.5 299zM244 412q0 -137 76 -218t200 -81q89 0 169.5 47.5t133.5 120.5l97 436q-39 70 -117.5 115
t-181.5 45q-109 0 -196.5 -67t-134 -172.5t-46.5 -225.5z" />
    <glyph glyph-name="b" unicode="b" horiz-adv-x="1177" 
d="M43 0l301 1366h154l-113 -518q133 166 326 166q173 0 278 -108.5t105 -299.5q0 -121 -37 -234.5t-102.5 -201.5t-164.5 -141.5t-215 -53.5q-113 0 -203 48.5t-141 132.5l-34 -156h-154zM256 272q39 -70 117.5 -114.5t181.5 -44.5q109 0 196.5 67t134 172.5t46.5 225.5
q0 137 -76.5 218t-200.5 81q-89 0 -169.5 -47.5t-133.5 -120.5z" />
    <glyph glyph-name="c" unicode="c" horiz-adv-x="1015" 
d="M82 418q0 120 43.5 230t118 190.5t178 128t217.5 47.5q260 0 371 -185l-117 -88q-37 66 -104 101t-146 35q-120 0 -213 -65t-140.5 -168.5t-47.5 -223.5q0 -147 86.5 -227t222.5 -80q76 0 141 32t111 86l86 -104q-148 -152 -352 -152q-203 0 -329 119.5t-126 323.5z" />
    <glyph glyph-name="d" unicode="d" horiz-adv-x="1177" 
d="M82 383q0 121 36.5 234.5t102 201.5t164.5 141.5t215 53.5q113 0 203 -48.5t141 -131.5l119 532h154l-304 -1366h-153l31 141q-133 -166 -326 -166q-172 0 -277.5 109t-105.5 299zM244 412q0 -137 76 -218t200 -81q89 0 169.5 47.5t133.5 120.5l97 436q-39 70 -117.5 115
t-181.5 45q-109 0 -196.5 -67t-134 -172.5t-46.5 -225.5z" />
    <glyph glyph-name="e" unicode="e" horiz-adv-x="1153" 
d="M82 414q0 162 73.5 300t202 219t281.5 81q194 0 310 -120.5t116 -311.5q0 -61 -16 -138h-805q-4 -16 -4 -47q0 -123 88 -209t247 -86q75 0 151 25.5t134 73.5l53 -109q-70 -53 -162.5 -85t-185.5 -32q-223 0 -353 120t-130 319zM258 559h660h6q0 4 1 18t1 19
q0 129 -79 210t-222 81q-132 0 -237.5 -97t-129.5 -231z" />
    <glyph glyph-name="f" unicode="f" horiz-adv-x="581" 
d="M86 0l188 854h-163l30 135h164l17 76q74 321 325 321q136 0 219 -83l-82 -95q-46 52 -125 52q-75 0 -119 -49.5t-65 -145.5l-16 -76h200l-30 -135h-201l-188 -854h-154z" />
    <glyph glyph-name="g" unicode="g" horiz-adv-x="1177" 
d="M-8 -233l96 104q102 -145 342 -145q58 0 107.5 16t94.5 50.5t79 95.5t53 145l29 125q-62 -78 -148.5 -122t-187.5 -44q-165 0 -271 103t-106 304q0 118 36.5 228.5t101.5 196.5t163.5 138t214.5 52q99 0 194.5 -50.5t151.5 -129.5l35 155h156l-215 -956
q-27 -120 -76 -206.5t-114.5 -135t-137.5 -70.5t-156 -22q-149 0 -257.5 38t-184.5 130zM242 424q0 -137 74.5 -217t201.5 -80q82 0 163.5 45.5t139.5 114.5l94 426q-41 75 -125 119.5t-182 44.5q-108 0 -193.5 -66.5t-129 -169t-43.5 -217.5z" />
    <glyph glyph-name="h" unicode="h" horiz-adv-x="1130" 
d="M45 0l301 1366h152l-115 -520q172 168 350 168q134 0 214.5 -64t80.5 -180q0 -44 -12 -84l-150 -686h-153l143 651q10 40 10 68q0 81 -55.5 119.5t-148.5 38.5q-80 0 -161 -45t-145 -111l-157 -721h-154z" />
    <glyph glyph-name="i" unicode="i" horiz-adv-x="460" 
d="M43 0l219 989h154l-219 -989h-154zM287 1221q0 51 36.5 83.5t79.5 32.5q40 0 67.5 -26.5t27.5 -63.5q0 -52 -36.5 -84.5t-80.5 -32.5q-41 0 -67.5 27t-26.5 64z" />
    <glyph glyph-name="j" unicode="j" horiz-adv-x="460" 
d="M-375 -315l76 108q53 -67 139 -67q145 0 183 178l239 1085h154l-240 -1085q-35 -152 -110 -228.5t-205 -76.5q-162 0 -236 86zM287 1221q0 51 36.5 83.5t79.5 32.5q40 0 67.5 -26.5t27.5 -63.5q0 -52 -36.5 -84.5t-80.5 -32.5q-41 0 -67.5 27t-26.5 64z" />
    <glyph glyph-name="k" unicode="k" horiz-adv-x="1052" 
d="M43 0l301 1366h154l-197 -893l627 516h202l-538 -448l321 -541h-184l-262 451l-207 -168l-63 -283h-154z" />
    <glyph glyph-name="l" unicode="l" horiz-adv-x="460" 
d="M43 0l301 1366h154l-301 -1366h-154z" />
    <glyph glyph-name="m" unicode="m" horiz-adv-x="1654" 
d="M43 0l219 989h154l-33 -143q24 28 53 53.5t69 53.5t89.5 44.5t99.5 16.5q119 0 189.5 -66.5t70.5 -130.5v-2q158 199 338 199q109 0 184.5 -64.5t75.5 -179.5q0 -22 -10 -84l-151 -686h-154l147 664q7 35 7 55q0 74 -48.5 116t-119.5 42q-68 0 -141 -44.5t-130 -111.5
l-159 -721h-154l147 664q9 40 9 63q0 67 -45 108.5t-127 41.5q-66 0 -137.5 -45t-129.5 -111l-159 -721h-154z" />
    <glyph glyph-name="n" unicode="n" horiz-adv-x="1130" 
d="M43 0l219 989h154l-33 -143q172 168 350 168q134 0 214.5 -64t80.5 -180q0 -38 -12 -84l-152 -686h-151l143 649q10 50 10 70q0 81 -55.5 119.5t-148.5 38.5q-81 0 -162 -44.5t-144 -111.5l-159 -721h-154z" />
    <glyph glyph-name="o" unicode="o" 
d="M82 416q0 116 42 224.5t114 191t175.5 132.5t219.5 50q210 0 331 -120.5t121 -318.5q0 -156 -70.5 -293.5t-198 -222t-281.5 -84.5q-210 0 -331.5 121t-121.5 320zM244 420q0 -141 78.5 -224t216.5 -83q109 0 198.5 65.5t138 169.5t48.5 221q0 141 -78.5 224.5
t-216.5 83.5q-108 0 -197.5 -65.5t-138.5 -170t-49 -221.5z" />
    <glyph glyph-name="p" unicode="p" 
d="M-41 -377l303 1366h154l-31 -141q133 166 326 166q173 0 278 -108.5t105 -299.5q0 -121 -37 -234.5t-102.5 -201.5t-164.5 -141.5t-215 -53.5q-113 0 -203 48.5t-141 132.5l-118 -533h-154zM256 272q39 -70 117.5 -114.5t181.5 -44.5q109 0 196.5 67t134 172.5
t46.5 225.5q0 137 -76.5 218t-200.5 81q-89 0 -169.5 -47.5t-133.5 -120.5z" />
    <glyph glyph-name="q" unicode="q" 
d="M82 383q0 121 36.5 234.5t102 201.5t164.5 141.5t215 53.5q113 0 203 -48.5t141 -131.5l35 155h154l-304 -1366h-153l115 518q-133 -166 -326 -166q-172 0 -277.5 109t-105.5 299zM244 412q0 -137 76 -218t200 -81q89 0 169.5 47.5t133.5 120.5l97 436q-39 70 -117.5 115
t-181.5 45q-109 0 -196.5 -67t-134 -172.5t-46.5 -225.5z" />
    <glyph glyph-name="r" unicode="r" horiz-adv-x="675" 
d="M43 0l219 989h154l-35 -149q78 88 162.5 130t206.5 42l-35 -160q-24 8 -78 8q-81 0 -158.5 -47t-128.5 -115l-153 -698h-154z" />
    <glyph glyph-name="s" unicode="s" horiz-adv-x="952" 
d="M6 152l98 104q43 -63 133.5 -109.5t194.5 -46.5q103 0 165 51.5t62 122.5q0 33 -22.5 61t-59 47.5t-83 39.5t-95.5 37t-95.5 41.5t-83 51.5t-59 67.5t-22.5 89.5q0 129 101 217t274 88q122 0 224 -46t155 -116l-90 -100q-35 57 -119 97t-178 40q-96 0 -154.5 -43.5
t-58.5 -108.5q0 -35 28.5 -64t74.5 -49.5t101.5 -40.5t111 -44.5t101.5 -55t74.5 -77t28.5 -105.5q0 -136 -104.5 -231t-284.5 -95q-134 0 -241.5 45.5t-176.5 131.5z" />
    <glyph glyph-name="t" unicode="t" horiz-adv-x="602" 
d="M100 854l31 135h164l59 271h152l-60 -271h203l-31 -135h-200l-137 -610q-2 -10 -2 -39q0 -92 98 -92q54 0 94 32l16 -122q-61 -48 -145 -48q-108 0 -167.5 45t-59.5 136q0 22 6 57l143 641h-164z" />
    <glyph glyph-name="u" unicode="u" horiz-adv-x="1128" 
d="M100 219q0 21 11 84l151 686h154l-144 -649q-10 -45 -10 -68q0 -82 55.5 -120.5t149.5 -38.5q79 0 159.5 44.5t143.5 110.5l160 721h153l-219 -989h-153l32 143q-172 -168 -348 -168q-135 0 -215 64t-80 180z" />
    <glyph glyph-name="v" unicode="v" horiz-adv-x="1003" 
d="M115 989h161l148 -811l510 811h172l-631 -989h-168z" />
    <glyph glyph-name="w" unicode="w" horiz-adv-x="1503" 
d="M133 989h156l63 -788l436 788h134l84 -788l415 788h168l-534 -989h-156l-82 795l-434 -795h-154z" />
    <glyph glyph-name="x" unicode="x" horiz-adv-x="997" 
d="M-86 0l489 508l-247 481h168l192 -377l358 377h185l-467 -481l270 -508h-170l-207 406l-387 -406h-184z" />
    <glyph glyph-name="y" unicode="y" horiz-adv-x="1003" 
d="M-94 -379l53 137q37 -16 98 -16q42 0 75.5 21.5t70.5 76.5l100 154l-188 995h161l148 -811l510 811h172l-762 -1190q-65 -103 -138.5 -151.5t-168.5 -48.5q-76 0 -131 22z" />
    <glyph glyph-name="z" unicode="z" horiz-adv-x="966" 
d="M-4 0l24 121l701 733h-537l31 135h746l-27 -117l-705 -737h549l-28 -135h-754z" />
    <glyph glyph-name="braceleft" unicode="{" horiz-adv-x="534" 
d="M-27 -170q0 27 7 55l94 422q4 24 4 35q0 46 -21.5 76.5t-58.5 30.5l25 102q56 0 90 39t47 102l94 420q30 137 112 207t203 70h127l-26 -113h-125q-66 0 -110.5 -42.5t-61.5 -119.5l-99 -446q-34 -145 -133 -181q60 -32 60 -110q0 -37 -8 -70l-93 -420q-4 -24 -4 -43
q0 -52 33 -86t84 -34h113l-25 -113h-98q-93 0 -161.5 61.5t-68.5 157.5z" />
    <glyph glyph-name="bar" unicode="|" horiz-adv-x="432" 
d="M201 -41v1448h112v-1448h-112z" />
    <glyph glyph-name="braceright" unicode="}" horiz-adv-x="534" 
d="M-164 -389l25 113h127q66 0 110.5 42t61.5 119l98 447q30 142 133 180q-59 32 -59 111q0 36 8 69l92 420q4 24 4 43q0 53 -33.5 87t-85.5 34h-112l26 113h99q93 0 161 -61.5t68 -158.5q0 -27 -8 -55l-92 -422q-4 -24 -4 -35q0 -46 20.5 -76t56.5 -30l-22 -102
q-56 0 -90 -39.5t-47 -102.5l-94 -420q-32 -137 -114.5 -206.5t-203.5 -69.5h-125z" />
    <glyph glyph-name="asciitilde" unicode="~" horiz-adv-x="1030" 
d="M139 879q22 101 52.5 183.5t74.5 152.5t104.5 109.5t133.5 39.5q57 0 95.5 -21.5t57 -56t29 -76.5t16.5 -83.5t15 -76t30 -56t56 -21.5q75 0 141 107.5t107 285.5l112 -12q-112 -488 -366 -488q-57 0 -95.5 21.5t-57 56t-29 76t-17 82.5t-15.5 75.5t-30.5 56t-56.5 21.5
q-74 0 -139 -106t-107 -285z" />
    <glyph glyph-name="uni00A0" unicode="&#xa0;" horiz-adv-x="530" 
 />
    <glyph glyph-name="exclamdown" unicode="&#xa1;" horiz-adv-x="471" 
d="M-55 -377l250 983h127l-185 -983h-192zM209 889q0 51 36 86t87 35q43 0 72.5 -30t29.5 -73q0 -51 -36 -87t-87 -36q-42 0 -72 31t-30 74z" />
    <glyph glyph-name="cent" unicode="&#xa2;" horiz-adv-x="1015" 
d="M82 418q0 119 42.5 228t115.5 189t174.5 128.5t214.5 50.5l33 143h120l-34 -153q176 -33 262 -175l-117 -88q-56 98 -176 127l-168 -755h2q76 0 141 32t111 86l86 -104q-148 -152 -352 -152h-19l-39 -180h-121l43 197q-148 36 -233.5 147.5t-85.5 278.5zM242 420
q0 -112 51 -186t139 -103l166 741q-107 -12 -189.5 -78t-124.5 -164t-42 -210z" />
    <glyph glyph-name="sterling" unicode="&#xa3;" horiz-adv-x="1060" 
d="M8 115q149 60 248.5 168t99.5 219q0 15 -4 47h-301l23 110h237q-9 16 -36.5 61.5t-40 70.5t-25 68.5t-12.5 86.5q0 114 66 215.5t181 163t250 61.5q150 0 269.5 -66.5t152.5 -176.5l-153 -68q-19 74 -92.5 121t-170.5 47q-132 0 -225.5 -86.5t-93.5 -224.5
q0 -53 16.5 -98t47.5 -97.5t42 -77.5h301l-24 -110h-248v-17q0 -100 -68.5 -193t-154.5 -146q44 16 96 16q67 0 167.5 -42t158.5 -42q102 0 188 82l41 -137q-108 -97 -239 -97q-62 0 -121.5 15t-100 32.5t-96.5 32.5t-111 15q-97 0 -235 -82z" />
    <glyph glyph-name="currency" unicode="&#xa4;" horiz-adv-x="1069" 
d="M23 283l157 129q-35 64 -49 109.5t-14 111.5q0 193 164 354l-76 100l65 54l80 -99q122 88 273 88q167 0 292 -116l160 131l51 -62l-159 -131q63 -104 63 -221q0 -187 -164 -354l78 -98l-70 -56l-75 101q-126 -91 -271 -91q-170 0 -297 121l-161 -135zM217 645
q0 -139 89 -226t229 -87q157 0 276 115.5t119 271.5q0 139 -89 226t-229 87q-157 0 -276 -115.5t-119 -271.5z" />
    <glyph glyph-name="yen" unicode="&#xa5;" horiz-adv-x="1282" 
d="M-10 250l24 108h516l50 220h-519l25 106h444l-315 682h186l285 -635l563 635h211l-614 -682h432l-23 -106h-505l-50 -220h506l-24 -108h-504l-55 -250h-170l55 250h-518z" />
    <glyph glyph-name="brokenbar" unicode="&#xa6;" horiz-adv-x="432" 
d="M201 -41v647h112v-647h-112zM201 760v647h112v-647h-112z" />
    <glyph glyph-name="section" unicode="&#xa7;" horiz-adv-x="958" 
d="M-43 0l98 94q51 -67 142.5 -106t197.5 -39q101 0 165.5 53t64.5 131q0 41 -28.5 73.5t-73.5 54.5t-100 42.5t-110 44.5t-100 53t-73.5 76t-28.5 107q0 102 77.5 179t219.5 101q-185 76 -185 226q0 120 101 208t268 88q133 0 235 -40.5t164 -112.5l-90 -84
q-48 61 -130.5 92t-172.5 31q-98 0 -160.5 -47t-62.5 -117q0 -41 28.5 -73t74.5 -53t101 -40.5t110 -43t101 -52.5t74.5 -77t28.5 -110q0 -98 -65.5 -177.5t-188.5 -114.5q78 -42 109.5 -93t31.5 -118q0 -132 -105 -227t-278 -95q-287 0 -440 166zM266 612q0 -30 12 -54.5
t31 -42.5t54 -36t68 -30.5t85 -30.5q113 31 166 88t53 121q0 67 -51 108t-141 72q-138 -18 -207.5 -71.5t-69.5 -123.5z" />
    <glyph glyph-name="dieresis" unicode="&#xa8;" horiz-adv-x="557" 
d="M135 1227q0 41 32 72.5t75 31.5q35 0 59.5 -24.5t24.5 -59.5q0 -41 -32.5 -72.5t-74.5 -31.5q-35 0 -59.5 24.5t-24.5 59.5zM557 1227q0 41 32 72.5t75 31.5q35 0 59.5 -24.5t24.5 -59.5q0 -41 -32 -72.5t-75 -31.5q-35 0 -59.5 24.5t-24.5 59.5z" />
    <glyph glyph-name="copyright" unicode="&#xa9;" horiz-adv-x="1593" 
d="M131 684q0 192 94.5 355t257 257.5t353.5 94.5q192 0 355 -94.5t258 -257.5t95 -355q0 -143 -56 -274t-151 -226t-226 -151t-275 -56q-191 0 -353.5 95t-257 258t-94.5 354zM195 684q0 -130 51 -249t137 -205t204.5 -137.5t248.5 -51.5t249.5 51.5t206 137.5t138 205
t51.5 249t-51.5 249t-138 205.5t-206 137.5t-249.5 51q-173 0 -321 -86.5t-234 -234.5t-86 -322zM406 629q0 102 41 195t108 157.5t155 102.5t179 38q219 0 319 -164l-63 -45q-37 69 -103.5 105.5t-154.5 36.5q-74 0 -146.5 -32t-130 -87t-93.5 -135.5t-36 -169.5
q0 -133 88.5 -224.5t229.5 -91.5q65 0 128.5 27t106.5 70l41 -58q-129 -106 -276 -106q-180 0 -286.5 108.5t-106.5 272.5z" />
    <glyph glyph-name="ordfeminine" unicode="&#xaa;" horiz-adv-x="839" 
d="M178 926q0 164 100.5 282.5t247.5 118.5q160 0 232 -110l20 94h117l-141 -643h-119l20 94q-91 -111 -219 -111q-109 0 -183.5 71.5t-74.5 203.5zM301 938q0 -92 48.5 -141t129.5 -49q108 0 197 100l65 293q-26 42 -78.5 67t-113.5 25q-103 0 -175.5 -87.5t-72.5 -207.5z
" />
    <glyph glyph-name="guillemotleft" unicode="&#xab;" horiz-adv-x="899" 
d="M59 498l410 362h162l-418 -373l238 -358h-146zM354 498l410 362h162l-418 -373l237 -358h-145z" />
    <glyph glyph-name="logicalnot" unicode="&#xac;" horiz-adv-x="1032" 
d="M131 827l25 109h903l-113 -504h-112l88 395h-791z" />
    <glyph glyph-name="uni00AD" unicode="&#xad;" horiz-adv-x="614" 
d="M45 428l29 135h491l-28 -135h-492z" />
    <glyph glyph-name="registered" unicode="&#xae;" horiz-adv-x="1011" 
d="M172 952q0 181 127 307.5t307 126.5q119 0 219 -57.5t157.5 -157.5t57.5 -219q0 -180 -127.5 -307t-308.5 -127q-180 0 -306 127t-126 307zM231 952q0 -155 108.5 -264.5t264.5 -109.5q155 0 266 110t111 264q0 157 -110.5 266t-266.5 109q-157 0 -265 -108.5
t-108 -266.5zM385 702l109 498h188q61 0 102 -35.5t41 -95.5q0 -70 -51.5 -119t-111.5 -49l90 -199h-78l-86 197h-94l-43 -197h-66zM506 958h139q47 0 79 30.5t32 74.5q0 36 -23.5 58t-60.5 22h-125z" />
    <glyph glyph-name="macron" unicode="&#xaf;" horiz-adv-x="743" 
d="M158 1210l22 99h742l-23 -99h-741z" />
    <glyph glyph-name="degree" unicode="&#xb0;" horiz-adv-x="593" 
d="M188 1137q0 103 72.5 176t175.5 73q104 0 178 -73t74 -176q0 -104 -74 -177t-178 -73q-103 0 -175.5 73t-72.5 177zM287 1137q0 -63 42.5 -106.5t104.5 -43.5q64 0 110 44t46 106t-45.5 106.5t-108.5 44.5q-61 0 -105 -44.5t-44 -106.5z" />
    <glyph glyph-name="plusminus" unicode="&#xb1;" horiz-adv-x="1021" 
d="M-51 0l22 109h903l-22 -109h-903zM94 664l25 106h393l92 424h119l-94 -424h393l-25 -106h-393l-96 -437h-117l96 437h-393z" />
    <glyph glyph-name="uni00B2" unicode="&#xb2;" horiz-adv-x="794" 
d="M182 862l23 101q83 50 130 78.5t112 69.5t100.5 66.5t80.5 59.5t68 59.5t45.5 55t31.5 57t9 55.5q0 62 -50.5 95.5t-123.5 33.5q-142 0 -229 -94l-57 80q115 115 290 115q77 0 141.5 -22t109 -74.5t44.5 -127.5q0 -44 -17.5 -88t-55 -87.5t-79.5 -82t-107 -84t-121 -81
t-138 -84.5h412l-21 -101h-598z" />
    <glyph glyph-name="uni00B3" unicode="&#xb3;" horiz-adv-x="794" 
d="M205 997l82 72q39 -59 102.5 -90t138.5 -31q85 0 134 47t49 117q0 54 -56.5 87.5t-148.5 33.5q-48 0 -62 -2l23 102q58 -4 125 -4q87 0 137.5 37t50.5 102q0 56 -56 90.5t-134 34.5q-117 0 -221 -88l-47 80q53 47 127.5 78t148.5 31q133 0 220 -54.5t87 -154.5
q0 -90 -63.5 -147.5t-165.5 -65.5q66 -13 112 -59.5t46 -116.5q0 -98 -82.5 -173t-219.5 -75q-112 0 -198 39t-129 110z" />
    <glyph glyph-name="acute" unicode="&#xb4;" horiz-adv-x="462" 
d="M137 1139l369 295h164l-412 -295h-121z" />
    <glyph glyph-name="mu" unicode="&#xb5;" horiz-adv-x="1128" 
d="M-41 -377l303 1366h154l-154 -690q-13 -102 34 -146t146 -44q85 0 175 44.5t151 108.5l162 727h153l-219 -989h-153l30 139q-77 -70 -181 -117t-208 -47q-89 0 -155 29l-84 -381h-154z" />
    <glyph glyph-name="paragraph" unicode="&#xb6;" horiz-adv-x="919" 
d="M162 981q0 97 50.5 185t143 144t203.5 56h406l-349 -1571h-92l330 1479h-182l-330 -1479h-92l192 867q-116 0 -198 91t-82 228z" />
    <glyph glyph-name="periodcentered" unicode="&#xb7;" horiz-adv-x="473" 
d="M123 492q0 51 36 86.5t87 35.5q43 0 72.5 -30.5t29.5 -73.5q0 -51 -36 -86t-87 -35q-43 0 -72.5 30t-29.5 73z" />
    <glyph glyph-name="cedilla" unicode="&#xb8;" horiz-adv-x="419" 
d="M-182 -313l55 73q68 -71 170 -71q60 0 92.5 27t32.5 69q0 28 -19.5 44.5t-54.5 16.5q-44 0 -74 -34l-59 38l102 173h93l-82 -136q26 23 67 23q54 0 86.5 -31.5t32.5 -87.5q0 -82 -61.5 -132t-159.5 -50q-69 0 -127 22t-94 56z" />
    <glyph glyph-name="uni00B9" unicode="&#xb9;" horiz-adv-x="481" 
d="M238 1456l272 225h108l-180 -819h-123l142 651l-160 -135z" />
    <glyph glyph-name="ordmasculine" unicode="&#xba;" horiz-adv-x="829" 
d="M182 944q0 158 109.5 270.5t263.5 112.5q140 0 223.5 -81t83.5 -212q0 -159 -109 -271t-264 -112q-139 0 -223 81t-84 212zM305 940q0 -85 51.5 -137.5t135.5 -52.5q111 0 180 85.5t69 200.5q0 85 -51 138t-137 53q-111 0 -179.5 -85.5t-68.5 -201.5z" />
    <glyph glyph-name="guillemotright" unicode="&#xbb;" horiz-adv-x="899" 
d="M-23 129l418 373l-237 358h145l246 -368l-410 -363h-162zM272 129l418 373l-237 358h145l246 -368l-410 -363h-162z" />
    <glyph glyph-name="onequarter" unicode="&#xbc;" horiz-adv-x="1576" 
d="M113 0l1173 1366h113l-1176 -1366h-110zM168 1141l272 225h109l-180 -819h-123l141 651l-160 -135zM795 205l18 92l471 522h170l-115 -514h117l-20 -100h-117l-45 -205h-123l45 205h-401zM940 305h277l90 397z" />
    <glyph glyph-name="onehalf" unicode="&#xbd;" horiz-adv-x="1652" 
d="M113 0l1173 1366h113l-1176 -1366h-110zM168 1141l272 225h109l-180 -819h-123l141 651l-160 -135zM850 0l22 100q95 57 147.5 89t124 78t109.5 75t82 66.5t65 66.5t35.5 62t14.5 65q0 62 -50.5 95.5t-123.5 33.5q-142 0 -229 -94l-58 80q114 114 291 114
q121 0 208 -56.5t87 -166.5q0 -53 -28.5 -107.5t-71 -100.5t-115.5 -101t-138.5 -97.5t-164.5 -101.5h411l-20 -100h-598z" />
    <glyph glyph-name="threequarters" unicode="&#xbe;" horiz-adv-x="1798" 
d="M135 682l82 72q39 -59 103 -90t139 -31q85 0 133.5 47t48.5 117q0 54 -56.5 87.5t-148.5 33.5q-40 0 -61 -3l22 103q58 -4 125 -4q87 0 138 37t51 102q0 56 -56.5 90.5t-134.5 34.5q-117 0 -221 -88l-47 80q52 47 126.5 77.5t149.5 30.5q133 0 220.5 -54.5t87.5 -154.5
q0 -90 -63.5 -147.5t-166.5 -65.5q66 -13 112 -59.5t46 -116.5q0 -98 -82 -173t-219 -75q-112 0 -198.5 39.5t-129.5 110.5zM334 0l1173 1366h113l-1176 -1366h-110zM1018 205l18 92l471 522h170l-114 -514h116l-20 -100h-117l-45 -205h-123l45 205h-401zM1163 305h277
l90 397z" />
    <glyph glyph-name="questiondown" unicode="&#xbf;" horiz-adv-x="806" 
d="M-68 -98q0 74 28.5 134t74.5 100t101.5 73t111.5 60.5t102 56t74.5 66t28.5 83.5q0 45 -35 80l135 55q49 -67 49 -145q0 -60 -27 -109t-70 -82t-95 -62.5t-103.5 -57t-94.5 -57.5t-70 -72.5t-27 -94.5q0 -80 66 -129t184 -49q179 0 315 133l76 -114q-176 -168 -412 -168
q-180 0 -296 82.5t-116 216.5zM461 889q0 51 37 86t88 35q42 0 72 -31t30 -74q0 -50 -36.5 -85.5t-86.5 -35.5q-44 0 -74 31t-30 74z" />
    <glyph glyph-name="Agrave" unicode="&#xc0;" horiz-adv-x="1347" 
d="M-92 0l852 1366h211l248 -1366h-185l-55 305h-680l-188 -305h-203zM383 455h580l-127 737zM633 1786h160l237 -295h-117z" />
    <glyph glyph-name="Aacute" unicode="&#xc1;" horiz-adv-x="1347" 
d="M-92 0l852 1366h211l248 -1366h-185l-55 305h-680l-188 -305h-203zM383 455h580l-127 737zM756 1491l368 295h164l-411 -295h-121z" />
    <glyph glyph-name="Acircumflex" unicode="&#xc2;" horiz-adv-x="1347" 
d="M-92 0l852 1366h211l248 -1366h-185l-55 305h-680l-188 -305h-203zM383 455h580l-127 737zM625 1491l260 295h147l135 -295h-100l-123 217l-211 -217h-108z" />
    <glyph glyph-name="Atilde" unicode="&#xc3;" horiz-adv-x="1347" 
d="M-92 0l852 1366h211l248 -1366h-185l-55 305h-680l-188 -305h-203zM383 455h580l-127 737zM575 1499q57 275 234 275q42 0 72 -19.5t47.5 -47t33 -55.5t38 -47.5t53.5 -19.5q86 0 127 176h94q-60 -274 -236 -274q-42 0 -72 19.5t-47 47t-32 55t-37.5 47t-52.5 19.5
q-88 0 -127 -176h-95z" />
    <glyph glyph-name="Adieresis" unicode="&#xc4;" horiz-adv-x="1347" 
d="M-92 0l852 1366h211l248 -1366h-185l-55 305h-680l-188 -305h-203zM383 455h580l-127 737zM610 1573q0 41 32 72.5t75 31.5q35 0 59.5 -24.5t24.5 -59.5q0 -41 -32.5 -72.5t-74.5 -31.5q-35 0 -59.5 24.5t-24.5 59.5zM1032 1573q0 41 32 72.5t75 31.5q35 0 59.5 -24.5
t24.5 -59.5q0 -41 -32 -72.5t-75 -31.5q-35 0 -59.5 24.5t-24.5 59.5z" />
    <glyph glyph-name="Aring" unicode="&#xc5;" horiz-adv-x="1347" 
d="M-92 0l852 1366h211l248 -1366h-185l-55 305h-680l-188 -305h-203zM383 455h580l-127 737zM719 1599q0 91 65.5 156.5t155.5 65.5q82 0 132 -50.5t50 -132.5q0 -90 -65.5 -155.5t-155.5 -65.5q-79 0 -130.5 51.5t-51.5 130.5zM801 1608q0 -48 29.5 -78.5t76.5 -30.5
q54 0 93.5 38.5t39.5 92.5q0 49 -29 79t-75 30q-54 0 -94.5 -38.5t-40.5 -92.5z" />
    <glyph glyph-name="AE" unicode="&#xc6;" horiz-adv-x="1941" 
d="M-96 0l1153 1366h962l-32 -152h-725l-99 -440h713l-35 -151h-711l-104 -471h725l-33 -152h-895l66 305h-529l-254 -305h-202zM475 455h449l159 725z" />
    <glyph glyph-name="Ccedilla" unicode="&#xc7;" horiz-adv-x="1384" 
d="M123 573q0 180 64.5 335t171.5 259t245.5 163t286.5 59q198 0 341.5 -86t217.5 -236l-164 -63q-58 117 -164 175t-239 58q-88 0 -173.5 -30t-158.5 -87.5t-128.5 -136t-87.5 -182.5t-32 -219q0 -203 125.5 -329t335.5 -126q200 0 366 158l127 -97
q-103 -108 -235.5 -160.5t-267.5 -52.5q-27 0 -39 2l-53 -90q26 23 67 23q54 0 86.5 -31.5t32.5 -87.5q0 -82 -61.5 -132t-159.5 -50q-69 0 -127 22t-94 56l55 73q68 -71 170 -71q60 0 92.5 27t32.5 69q0 28 -19.5 44.5t-54.5 16.5q-44 0 -74 -34l-59 38l80 136
q-227 36 -366.5 194t-139.5 393z" />
    <glyph glyph-name="Egrave" unicode="&#xc8;" horiz-adv-x="1165" 
d="M49 0l301 1366h895l-33 -152h-725l-98 -440h713l-35 -151h-711l-104 -471h725l-33 -152h-895zM565 1786h160l238 -295h-117z" />
    <glyph glyph-name="Eacute" unicode="&#xc9;" horiz-adv-x="1165" 
d="M49 0l301 1366h895l-33 -152h-725l-98 -440h713l-35 -151h-711l-104 -471h725l-33 -152h-895zM686 1491l369 295h164l-412 -295h-121z" />
    <glyph glyph-name="Ecircumflex" unicode="&#xca;" horiz-adv-x="1165" 
d="M49 0l301 1366h895l-33 -152h-725l-98 -440h713l-35 -151h-711l-104 -471h725l-33 -152h-895zM553 1491l260 295h148l135 -295h-101l-123 217l-210 -217h-109z" />
    <glyph glyph-name="Edieresis" unicode="&#xcb;" horiz-adv-x="1165" 
d="M49 0l301 1366h895l-33 -152h-725l-98 -440h713l-35 -151h-711l-104 -471h725l-33 -152h-895zM541 1573q0 41 31.5 72.5t74.5 31.5q35 0 59.5 -24.5t24.5 -59.5q0 -41 -32.5 -72.5t-73.5 -31.5q-35 0 -59.5 24.5t-24.5 59.5zM963 1573q0 41 31.5 72.5t74.5 31.5
q35 0 59.5 -24.5t24.5 -59.5q0 -41 -31.5 -72.5t-74.5 -31.5q-35 0 -59.5 24.5t-24.5 59.5z" />
    <glyph glyph-name="Igrave" unicode="&#xcc;" horiz-adv-x="489" 
d="M49 0l301 1366h170l-301 -1366h-170zM201 1786h159l238 -295h-117z" />
    <glyph glyph-name="Iacute" unicode="&#xcd;" horiz-adv-x="489" 
d="M49 0l301 1366h170l-301 -1366h-170zM328 1491l368 295h164l-411 -295h-121z" />
    <glyph glyph-name="Icircumflex" unicode="&#xce;" horiz-adv-x="489" 
d="M49 0l301 1366h170l-301 -1366h-170zM193 1491l260 295h147l135 -295h-100l-123 217l-211 -217h-108z" />
    <glyph glyph-name="Idieresis" unicode="&#xcf;" horiz-adv-x="489" 
d="M49 0l301 1366h170l-301 -1366h-170zM178 1573q0 41 32 72.5t75 31.5q35 0 59.5 -24.5t24.5 -59.5q0 -41 -32.5 -72.5t-74.5 -31.5q-35 0 -59.5 24.5t-24.5 59.5zM600 1573q0 41 32 72.5t75 31.5q35 0 59.5 -24.5t24.5 -59.5q0 -41 -32 -72.5t-75 -31.5q-35 0 -59.5 24.5
t-24.5 59.5z" />
    <glyph glyph-name="Eth" unicode="&#xd0;" horiz-adv-x="1490" 
d="M45 614l33 140h194l136 612h456q152 0 281.5 -73.5t208 -208.5t78.5 -302q0 -114 -32 -224t-101 -211.5t-167.5 -178t-243.5 -122.5t-317 -46h-465l136 614h-197zM309 152h291q147 0 271 50t206.5 135t129 198t46.5 239q0 190 -120 315t-302 125h-286l-103 -460h346
l-30 -140h-346z" />
    <glyph glyph-name="Ntilde" unicode="&#xd1;" horiz-adv-x="1449" 
d="M49 0l301 1366h174l547 -1077l240 1077h170l-301 -1366h-164l-553 1100l-244 -1100h-170zM623 1499q57 275 233 275q42 0 72 -19.5t47.5 -47t33 -55.5t38 -47.5t53.5 -19.5q86 0 127 176h94q-60 -274 -236 -274q-42 0 -72 19.5t-47 47t-32 55t-37.5 47t-52.5 19.5
q-88 0 -127 -176h-94z" />
    <glyph glyph-name="Ograve" unicode="&#xd2;" horiz-adv-x="1566" 
d="M123 573q0 169 60.5 320.5t163.5 260t245 172t299 63.5q132 0 246.5 -40.5t200 -115t135 -188t49.5 -252.5q0 -169 -60 -321t-163 -260.5t-245 -172.5t-300 -64q-132 0 -246.5 40.5t-200 115.5t-135 189t-49.5 253zM303 582q0 -212 131.5 -333.5t329.5 -121.5
q115 0 221 49.5t184.5 135t125 208.5t46.5 262q0 142 -62.5 247t-165.5 156.5t-232 51.5q-116 0 -222 -49.5t-184.5 -135.5t-125 -208.5t-46.5 -261.5zM748 1786h159l238 -295h-117z" />
    <glyph glyph-name="Oacute" unicode="&#xd3;" horiz-adv-x="1566" 
d="M123 573q0 169 60.5 320.5t163.5 260t245 172t299 63.5q132 0 246.5 -40.5t200 -115t135 -188t49.5 -252.5q0 -169 -60 -321t-163 -260.5t-245 -172.5t-300 -64q-132 0 -246.5 40.5t-200 115.5t-135 189t-49.5 253zM303 582q0 -212 131.5 -333.5t329.5 -121.5
q115 0 221 49.5t184.5 135t125 208.5t46.5 262q0 142 -62.5 247t-165.5 156.5t-232 51.5q-116 0 -222 -49.5t-184.5 -135.5t-125 -208.5t-46.5 -261.5zM866 1491l369 295h164l-412 -295h-121z" />
    <glyph glyph-name="Ocircumflex" unicode="&#xd4;" horiz-adv-x="1566" 
d="M123 573q0 169 60.5 320.5t163.5 260t245 172t299 63.5q132 0 246.5 -40.5t200 -115t135 -188t49.5 -252.5q0 -169 -60 -321t-163 -260.5t-245 -172.5t-300 -64q-132 0 -246.5 40.5t-200 115.5t-135 189t-49.5 253zM303 582q0 -212 131.5 -333.5t329.5 -121.5
q115 0 221 49.5t184.5 135t125 208.5t46.5 262q0 142 -62.5 247t-165.5 156.5t-232 51.5q-116 0 -222 -49.5t-184.5 -135.5t-125 -208.5t-46.5 -261.5zM735 1491l260 295h148l135 -295h-100l-123 217l-211 -217h-109z" />
    <glyph glyph-name="Otilde" unicode="&#xd5;" horiz-adv-x="1566" 
d="M123 573q0 169 60.5 320.5t163.5 260t245 172t299 63.5q132 0 246.5 -40.5t200 -115t135 -188t49.5 -252.5q0 -169 -60 -321t-163 -260.5t-245 -172.5t-300 -64q-132 0 -246.5 40.5t-200 115.5t-135 189t-49.5 253zM303 582q0 -212 131.5 -333.5t329.5 -121.5
q115 0 221 49.5t184.5 135t125 208.5t46.5 262q0 142 -62.5 247t-165.5 156.5t-232 51.5q-116 0 -222 -49.5t-184.5 -135.5t-125 -208.5t-46.5 -261.5zM684 1499q57 275 234 275q42 0 72 -19.5t47 -47t32.5 -55.5t38 -47.5t53.5 -19.5q86 0 127 176h94q-60 -274 -235 -274
q-42 0 -72 19.5t-47.5 47t-32.5 55t-37.5 47t-52.5 19.5q-88 0 -127 -176h-94z" />
    <glyph glyph-name="Odieresis" unicode="&#xd6;" horiz-adv-x="1566" 
d="M123 573q0 169 60.5 320.5t163.5 260t245 172t299 63.5q132 0 246.5 -40.5t200 -115t135 -188t49.5 -252.5q0 -169 -60 -321t-163 -260.5t-245 -172.5t-300 -64q-132 0 -246.5 40.5t-200 115.5t-135 189t-49.5 253zM303 582q0 -212 131.5 -333.5t329.5 -121.5
q115 0 221 49.5t184.5 135t125 208.5t46.5 262q0 142 -62.5 247t-165.5 156.5t-232 51.5q-116 0 -222 -49.5t-184.5 -135.5t-125 -208.5t-46.5 -261.5zM717 1573q0 41 31.5 72.5t74.5 31.5q35 0 59.5 -24.5t24.5 -59.5q0 -41 -32.5 -72.5t-73.5 -31.5q-35 0 -59.5 24.5
t-24.5 59.5zM1139 1573q0 41 31.5 72.5t74.5 31.5q35 0 59.5 -24.5t24.5 -59.5q0 -41 -31.5 -72.5t-74.5 -31.5q-35 0 -59.5 24.5t-24.5 59.5z" />
    <glyph glyph-name="multiply" unicode="&#xd7;" horiz-adv-x="1021" 
d="M98 383l379 309l-235 299l86 70l233 -301l375 307l65 -82l-374 -307l233 -301l-84 -70l-235 301l-373 -307z" />
    <glyph glyph-name="Oslash" unicode="&#xd8;" horiz-adv-x="1566" 
d="M123 573q0 169 60.5 320.5t163.5 260t245 172t299 63.5q224 0 387 -111l80 88h137l-137 -154q164 -161 164 -419q0 -169 -60 -321t-163 -260.5t-245 -172.5t-300 -64q-230 0 -398 117l-82 -92h-137l142 160q-156 163 -156 413zM303 582q0 -174 92 -293l770 862
q-118 86 -284 86q-116 0 -222 -49.5t-184.5 -135.5t-125 -208.5t-46.5 -261.5zM469 217q122 -90 295 -90q115 0 221 49.5t184.5 135t125 208.5t46.5 262q0 182 -100 299z" />
    <glyph glyph-name="Ugrave" unicode="&#xd9;" horiz-adv-x="1435" 
d="M156 430q0 50 10 100l184 836h172l-184 -831q-10 -70 -10 -86q2 -142 97.5 -232t262.5 -90q181 0 279.5 104t142.5 304l184 831h172l-184 -834q-29 -132 -73.5 -230t-113.5 -173.5t-171 -114.5t-236 -39q-251 0 -391.5 123t-140.5 332zM678 1786h160l237 -295h-117z" />
    <glyph glyph-name="Uacute" unicode="&#xda;" horiz-adv-x="1435" 
d="M156 430q0 50 10 100l184 836h172l-184 -831q-10 -70 -10 -86q2 -142 97.5 -232t262.5 -90q181 0 279.5 104t142.5 304l184 831h172l-184 -834q-29 -132 -73.5 -230t-113.5 -173.5t-171 -114.5t-236 -39q-251 0 -391.5 123t-140.5 332zM797 1491l368 295h164l-411 -295
h-121z" />
    <glyph glyph-name="Ucircumflex" unicode="&#xdb;" horiz-adv-x="1435" 
d="M156 430q0 50 10 100l184 836h172l-184 -831q-10 -70 -10 -86q2 -142 97.5 -232t262.5 -90q181 0 279.5 104t142.5 304l184 831h172l-184 -834q-29 -132 -73.5 -230t-113.5 -173.5t-171 -114.5t-236 -39q-251 0 -391.5 123t-140.5 332zM676 1491l260 295h147l136 -295
h-101l-123 217l-211 -217h-108z" />
    <glyph glyph-name="Udieresis" unicode="&#xdc;" horiz-adv-x="1435" 
d="M156 430q0 50 10 100l184 836h172l-184 -831q-10 -70 -10 -86q2 -142 97.5 -232t262.5 -90q181 0 279.5 104t142.5 304l184 831h172l-184 -834q-29 -132 -73.5 -230t-113.5 -173.5t-171 -114.5t-236 -39q-251 0 -391.5 123t-140.5 332zM653 1573q0 41 32 72.5t75 31.5
q35 0 59.5 -24.5t24.5 -59.5q0 -41 -32.5 -72.5t-74.5 -31.5q-35 0 -59.5 24.5t-24.5 59.5zM1075 1573q0 41 32 72.5t75 31.5q35 0 59.5 -24.5t24.5 -59.5q0 -41 -32 -72.5t-75 -31.5q-35 0 -59.5 24.5t-24.5 59.5z" />
    <glyph glyph-name="Yacute" unicode="&#xdd;" horiz-adv-x="1282" 
d="M209 1366h186l285 -635l563 635h211l-711 -788l-127 -578h-170l127 578zM729 1491l369 295h164l-412 -295h-121z" />
    <glyph glyph-name="Thorn" unicode="&#xde;" horiz-adv-x="1202" 
d="M49 0l301 1366h170l-53 -244h358q151 0 255 -103.5t104 -250.5q0 -66 -18 -130.5t-58.5 -126.5t-99.5 -108.5t-148.5 -75t-197.5 -28.5h-377l-66 -299h-170zM317 451h357q158 0 245 89.5t87 215.5q0 90 -67.5 152.5t-160.5 62.5h-346z" />
    <glyph glyph-name="germandbls" unicode="&#xdf;" horiz-adv-x="1222" 
d="M45 0l225 1022q36 162 144.5 263t277.5 101q90 0 171 -29.5t134.5 -87t53.5 -130.5q0 -74 -41.5 -127.5t-100.5 -84.5t-118 -58.5t-100.5 -65.5t-41.5 -88q0 -35 27.5 -63t71 -47.5t96.5 -38t106 -41t96.5 -51t71 -74t27.5 -103.5q0 -129 -103.5 -225.5t-279.5 -96.5
q-141 0 -238 43.5t-180 141.5l96 96q120 -154 326 -154q103 0 164 53.5t61 123.5q0 37 -27 66.5t-70.5 49t-96.5 37.5t-105.5 40t-96 49t-70.5 70t-27 99q0 77 40.5 134.5t98 90t114.5 60t97.5 61t40.5 76.5q0 62 -61.5 99.5t-139.5 37.5q-97 0 -169 -61t-95 -166
l-225 -1022h-154z" />
    <glyph glyph-name="agrave" unicode="&#xe0;" horiz-adv-x="1177" 
d="M82 383q0 121 36.5 234.5t102 201.5t164.5 141.5t215 53.5q113 0 203 -48.5t141 -131.5l35 155h154l-220 -989h-153l31 141q-133 -166 -326 -166q-172 0 -277.5 109t-105.5 299zM244 412q0 -137 76 -218t200 -81q89 0 169.5 47.5t133.5 120.5l97 436q-39 70 -117.5 115
t-181.5 45q-109 0 -196.5 -67t-134 -172.5t-46.5 -225.5zM434 1434h160l237 -295h-116z" />
    <glyph glyph-name="aacute" unicode="&#xe1;" horiz-adv-x="1177" 
d="M82 383q0 121 36.5 234.5t102 201.5t164.5 141.5t215 53.5q113 0 203 -48.5t141 -131.5l35 155h154l-220 -989h-153l31 141q-133 -166 -326 -166q-172 0 -277.5 109t-105.5 299zM244 412q0 -137 76 -218t200 -81q89 0 169.5 47.5t133.5 120.5l97 436q-39 70 -117.5 115
t-181.5 45q-109 0 -196.5 -67t-134 -172.5t-46.5 -225.5zM557 1139l369 295h164l-412 -295h-121z" />
    <glyph glyph-name="acircumflex" unicode="&#xe2;" horiz-adv-x="1177" 
d="M82 383q0 121 36.5 234.5t102 201.5t164.5 141.5t215 53.5q113 0 203 -48.5t141 -131.5l35 155h154l-220 -989h-153l31 141q-133 -166 -326 -166q-172 0 -277.5 109t-105.5 299zM244 412q0 -137 76 -218t200 -81q89 0 169.5 47.5t133.5 120.5l97 436q-39 70 -117.5 115
t-181.5 45q-109 0 -196.5 -67t-134 -172.5t-46.5 -225.5zM428 1139l260 295h148l135 -295h-101l-122 217l-211 -217h-109z" />
    <glyph glyph-name="atilde" unicode="&#xe3;" horiz-adv-x="1177" 
d="M82 383q0 121 36.5 234.5t102 201.5t164.5 141.5t215 53.5q113 0 203 -48.5t141 -131.5l35 155h154l-220 -989h-153l31 141q-133 -166 -326 -166q-172 0 -277.5 109t-105.5 299zM244 412q0 -137 76 -218t200 -81q89 0 169.5 47.5t133.5 120.5l97 436q-39 70 -117.5 115
t-181.5 45q-109 0 -196.5 -67t-134 -172.5t-46.5 -225.5zM377 1147q57 274 233 274q42 0 72 -19.5t47.5 -47t33 -55t38 -47t53.5 -19.5q86 0 127 176h94q-60 -274 -235 -274q-42 0 -72 19.5t-47.5 47t-32.5 55t-37.5 47t-52.5 19.5q-88 0 -127 -176h-94z" />
    <glyph glyph-name="adieresis" unicode="&#xe4;" horiz-adv-x="1177" 
d="M82 383q0 121 36.5 234.5t102 201.5t164.5 141.5t215 53.5q113 0 203 -48.5t141 -131.5l35 155h154l-220 -989h-153l31 141q-133 -166 -326 -166q-172 0 -277.5 109t-105.5 299zM244 412q0 -137 76 -218t200 -81q89 0 169.5 47.5t133.5 120.5l97 436q-39 70 -117.5 115
t-181.5 45q-109 0 -196.5 -67t-134 -172.5t-46.5 -225.5zM414 1227q0 41 31.5 72.5t74.5 31.5q35 0 59.5 -24.5t24.5 -59.5q0 -41 -32.5 -72.5t-73.5 -31.5q-35 0 -59.5 24.5t-24.5 59.5zM836 1227q0 41 31.5 72.5t74.5 31.5q35 0 59.5 -24.5t24.5 -59.5q0 -41 -31.5 -72.5
t-74.5 -31.5q-35 0 -59.5 24.5t-24.5 59.5z" />
    <glyph glyph-name="aring" unicode="&#xe5;" horiz-adv-x="1177" 
d="M82 383q0 121 36.5 234.5t102 201.5t164.5 141.5t215 53.5q113 0 203 -48.5t141 -131.5l35 155h154l-220 -989h-153l31 141q-133 -166 -326 -166q-172 0 -277.5 109t-105.5 299zM244 412q0 -137 76 -218t200 -81q89 0 169.5 47.5t133.5 120.5l97 436q-39 70 -117.5 115
t-181.5 45q-109 0 -196.5 -67t-134 -172.5t-46.5 -225.5zM539 1303q0 90 65.5 155.5t155.5 65.5q82 0 132 -50.5t50 -132.5q0 -90 -65.5 -155.5t-155.5 -65.5q-79 0 -130.5 51.5t-51.5 131.5zM621 1311q0 -48 29.5 -78.5t76.5 -30.5q54 0 93.5 38.5t39.5 92.5q0 49 -29 79
t-75 30q-54 0 -94.5 -38.5t-40.5 -92.5z" />
    <glyph glyph-name="ae" unicode="&#xe6;" horiz-adv-x="1923" 
d="M82 383q0 121 37 234.5t103 201.5t165 141.5t215 53.5q113 0 202.5 -48t141.5 -132l33 155h154l-37 -164q71 89 162.5 139t193.5 50q185 0 284 -114.5t99 -309.5q0 -81 -18 -146h-797q-2 -8 -2 -47q0 -123 87.5 -207t248.5 -84q154 0 274 97l53 -111q-70 -53 -156 -85
t-169 -32q-156 0 -255 71t-136 190l-52 -236h-153l33 141q-133 -166 -328 -166q-172 0 -277.5 109t-105.5 299zM246 412q0 -137 75 -218t199 -81q89 0 171 48t132 120l97 436q-37 70 -116.5 115t-182.5 45q-109 0 -196 -67t-133 -172.5t-46 -225.5zM1036 559h656q2 8 2 37
q0 130 -74.5 210.5t-216.5 80.5q-132 0 -237.5 -97t-129.5 -231z" />
    <glyph glyph-name="ccedilla" unicode="&#xe7;" horiz-adv-x="1015" 
d="M82 418q0 120 43.5 230t118 190.5t178 128t217.5 47.5q260 0 371 -185l-117 -88q-37 66 -104 101t-146 35q-120 0 -213 -65t-140.5 -168.5t-47.5 -223.5q0 -147 86.5 -227t222.5 -80q76 0 141 32t111 86l86 -104q-148 -152 -352 -152h-23l-53 -88q26 23 67 23
q54 0 86.5 -31.5t32.5 -87.5q0 -82 -61.5 -132t-159.5 -50q-69 0 -127 22t-94 56l55 73q68 -71 170 -71q60 0 92.5 27t32.5 69q0 28 -19.5 44.5t-54.5 16.5q-43 0 -73 -34l-60 38l80 136q-160 30 -253 143t-93 289z" />
    <glyph glyph-name="egrave" unicode="&#xe8;" horiz-adv-x="1153" 
d="M82 414q0 162 73.5 300t202 219t281.5 81q194 0 310 -120.5t116 -311.5q0 -61 -16 -138h-805q-4 -16 -4 -47q0 -123 88 -209t247 -86q75 0 151 25.5t134 73.5l53 -109q-70 -53 -162.5 -85t-185.5 -32q-223 0 -353 120t-130 319zM258 559h660h6q0 4 1 18t1 19
q0 129 -79 210t-222 81q-132 0 -237.5 -97t-129.5 -231zM465 1434h160l237 -295h-117z" />
    <glyph glyph-name="eacute" unicode="&#xe9;" horiz-adv-x="1153" 
d="M82 414q0 162 73.5 300t202 219t281.5 81q194 0 310 -120.5t116 -311.5q0 -61 -16 -138h-805q-4 -16 -4 -47q0 -123 88 -209t247 -86q75 0 151 25.5t134 73.5l53 -109q-70 -53 -162.5 -85t-185.5 -32q-223 0 -353 120t-130 319zM258 559h660h6q0 4 1 18t1 19
q0 129 -79 210t-222 81q-132 0 -237.5 -97t-129.5 -231zM588 1139l368 295h164l-411 -295h-121z" />
    <glyph glyph-name="ecircumflex" unicode="&#xea;" horiz-adv-x="1153" 
d="M82 414q0 162 73.5 300t202 219t281.5 81q194 0 310 -120.5t116 -311.5q0 -61 -16 -138h-805q-4 -16 -4 -47q0 -123 88 -209t247 -86q75 0 151 25.5t134 73.5l53 -109q-70 -53 -162.5 -85t-185.5 -32q-223 0 -353 120t-130 319zM258 559h660h6q0 4 1 18t1 19
q0 129 -79 210t-222 81q-132 0 -237.5 -97t-129.5 -231zM457 1139l260 295h147l135 -295h-100l-123 217l-211 -217h-108z" />
    <glyph glyph-name="edieresis" unicode="&#xeb;" horiz-adv-x="1153" 
d="M82 414q0 162 73.5 300t202 219t281.5 81q194 0 310 -120.5t116 -311.5q0 -61 -16 -138h-805q-4 -16 -4 -47q0 -123 88 -209t247 -86q75 0 151 25.5t134 73.5l53 -109q-70 -53 -162.5 -85t-185.5 -32q-223 0 -353 120t-130 319zM258 559h660h6q0 4 1 18t1 19
q0 129 -79 210t-222 81q-132 0 -237.5 -97t-129.5 -231zM442 1227q0 41 32 72.5t75 31.5q35 0 59.5 -24.5t24.5 -59.5q0 -41 -32.5 -72.5t-74.5 -31.5q-35 0 -59.5 24.5t-24.5 59.5zM864 1227q0 41 32 72.5t75 31.5q35 0 59.5 -24.5t24.5 -59.5q0 -41 -32 -72.5t-75 -31.5
q-35 0 -59.5 24.5t-24.5 59.5z" />
    <glyph glyph-name="igrave" unicode="&#xec;" horiz-adv-x="460" 
d="M43 0l219 989h154l-219 -989h-154zM109 1434h159l238 -295h-117z" />
    <glyph glyph-name="iacute" unicode="&#xed;" horiz-adv-x="460" 
d="M43 0l219 989h154l-219 -989h-154zM233 1139l369 295h164l-412 -295h-121z" />
    <glyph glyph-name="icircumflex" unicode="&#xee;" horiz-adv-x="460" 
d="M43 0l219 989h154l-219 -989h-154zM102 1139l260 295h148l135 -295h-100l-123 217l-211 -217h-109z" />
    <glyph glyph-name="idieresis" unicode="&#xef;" horiz-adv-x="460" 
d="M43 0l219 989h154l-219 -989h-154zM88 1227q0 41 32 72.5t75 31.5q35 0 59.5 -24.5t24.5 -59.5q0 -41 -32.5 -72.5t-74.5 -31.5q-35 0 -59.5 24.5t-24.5 59.5zM510 1227q0 41 31.5 72.5t74.5 31.5q35 0 59.5 -24.5t24.5 -59.5q0 -41 -31.5 -72.5t-74.5 -31.5
q-35 0 -59.5 24.5t-24.5 59.5z" />
    <glyph glyph-name="eth" unicode="&#xf0;" 
d="M80 397q0 160 69 294.5t186.5 212t256.5 77.5q109 0 201.5 -54t140.5 -163q-65 195 -246 379l-323 -96l-19 83l270 80q-43 39 -133 109l109 117q114 -87 199 -172l239 71l17 -84l-193 -57q238 -279 238 -573q0 -176 -69 -323.5t-196 -235t-286 -87.5q-204 0 -332.5 119
t-128.5 303zM242 414q0 -135 79.5 -218t221.5 -83q155 0 265 129t110 311q0 54 -18 104.5t-53.5 93t-95.5 68t-137 25.5q-153 0 -262.5 -125t-109.5 -305z" />
    <glyph glyph-name="ntilde" unicode="&#xf1;" horiz-adv-x="1130" 
d="M49 0l219 989h154l-33 -143q172 168 350 168q134 0 214.5 -64t80.5 -180q0 -38 -12 -84l-152 -686h-151l143 649q10 50 10 70q0 81 -55.5 119.5t-148.5 38.5q-81 0 -162 -44.5t-144 -111.5l-159 -721h-154zM389 1147q57 274 234 274q42 0 72 -19.5t47 -47t32.5 -55
t38 -47t53.5 -19.5q86 0 127 176h94q-60 -274 -235 -274q-42 0 -72 19.5t-47.5 47t-32.5 55t-37.5 47t-52.5 19.5q-88 0 -127 -176h-94z" />
    <glyph glyph-name="ograve" unicode="&#xf2;" 
d="M82 416q0 116 42 224.5t114 191t175.5 132.5t219.5 50q210 0 331 -120.5t121 -318.5q0 -156 -70.5 -293.5t-198 -222t-281.5 -84.5q-210 0 -331.5 121t-121.5 320zM244 420q0 -141 78.5 -224t216.5 -83q109 0 198.5 65.5t138 169.5t48.5 221q0 141 -78.5 224.5
t-216.5 83.5q-108 0 -197.5 -65.5t-138.5 -170t-49 -221.5zM465 1434h160l237 -295h-117z" />
    <glyph glyph-name="oacute" unicode="&#xf3;" 
d="M82 416q0 116 42 224.5t114 191t175.5 132.5t219.5 50q210 0 331 -120.5t121 -318.5q0 -156 -70.5 -293.5t-198 -222t-281.5 -84.5q-210 0 -331.5 121t-121.5 320zM244 420q0 -141 78.5 -224t216.5 -83q109 0 198.5 65.5t138 169.5t48.5 221q0 141 -78.5 224.5
t-216.5 83.5q-108 0 -197.5 -65.5t-138.5 -170t-49 -221.5zM588 1139l368 295h164l-411 -295h-121z" />
    <glyph glyph-name="ocircumflex" unicode="&#xf4;" 
d="M82 416q0 116 42 224.5t114 191t175.5 132.5t219.5 50q210 0 331 -120.5t121 -318.5q0 -156 -70.5 -293.5t-198 -222t-281.5 -84.5q-210 0 -331.5 121t-121.5 320zM244 420q0 -141 78.5 -224t216.5 -83q109 0 198.5 65.5t138 169.5t48.5 221q0 141 -78.5 224.5
t-216.5 83.5q-108 0 -197.5 -65.5t-138.5 -170t-49 -221.5zM459 1139l260 295h147l135 -295h-100l-123 217l-211 -217h-108z" />
    <glyph glyph-name="otilde" unicode="&#xf5;" 
d="M82 416q0 116 42 224.5t114 191t175.5 132.5t219.5 50q210 0 331 -120.5t121 -318.5q0 -156 -70.5 -293.5t-198 -222t-281.5 -84.5q-210 0 -331.5 121t-121.5 320zM244 420q0 -141 78.5 -224t216.5 -83q109 0 198.5 65.5t138 169.5t48.5 221q0 141 -78.5 224.5
t-216.5 83.5q-108 0 -197.5 -65.5t-138.5 -170t-49 -221.5zM410 1147q57 274 233 274q42 0 72 -19.5t47.5 -47t33 -55t38 -47t53.5 -19.5q86 0 127 176h94q-60 -274 -236 -274q-42 0 -72 19.5t-47 47t-32 55t-37.5 47t-52.5 19.5q-88 0 -127 -176h-94z" />
    <glyph glyph-name="odieresis" unicode="&#xf6;" 
d="M82 416q0 116 42 224.5t114 191t175.5 132.5t219.5 50q210 0 331 -120.5t121 -318.5q0 -156 -70.5 -293.5t-198 -222t-281.5 -84.5q-210 0 -331.5 121t-121.5 320zM244 420q0 -141 78.5 -224t216.5 -83q109 0 198.5 65.5t138 169.5t48.5 221q0 141 -78.5 224.5
t-216.5 83.5q-108 0 -197.5 -65.5t-138.5 -170t-49 -221.5zM442 1227q0 41 32 72.5t75 31.5q35 0 59.5 -24.5t24.5 -59.5q0 -41 -32.5 -72.5t-74.5 -31.5q-35 0 -59.5 24.5t-24.5 59.5zM864 1227q0 41 32 72.5t75 31.5q35 0 59.5 -24.5t24.5 -59.5q0 -41 -32 -72.5
t-75 -31.5q-35 0 -59.5 24.5t-24.5 59.5z" />
    <glyph glyph-name="divide" unicode="&#xf7;" horiz-adv-x="1046" 
d="M90 637l23 106h927l-22 -106h-928zM383 289q0 41 30.5 70.5t71.5 29.5q36 0 61 -25t25 -61q0 -42 -30 -71t-72 -29q-35 0 -60.5 25.5t-25.5 60.5zM557 1071q0 41 29.5 70.5t72.5 29.5q35 0 60.5 -25.5t25.5 -60.5q0 -43 -30.5 -72.5t-73.5 -29.5q-35 0 -59.5 25.5
t-24.5 62.5z" />
    <glyph glyph-name="oslash" unicode="&#xf8;" 
d="M16 0l146 143q-80 112 -80 273q0 116 42 224.5t114 191t175.5 132.5t219.5 50q184 0 309 -101l76 76h119l-140 -137q88 -114 88 -277q0 -156 -70.5 -293.5t-198 -222t-281.5 -84.5q-195 0 -318 107l-82 -82h-119zM244 420q0 -94 35 -162l552 547q-78 72 -202 72
q-108 0 -197.5 -65.5t-138.5 -170t-49 -221.5zM328 188q75 -75 211 -75q109 0 198.5 65.5t138 169.5t48.5 221q0 99 -41 170z" />
    <glyph glyph-name="ugrave" unicode="&#xf9;" horiz-adv-x="1128" 
d="M100 219q0 21 11 84l151 686h154l-144 -649q-10 -45 -10 -68q0 -82 55.5 -120.5t149.5 -38.5q79 0 159.5 44.5t143.5 110.5l160 721h153l-219 -989h-153l32 143q-172 -168 -348 -168q-135 0 -215 64t-80 180zM449 1434h159l238 -295h-117z" />
    <glyph glyph-name="uacute" unicode="&#xfa;" horiz-adv-x="1128" 
d="M100 219q0 21 11 84l151 686h154l-144 -649q-10 -45 -10 -68q0 -82 55.5 -120.5t149.5 -38.5q79 0 159.5 44.5t143.5 110.5l160 721h153l-219 -989h-153l32 143q-172 -168 -348 -168q-135 0 -215 64t-80 180zM569 1139l369 295h164l-412 -295h-121z" />
    <glyph glyph-name="ucircumflex" unicode="&#xfb;" horiz-adv-x="1128" 
d="M100 219q0 21 11 84l151 686h154l-144 -649q-10 -45 -10 -68q0 -82 55.5 -120.5t149.5 -38.5q79 0 159.5 44.5t143.5 110.5l160 721h153l-219 -989h-153l32 143q-172 -168 -348 -168q-135 0 -215 64t-80 180zM436 1139l260 295h148l135 -295h-100l-123 217l-211 -217
h-109z" />
    <glyph glyph-name="udieresis" unicode="&#xfc;" horiz-adv-x="1128" 
d="M100 219q0 21 11 84l151 686h154l-144 -649q-10 -45 -10 -68q0 -82 55.5 -120.5t149.5 -38.5q79 0 159.5 44.5t143.5 110.5l160 721h153l-219 -989h-153l32 143q-172 -168 -348 -168q-135 0 -215 64t-80 180zM428 1227q0 41 32 72.5t75 31.5q35 0 59 -24.5t24 -59.5
q0 -41 -32.5 -72.5t-73.5 -31.5q-35 0 -59.5 24.5t-24.5 59.5zM850 1227q0 41 31.5 72.5t74.5 31.5q35 0 59.5 -24.5t24.5 -59.5q0 -41 -31.5 -72.5t-74.5 -31.5q-35 0 -59.5 24.5t-24.5 59.5z" />
    <glyph glyph-name="yacute" unicode="&#xfd;" horiz-adv-x="1003" 
d="M-94 -379l53 137q37 -16 98 -16q42 0 75.5 21.5t70.5 76.5l100 154l-188 995h161l148 -811l510 811h172l-762 -1190q-65 -103 -138.5 -151.5t-168.5 -48.5q-76 0 -131 22zM506 1139l368 295h164l-411 -295h-121z" />
    <glyph glyph-name="thorn" unicode="&#xfe;" 
d="M-41 -377l385 1743h154l-113 -518q133 166 326 166q173 0 278 -108.5t105 -299.5q0 -121 -37 -234.5t-102.5 -201.5t-164.5 -141.5t-215 -53.5q-113 0 -203 48.5t-141 132.5l-118 -533h-154zM256 272q39 -70 117.5 -114.5t181.5 -44.5q109 0 196.5 67t134 172.5
t46.5 225.5q0 137 -76.5 218t-200.5 81q-89 0 -169.5 -47.5t-133.5 -120.5z" />
    <glyph glyph-name="ydieresis" unicode="&#xff;" horiz-adv-x="1003" 
d="M-94 -379l53 137q37 -16 98 -16q42 0 75.5 21.5t70.5 76.5l100 154l-188 995h161l148 -811l510 811h172l-762 -1190q-65 -103 -138.5 -151.5t-168.5 -48.5q-76 0 -131 22zM358 1227q0 41 32 72.5t75 31.5q35 0 59.5 -24.5t24.5 -59.5q0 -41 -32.5 -72.5t-74.5 -31.5
q-35 0 -59.5 24.5t-24.5 59.5zM780 1227q0 41 32 72.5t75 31.5q35 0 59.5 -24.5t24.5 -59.5q0 -41 -32 -72.5t-75 -31.5q-35 0 -59.5 24.5t-24.5 59.5z" />
    <glyph glyph-name="OE" unicode="&#x152;" horiz-adv-x="2263" 
d="M123 573q0 176 62.5 329t167.5 258.5t245.5 165.5t294.5 60q172 0 300.5 -75.5t188.5 -239.5l66 295h895l-33 -152h-725l-98 -440h711l-33 -151h-713l-104 -471h727l-33 -152h-895l43 209q-83 -110 -208 -172t-284 -62q-253 0 -414 167.5t-161 430.5zM303 582
q0 -207 124 -331t323 -124q147 0 277.5 76t209.5 209l100 456q-29 174 -147.5 270.5t-296.5 96.5q-120 0 -228.5 -50t-188 -136t-126.5 -208t-47 -259z" />
    <glyph glyph-name="oe" unicode="&#x153;" horiz-adv-x="1970" 
d="M82 416q0 153 68.5 289.5t195.5 222.5t283 86q88 0 162 -29t120 -74t74 -91t37 -89q182 283 440 283q187 0 305.5 -116t118.5 -316q0 -71 -18 -138h-797q-2 -8 -2 -47q0 -124 87.5 -209.5t244.5 -85.5q73 0 148 27t130 72l54 -109q-66 -54 -156.5 -85.5t-185.5 -31.5
q-74 0 -140 18.5t-113 48t-84 67.5t-58 75.5t-29 73.5q-20 -31 -34 -50.5t-40.5 -52.5t-50.5 -54.5t-59.5 -47.5t-71.5 -41.5t-83 -26t-98 -10.5q-202 0 -325 118.5t-123 322.5zM244 420q0 -141 76.5 -224t214.5 -83q160 0 270 135t110 321q0 154 -82.5 231t-207.5 77
q-158 0 -269.5 -135.5t-111.5 -321.5zM1087 559h656q4 16 4 37q0 126 -77.5 208.5t-219.5 82.5q-71 0 -137 -30.5t-112 -79t-76 -106t-38 -112.5z" />
    <glyph glyph-name="Ydieresis" unicode="&#x178;" horiz-adv-x="1282" 
d="M209 1366h186l285 -635l563 635h211l-711 -788l-127 -578h-170l127 578zM582 1573q0 41 31.5 72.5t74.5 31.5q35 0 59.5 -24.5t24.5 -59.5q0 -41 -32.5 -72.5t-73.5 -31.5q-35 0 -59.5 24.5t-24.5 59.5zM1004 1573q0 41 31.5 72.5t74.5 31.5q35 0 59.5 -24.5t24.5 -59.5
q0 -41 -32 -72.5t-75 -31.5q-35 0 -59 24.5t-24 59.5z" />
    <glyph glyph-name="circumflex" unicode="&#x2c6;" horiz-adv-x="542" 
d="M141 1139l260 295h148l135 -295h-100l-123 217l-211 -217h-109z" />
    <glyph glyph-name="tilde" unicode="&#x2dc;" horiz-adv-x="641" 
d="M143 1147q57 274 234 274q42 0 72 -19.5t47.5 -47t33 -55t38 -47t53.5 -19.5q86 0 127 176h94q-60 -274 -236 -274q-42 0 -72 19.5t-47 47t-32 55t-37.5 47t-52.5 19.5q-88 0 -127 -176h-95z" />
    <glyph glyph-name="uni2000" unicode="&#x2000;" horiz-adv-x="910" 
 />
    <glyph glyph-name="uni2001" unicode="&#x2001;" horiz-adv-x="1821" 
 />
    <glyph glyph-name="uni2002" unicode="&#x2002;" horiz-adv-x="910" 
 />
    <glyph glyph-name="uni2003" unicode="&#x2003;" horiz-adv-x="1821" 
 />
    <glyph glyph-name="uni2004" unicode="&#x2004;" horiz-adv-x="607" 
 />
    <glyph glyph-name="uni2005" unicode="&#x2005;" horiz-adv-x="455" 
 />
    <glyph glyph-name="uni2006" unicode="&#x2006;" horiz-adv-x="303" 
 />
    <glyph glyph-name="uni2007" unicode="&#x2007;" horiz-adv-x="303" 
 />
    <glyph glyph-name="uni2008" unicode="&#x2008;" horiz-adv-x="227" 
 />
    <glyph glyph-name="uni2009" unicode="&#x2009;" horiz-adv-x="364" 
 />
    <glyph glyph-name="uni200A" unicode="&#x200a;" horiz-adv-x="101" 
 />
    <glyph glyph-name="uni2010" unicode="&#x2010;" horiz-adv-x="614" 
d="M45 428l29 135h491l-28 -135h-492z" />
    <glyph glyph-name="uni2011" unicode="&#x2011;" horiz-adv-x="614" 
d="M45 428l29 135h491l-28 -135h-492z" />
    <glyph glyph-name="figuredash" unicode="&#x2012;" horiz-adv-x="614" 
d="M45 428l29 135h491l-28 -135h-492z" />
    <glyph glyph-name="endash" unicode="&#x2013;" horiz-adv-x="1214" 
d="M45 428l29 135h1091l-28 -135h-1092z" />
    <glyph glyph-name="emdash" unicode="&#x2014;" horiz-adv-x="1705" 
d="M45 428l29 135h1583l-29 -135h-1583z" />
    <glyph glyph-name="quoteleft" unicode="&#x2018;" horiz-adv-x="471" 
d="M223 1055q0 94 69 188t167 143l63 -65q-58 -29 -106.5 -76.5t-65.5 -95.5h17q36 0 62 -26t26 -66q0 -50 -37.5 -85.5t-85.5 -35.5q-47 0 -78 31.5t-31 87.5z" />
    <glyph glyph-name="quoteright" unicode="&#x2019;" horiz-adv-x="471" 
d="M225 1001q58 28 106.5 76t65.5 97h-16q-36 0 -61 26t-25 66q0 50 36.5 85t84.5 35q47 0 77.5 -31t30.5 -87q0 -94 -68.5 -188.5t-166.5 -145.5z" />
    <glyph glyph-name="quotesinglbase" unicode="&#x201a;" horiz-adv-x="471" 
d="M-37 -180q58 29 106.5 76t65.5 96h-16q-37 0 -62.5 25.5t-25.5 66.5q0 49 37.5 85t85.5 36q46 0 77 -31.5t31 -87.5q0 -94 -68.5 -188.5t-166.5 -145.5z" />
    <glyph glyph-name="quotedblleft" unicode="&#x201c;" horiz-adv-x="798" 
d="M238 1055q0 94 69.5 188t167.5 143l62 -65q-58 -29 -106.5 -76.5t-65.5 -95.5h16q36 0 62 -26t26 -66q0 -50 -37.5 -85.5t-85.5 -35.5q-46 0 -77 31.5t-31 87.5zM563 1055q0 94 70 188t168 143l63 -65q-58 -28 -106.5 -76t-65.5 -96h17q36 0 61 -26t25 -66
q0 -50 -37.5 -85.5t-85.5 -35.5q-45 0 -77 31.5t-32 87.5z" />
    <glyph glyph-name="quotedblright" unicode="&#x201d;" horiz-adv-x="798" 
d="M225 1001q58 28 106.5 76t65.5 97h-16q-36 0 -61 26t-25 66q0 50 36.5 85t84.5 35q47 0 77.5 -31t30.5 -87q0 -94 -68.5 -188.5t-166.5 -145.5zM553 1001q57 28 105.5 76t66.5 97h-16q-36 0 -62 26t-26 66q0 50 37 85t85 35q47 0 78 -31t31 -87q0 -94 -69.5 -188.5
t-168.5 -145.5z" />
    <glyph glyph-name="quotedblbase" unicode="&#x201e;" horiz-adv-x="798" 
d="M-37 -180q58 29 106.5 76t65.5 96h-16q-37 0 -62.5 25.5t-25.5 66.5q0 49 37.5 85t85.5 36q46 0 77 -31.5t31 -87.5q0 -94 -68.5 -188.5t-166.5 -145.5zM291 -180q58 29 105.5 76t64.5 96h-17q-35 0 -60.5 25.5t-25.5 66.5q0 49 37.5 85t85.5 36q47 0 78 -31.5t31 -87.5
q0 -94 -69.5 -188.5t-168.5 -145.5z" />
    <glyph glyph-name="bullet" unicode="&#x2022;" horiz-adv-x="733" 
d="M143 475q0 98 74.5 170t173.5 72q85 0 142 -57t57 -142q0 -98 -74.5 -170t-173.5 -72q-85 0 -142 57t-57 142z" />
    <glyph glyph-name="ellipsis" unicode="&#x2026;" horiz-adv-x="1415" 
d="M33 84q0 50 36 85.5t87 35.5q42 0 72 -31t30 -74q0 -51 -36 -85.5t-87 -34.5q-43 0 -72.5 30t-29.5 74zM504 84q0 50 36 85.5t87 35.5q42 0 72 -31t30 -74q0 -51 -36 -85.5t-87 -34.5q-43 0 -72.5 30t-29.5 74zM975 84q0 50 36 85.5t87 35.5q44 0 74 -31t30 -74
q0 -51 -37 -85.5t-88 -34.5q-43 0 -72.5 30t-29.5 74z" />
    <glyph glyph-name="uni202F" unicode="&#x202f;" horiz-adv-x="364" 
 />
    <glyph glyph-name="guilsinglleft" unicode="&#x2039;" horiz-adv-x="604" 
d="M59 498l410 362h162l-418 -373l238 -358h-146z" />
    <glyph glyph-name="guilsinglright" unicode="&#x203a;" horiz-adv-x="604" 
d="M-23 129l418 373l-237 358h145l246 -368l-410 -363h-162z" />
    <glyph glyph-name="uni205F" unicode="&#x205f;" horiz-adv-x="455" 
 />
    <glyph glyph-name="Euro" unicode="&#x20ac;" horiz-adv-x="1423" 
d="M59 485l25 107h88q3 96 21 184h-70l24 109h78q88 231 285.5 367.5t429.5 136.5q198 0 341.5 -86t217.5 -236l-164 -63q-58 117 -164 175t-239 58q-160 0 -301 -95t-215 -257h643l-25 -109h-657q-25 -89 -25 -184h641l-24 -107h-609q28 -163 148.5 -260.5t304.5 -97.5
q201 0 367 158l127 -97q-103 -108 -236 -160.5t-268 -52.5q-252 0 -424 138.5t-203 371.5h-117z" />
    <glyph glyph-name="trademark" unicode="&#x2122;" horiz-adv-x="929" 
d="M215 1313l10 53h312l-11 -53h-127l-88 -398h-57l88 398h-127zM512 915l98 451h88l60 -328l203 328h88l-99 -451h-57l82 373l-236 -373h-16l-72 373l-82 -373h-57z" />
    <glyph glyph-name="uni25FC" unicode="&#x25fc;" horiz-adv-x="993" 
d="M0 0v993h993v-993h-993z" />
    <hkern g1="A,Agrave,Aacute,Acircumflex,Atilde,Adieresis,Aring"
	g2="J"
	k="-18" />
    <hkern g1="A,Agrave,Aacute,Acircumflex,Atilde,Adieresis,Aring"
	g2="S"
	k="35" />
    <hkern g1="A,Agrave,Aacute,Acircumflex,Atilde,Adieresis,Aring"
	g2="T"
	k="158" />
    <hkern g1="A,Agrave,Aacute,Acircumflex,Atilde,Adieresis,Aring"
	g2="U,Ugrave,Uacute,Ucircumflex,Udieresis"
	k="74" />
    <hkern g1="A,Agrave,Aacute,Acircumflex,Atilde,Adieresis,Aring"
	g2="C,G,O,Q,Ccedilla,Ograve,Oacute,Ocircumflex,Otilde,Odieresis,Oslash,OE"
	k="96" />
    <hkern g1="A,Agrave,Aacute,Acircumflex,Atilde,Adieresis,Aring"
	g2="V"
	k="131" />
    <hkern g1="A,Agrave,Aacute,Acircumflex,Atilde,Adieresis,Aring"
	g2="W"
	k="115" />
    <hkern g1="A,Agrave,Aacute,Acircumflex,Atilde,Adieresis,Aring"
	g2="Y,Yacute,Ydieresis"
	k="150" />
    <hkern g1="A,Agrave,Aacute,Acircumflex,Atilde,Adieresis,Aring"
	g2="question"
	k="158" />
    <hkern g1="A,Agrave,Aacute,Acircumflex,Atilde,Adieresis,Aring"
	g2="asterisk"
	k="207" />
    <hkern g1="A,Agrave,Aacute,Acircumflex,Atilde,Adieresis,Aring"
	g2="quotedbl,quotesingle,registered,quoteleft,quoteright,quotedblleft,quotedblright,trademark"
	k="199" />
    <hkern g1="A,Agrave,Aacute,Acircumflex,Atilde,Adieresis,Aring"
	g2="f,uniFB01,uniFB02,uniFB03,uniFB04"
	k="18" />
    <hkern g1="A,Agrave,Aacute,Acircumflex,Atilde,Adieresis,Aring"
	g2="t"
	k="23" />
    <hkern g1="A,Agrave,Aacute,Acircumflex,Atilde,Adieresis,Aring"
	g2="u"
	k="25" />
    <hkern g1="A,Agrave,Aacute,Acircumflex,Atilde,Adieresis,Aring"
	g2="v"
	k="41" />
    <hkern g1="A,Agrave,Aacute,Acircumflex,Atilde,Adieresis,Aring"
	g2="w"
	k="35" />
    <hkern g1="A,Agrave,Aacute,Acircumflex,Atilde,Adieresis,Aring"
	g2="y,yacute,ydieresis"
	k="41" />
    <hkern g1="B"
	g2="T"
	k="35" />
    <hkern g1="B"
	g2="V"
	k="27" />
    <hkern g1="B"
	g2="W"
	k="20" />
    <hkern g1="B"
	g2="Y,Yacute,Ydieresis"
	k="61" />
    <hkern g1="B"
	g2="quotedbl,quotesingle,registered,quoteleft,quoteright,quotedblleft,quotedblright,trademark"
	k="20" />
    <hkern g1="C,Ccedilla"
	g2="S"
	k="-6" />
    <hkern g1="C,Ccedilla"
	g2="T"
	k="6" />
    <hkern g1="C,Ccedilla"
	g2="C,G,O,Q,Ccedilla,Ograve,Oacute,Ocircumflex,Otilde,Odieresis,Oslash,OE"
	k="-6" />
    <hkern g1="C,Ccedilla"
	g2="V"
	k="25" />
    <hkern g1="C,Ccedilla"
	g2="W"
	k="20" />
    <hkern g1="C,Ccedilla"
	g2="Y,Yacute,Ydieresis"
	k="53" />
    <hkern g1="C,Ccedilla"
	g2="question"
	k="6" />
    <hkern g1="C,Ccedilla"
	g2="A,Agrave,Aacute,Acircumflex,Atilde,Adieresis,Aring,AE"
	k="6" />
    <hkern g1="D,O,Q,Eth,Ograve,Oacute,Ocircumflex,Otilde,Odieresis,Oslash,Thorn"
	g2="J"
	k="41" />
    <hkern g1="D,O,Q,Eth,Ograve,Oacute,Ocircumflex,Otilde,Odieresis,Oslash,Thorn"
	g2="T"
	k="80" />
    <hkern g1="D,O,Q,Eth,Ograve,Oacute,Ocircumflex,Otilde,Odieresis,Oslash,Thorn"
	g2="V"
	k="68" />
    <hkern g1="D,O,Q,Eth,Ograve,Oacute,Ocircumflex,Otilde,Odieresis,Oslash,Thorn"
	g2="W"
	k="66" />
    <hkern g1="D,O,Q,Eth,Ograve,Oacute,Ocircumflex,Otilde,Odieresis,Oslash,Thorn"
	g2="Y,Yacute,Ydieresis"
	k="115" />
    <hkern g1="D,O,Q,Eth,Ograve,Oacute,Ocircumflex,Otilde,Odieresis,Oslash,Thorn"
	g2="question"
	k="33" />
    <hkern g1="D,O,Q,Eth,Ograve,Oacute,Ocircumflex,Otilde,Odieresis,Oslash,Thorn"
	g2="quotedbl,quotesingle,registered,quoteleft,quoteright,quotedblleft,quotedblright,trademark"
	k="20" />
    <hkern g1="D,O,Q,Eth,Ograve,Oacute,Ocircumflex,Otilde,Odieresis,Oslash,Thorn"
	g2="A,Agrave,Aacute,Acircumflex,Atilde,Adieresis,Aring,AE"
	k="49" />
    <hkern g1="D,O,Q,Eth,Ograve,Oacute,Ocircumflex,Otilde,Odieresis,Oslash,Thorn"
	g2="X"
	k="61" />
    <hkern g1="D,O,Q,Eth,Ograve,Oacute,Ocircumflex,Otilde,Odieresis,Oslash,Thorn"
	g2="Z"
	k="35" />
    <hkern g1="D,O,Q,Eth,Ograve,Oacute,Ocircumflex,Otilde,Odieresis,Oslash,Thorn"
	g2="comma,period,quotesinglbase,quotedblbase,ellipsis"
	k="55" />
    <hkern g1="F"
	g2="comma,period,quotesinglbase,quotedblbase,ellipsis"
	k="102" />
    <hkern g1="F"
	g2="A,Agrave,Aacute,Acircumflex,Atilde,Adieresis,Aring,AE"
	k="74" />
    <hkern g1="F"
	g2="J"
	k="121" />
    <hkern g1="F"
	g2="ampersand"
	k="12" />
    <hkern g1="G"
	g2="V"
	k="47" />
    <hkern g1="G"
	g2="Y,Yacute,Ydieresis"
	k="59" />
    <hkern g1="G"
	g2="W"
	k="20" />
    <hkern g1="G"
	g2="X"
	k="6" />
    <hkern g1="G"
	g2="question"
	k="12" />
    <hkern g1="G"
	g2="T"
	k="41" />
    <hkern g1="G"
	g2="A,Agrave,Aacute,Acircumflex,Atilde,Adieresis,Aring,AE"
	k="6" />
    <hkern g1="K"
	g2="Y,Yacute,Ydieresis"
	k="43" />
    <hkern g1="K"
	g2="C,G,O,Q,Ccedilla,Ograve,Oacute,Ocircumflex,Otilde,Odieresis,Oslash,OE"
	k="111" />
    <hkern g1="K"
	g2="a,c,d,e,g,o,q,ae,ccedilla,eth,oslash,oe"
	k="70" />
    <hkern g1="K"
	g2="f,uniFB01,uniFB02,uniFB03,uniFB04"
	k="53" />
    <hkern g1="K"
	g2="t"
	k="80" />
    <hkern g1="K"
	g2="u"
	k="41" />
    <hkern g1="K"
	g2="v"
	k="123" />
    <hkern g1="K"
	g2="w"
	k="82" />
    <hkern g1="K"
	g2="x"
	k="53" />
    <hkern g1="K"
	g2="y,yacute,ydieresis"
	k="123" />
    <hkern g1="K"
	g2="hyphen,periodcentered,endash,emdash"
	k="102" />
    <hkern g1="L"
	g2="V"
	k="184" />
    <hkern g1="L"
	g2="Y,Yacute,Ydieresis"
	k="252" />
    <hkern g1="L"
	g2="W"
	k="135" />
    <hkern g1="L"
	g2="question"
	k="233" />
    <hkern g1="L"
	g2="quotedbl,quotesingle,registered,quoteleft,quoteright,quotedblleft,quotedblright,trademark"
	k="250" />
    <hkern g1="L"
	g2="T"
	k="205" />
    <hkern g1="L"
	g2="ampersand"
	k="14" />
    <hkern g1="L"
	g2="C,G,O,Q,Ccedilla,Ograve,Oacute,Ocircumflex,Otilde,Odieresis,Oslash,OE"
	k="70" />
    <hkern g1="L"
	g2="a,c,d,e,g,o,q,ae,ccedilla,eth,oslash,oe"
	k="43" />
    <hkern g1="L"
	g2="t"
	k="68" />
    <hkern g1="L"
	g2="u"
	k="29" />
    <hkern g1="L"
	g2="U,Ugrave,Uacute,Ucircumflex,Udieresis"
	k="55" />
    <hkern g1="L"
	g2="asterisk"
	k="356" />
    <hkern g1="L"
	g2="v"
	k="117" />
    <hkern g1="L"
	g2="w"
	k="76" />
    <hkern g1="L"
	g2="y,yacute,ydieresis"
	k="117" />
    <hkern g1="P"
	g2="V"
	k="6" />
    <hkern g1="P"
	g2="W"
	k="6" />
    <hkern g1="P"
	g2="Y,Yacute,Ydieresis"
	k="41" />
    <hkern g1="P"
	g2="hyphen,periodcentered,endash,emdash"
	k="70" />
    <hkern g1="P"
	g2="A,Agrave,Aacute,Acircumflex,Atilde,Adieresis,Aring,AE"
	k="158" />
    <hkern g1="P"
	g2="J"
	k="223" />
    <hkern g1="P"
	g2="X"
	k="18" />
    <hkern g1="P"
	g2="ampersand"
	k="53" />
    <hkern g1="P"
	g2="comma,period,quotesinglbase,quotedblbase,ellipsis"
	k="193" />
    <hkern g1="P"
	g2="a,c,d,e,g,o,q,ae,ccedilla,eth,oslash,oe"
	k="27" />
    <hkern g1="R"
	g2="T"
	k="20" />
    <hkern g1="R"
	g2="V"
	k="20" />
    <hkern g1="R"
	g2="Y,Yacute,Ydieresis"
	k="39" />
    <hkern g1="R"
	g2="quotedbl,quotesingle,registered,quoteleft,quoteright,quotedblleft,quotedblright,trademark"
	k="6" />
    <hkern g1="R"
	g2="ampersand"
	k="6" />
    <hkern g1="R"
	g2="a,c,d,e,g,o,q,ae,ccedilla,eth,oslash,oe"
	k="61" />
    <hkern g1="R"
	g2="s"
	k="12" />
    <hkern g1="S"
	g2="v"
	k="12" />
    <hkern g1="S"
	g2="w"
	k="6" />
    <hkern g1="S"
	g2="y,yacute,ydieresis"
	k="12" />
    <hkern g1="S"
	g2="T"
	k="33" />
    <hkern g1="S"
	g2="V"
	k="25" />
    <hkern g1="S"
	g2="W"
	k="20" />
    <hkern g1="S"
	g2="Y,Yacute,Ydieresis"
	k="61" />
    <hkern g1="S"
	g2="A,Agrave,Aacute,Acircumflex,Atilde,Adieresis,Aring,AE"
	k="14" />
    <hkern g1="S"
	g2="t"
	k="35" />
    <hkern g1="S"
	g2="x"
	k="27" />
    <hkern g1="T"
	g2="C,G,O,Q,Ccedilla,Ograve,Oacute,Ocircumflex,Otilde,Odieresis,Oslash,OE"
	k="33" />
    <hkern g1="T"
	g2="A,Agrave,Aacute,Acircumflex,Atilde,Adieresis,Aring,AE"
	k="117" />
    <hkern g1="T"
	g2="J"
	k="170" />
    <hkern g1="T"
	g2="ampersand"
	k="82" />
    <hkern g1="T"
	g2="comma,period,quotesinglbase,quotedblbase,ellipsis"
	k="190" />
    <hkern g1="T"
	g2="a,c,d,e,g,o,q,ae,ccedilla,eth,oslash,oe"
	k="236" />
    <hkern g1="T"
	g2="S"
	k="-14" />
    <hkern g1="T"
	g2="colon,semicolon"
	k="102" />
    <hkern g1="T"
	g2="f,uniFB01,uniFB02,uniFB03,uniFB04"
	k="63" />
    <hkern g1="T"
	g2="m,n,p,r,z"
	k="174" />
    <hkern g1="T"
	g2="s"
	k="186" />
    <hkern g1="T"
	g2="v"
	k="115" />
    <hkern g1="T"
	g2="w"
	k="115" />
    <hkern g1="T"
	g2="x"
	k="135" />
    <hkern g1="T"
	g2="y,yacute,ydieresis"
	k="115" />
    <hkern g1="T"
	g2="hyphen,periodcentered,endash,emdash"
	k="123" />
    <hkern g1="T"
	g2="u"
	k="174" />
    <hkern g1="J,U,Ugrave,Uacute,Ucircumflex,Udieresis"
	g2="A,Agrave,Aacute,Acircumflex,Atilde,Adieresis,Aring,AE"
	k="33" />
    <hkern g1="J,U,Ugrave,Uacute,Ucircumflex,Udieresis"
	g2="comma,period,quotesinglbase,quotedblbase,ellipsis"
	k="61" />
    <hkern g1="J,U,Ugrave,Uacute,Ucircumflex,Udieresis"
	g2="J"
	k="25" />
    <hkern g1="V"
	g2="f,uniFB01,uniFB02,uniFB03,uniFB04"
	k="47" />
    <hkern g1="V"
	g2="m,n,p,r,z"
	k="86" />
    <hkern g1="V"
	g2="s"
	k="80" />
    <hkern g1="V"
	g2="v"
	k="27" />
    <hkern g1="V"
	g2="w"
	k="12" />
    <hkern g1="V"
	g2="x"
	k="47" />
    <hkern g1="V"
	g2="y,yacute,ydieresis"
	k="12" />
    <hkern g1="V"
	g2="hyphen,periodcentered,endash,emdash"
	k="109" />
    <hkern g1="V"
	g2="u"
	k="86" />
    <hkern g1="V"
	g2="A,Agrave,Aacute,Acircumflex,Atilde,Adieresis,Aring,AE"
	k="90" />
    <hkern g1="V"
	g2="comma,period,quotesinglbase,quotedblbase,ellipsis"
	k="184" />
    <hkern g1="V"
	g2="ampersand"
	k="25" />
    <hkern g1="V"
	g2="J"
	k="190" />
    <hkern g1="V"
	g2="C,G,O,Q,Ccedilla,Ograve,Oacute,Ocircumflex,Otilde,Odieresis,Oslash,OE"
	k="14" />
    <hkern g1="V"
	g2="a,c,d,e,g,o,q,ae,ccedilla,eth,oslash,oe"
	k="123" />
    <hkern g1="V"
	g2="t"
	k="27" />
    <hkern g1="V"
	g2="S"
	k="-25" />
    <hkern g1="W"
	g2="f,uniFB01,uniFB02,uniFB03,uniFB04"
	k="27" />
    <hkern g1="W"
	g2="m,n,p,r,z"
	k="61" />
    <hkern g1="W"
	g2="s"
	k="39" />
    <hkern g1="W"
	g2="A,Agrave,Aacute,Acircumflex,Atilde,Adieresis,Aring,AE"
	k="80" />
    <hkern g1="W"
	g2="comma,period,quotesinglbase,quotedblbase,ellipsis"
	k="137" />
    <hkern g1="W"
	g2="ampersand"
	k="20" />
    <hkern g1="W"
	g2="J"
	k="78" />
    <hkern g1="W"
	g2="C,G,O,Q,Ccedilla,Ograve,Oacute,Ocircumflex,Otilde,Odieresis,Oslash,OE"
	k="18" />
    <hkern g1="W"
	g2="a,c,d,e,g,o,q,ae,ccedilla,eth,oslash,oe"
	k="82" />
    <hkern g1="W"
	g2="t"
	k="27" />
    <hkern g1="W"
	g2="u"
	k="61" />
    <hkern g1="W"
	g2="x"
	k="47" />
    <hkern g1="W"
	g2="v"
	k="6" />
    <hkern g1="W"
	g2="y,yacute,ydieresis"
	k="6" />
    <hkern g1="W"
	g2="hyphen,periodcentered,endash,emdash"
	k="68" />
    <hkern g1="W"
	g2="S"
	k="-20" />
    <hkern g1="Y,Yacute,Ydieresis"
	g2="u"
	k="184" />
    <hkern g1="Y,Yacute,Ydieresis"
	g2="x"
	k="150" />
    <hkern g1="Y,Yacute,Ydieresis"
	g2="v"
	k="123" />
    <hkern g1="Y,Yacute,Ydieresis"
	g2="y,yacute,ydieresis"
	k="123" />
    <hkern g1="Y,Yacute,Ydieresis"
	g2="hyphen,periodcentered,endash,emdash"
	k="238" />
    <hkern g1="Y,Yacute,Ydieresis"
	g2="S"
	k="14" />
    <hkern g1="Y,Yacute,Ydieresis"
	g2="A,Agrave,Aacute,Acircumflex,Atilde,Adieresis,Aring,AE"
	k="109" />
    <hkern g1="Y,Yacute,Ydieresis"
	g2="comma,period,quotesinglbase,quotedblbase,ellipsis"
	k="184" />
    <hkern g1="Y,Yacute,Ydieresis"
	g2="ampersand"
	k="86" />
    <hkern g1="Y,Yacute,Ydieresis"
	g2="J"
	k="231" />
    <hkern g1="Y,Yacute,Ydieresis"
	g2="C,G,O,Q,Ccedilla,Ograve,Oacute,Ocircumflex,Otilde,Odieresis,Oslash,OE"
	k="49" />
    <hkern g1="Y,Yacute,Ydieresis"
	g2="colon,semicolon"
	k="121" />
    <hkern g1="Y,Yacute,Ydieresis"
	g2="a,c,d,e,g,o,q,ae,ccedilla,eth,oslash,oe"
	k="260" />
    <hkern g1="Y,Yacute,Ydieresis"
	g2="f,uniFB01,uniFB02,uniFB03,uniFB04"
	k="100" />
    <hkern g1="Y,Yacute,Ydieresis"
	g2="m,n,p,r,z"
	k="184" />
    <hkern g1="Y,Yacute,Ydieresis"
	g2="s"
	k="205" />
    <hkern g1="Y,Yacute,Ydieresis"
	g2="t"
	k="53" />
    <hkern g1="Y,Yacute,Ydieresis"
	g2="w"
	k="123" />
    <hkern g1="Z"
	g2="C,G,O,Q,Ccedilla,Ograve,Oacute,Ocircumflex,Otilde,Odieresis,Oslash,OE"
	k="35" />
    <hkern g1="ampersand"
	g2="y,yacute,ydieresis"
	k="41" />
    <hkern g1="ampersand"
	g2="T"
	k="186" />
    <hkern g1="ampersand"
	g2="Y,Yacute,Ydieresis"
	k="225" />
    <hkern g1="ampersand"
	g2="V"
	k="137" />
    <hkern g1="ampersand"
	g2="W"
	k="119" />
    <hkern g1="ampersand"
	g2="quotedbl,quotesingle,registered,quoteleft,quoteright,quotedblleft,quotedblright,trademark"
	k="43" />
    <hkern g1="asterisk"
	g2="A,Agrave,Aacute,Acircumflex,Atilde,Adieresis,Aring,AE"
	k="207" />
    <hkern g1="asterisk"
	g2="J"
	k="238" />
    <hkern g1="b,o,p,oslash,thorn"
	g2="comma,period,quotesinglbase,quotedblbase,ellipsis"
	k="14" />
    <hkern g1="b,o,p,oslash,thorn"
	g2="Y,Yacute,Ydieresis"
	k="254" />
    <hkern g1="b,o,p,oslash,thorn"
	g2="quotedbl,quotesingle,registered,quoteleft,quoteright,quotedblleft,quotedblright,trademark"
	k="20" />
    <hkern g1="b,o,p,oslash,thorn"
	g2="question"
	k="94" />
    <hkern g1="b,o,p,oslash,thorn"
	g2="T"
	k="236" />
    <hkern g1="b,o,p,oslash,thorn"
	g2="V"
	k="123" />
    <hkern g1="b,o,p,oslash,thorn"
	g2="W"
	k="82" />
    <hkern g1="b,o,p,oslash,thorn"
	g2="x"
	k="76" />
    <hkern g1="c,cent,ccedilla"
	g2="T"
	k="166" />
    <hkern g1="c,cent,ccedilla"
	g2="V"
	k="74" />
    <hkern g1="c,cent,ccedilla"
	g2="W"
	k="47" />
    <hkern g1="c,cent,ccedilla"
	g2="Y,Yacute,Ydieresis"
	k="129" />
    <hkern g1="c,cent,ccedilla"
	g2="question"
	k="47" />
    <hkern g1="c,cent,ccedilla"
	g2="quotedbl,quotesingle,registered,quoteleft,quoteright,quotedblleft,quotedblright,trademark"
	k="6" />
    <hkern g1="colon,semicolon"
	g2="T"
	k="102" />
    <hkern g1="colon,semicolon"
	g2="Y,Yacute,Ydieresis"
	k="121" />
    <hkern g1="e,ae,oe"
	g2="T"
	k="207" />
    <hkern g1="e,ae,oe"
	g2="V"
	k="109" />
    <hkern g1="e,ae,oe"
	g2="W"
	k="82" />
    <hkern g1="e,ae,oe"
	g2="Y,Yacute,Ydieresis"
	k="225" />
    <hkern g1="e,ae,oe"
	g2="question"
	k="74" />
    <hkern g1="e,ae,oe"
	g2="quotedbl,quotesingle,registered,quoteleft,quoteright,quotedblleft,quotedblright,trademark"
	k="6" />
    <hkern g1="e,ae,oe"
	g2="asterisk"
	k="35" />
    <hkern g1="e,ae,oe"
	g2="comma,period,quotesinglbase,quotedblbase,ellipsis"
	k="14" />
    <hkern g1="eth"
	g2="comma,period,quotesinglbase,quotedblbase,ellipsis"
	k="14" />
    <hkern g1="f"
	g2="T"
	k="-82" />
    <hkern g1="f"
	g2="V"
	k="-129" />
    <hkern g1="f"
	g2="W"
	k="-129" />
    <hkern g1="f"
	g2="X"
	k="-82" />
    <hkern g1="f"
	g2="Y,Yacute,Ydieresis"
	k="-115" />
    <hkern g1="f"
	g2="Z"
	k="-82" />
    <hkern g1="f"
	g2="question"
	k="-117" />
    <hkern g1="f"
	g2="quotedbl,quotesingle,registered,quoteleft,quoteright,quotedblleft,quotedblright,trademark"
	k="-137" />
    <hkern g1="f"
	g2="asterisk"
	k="-137" />
    <hkern g1="f"
	g2="comma,period,quotesinglbase,quotedblbase,ellipsis"
	k="88" />
    <hkern g1="f"
	g2="ampersand"
	k="6" />
    <hkern g1="f"
	g2="parenright,bracketright,braceright"
	k="-152" />
    <hkern g1="f"
	g2="exclam,B,D,E,F,H,I,K,L,M,N,P,R,Egrave,Eacute,Ecircumflex,Edieresis,Igrave,Iacute,Icircumflex,Idieresis,Eth,Ntilde"
	k="-82" />
    <hkern g1="f"
	g2="S"
	k="-47" />
    <hkern g1="f"
	g2="U,Ugrave,Uacute,Ucircumflex,Udieresis"
	k="-82" />
    <hkern g1="g,q"
	g2="T"
	k="174" />
    <hkern g1="g,q"
	g2="V"
	k="86" />
    <hkern g1="g,q"
	g2="W"
	k="61" />
    <hkern g1="g,q"
	g2="Y,Yacute,Ydieresis"
	k="184" />
    <hkern g1="g,q"
	g2="question"
	k="47" />
    <hkern g1="g,q"
	g2="j"
	k="-94" />
    <hkern g1="hyphen,periodcentered,endash,emdash"
	g2="V"
	k="109" />
    <hkern g1="hyphen,periodcentered,endash,emdash"
	g2="W"
	k="68" />
    <hkern g1="hyphen,periodcentered,endash,emdash"
	g2="X"
	k="88" />
    <hkern g1="hyphen,periodcentered,endash,emdash"
	g2="Y,Yacute,Ydieresis"
	k="223" />
    <hkern g1="k"
	g2="T"
	k="141" />
    <hkern g1="k"
	g2="V"
	k="47" />
    <hkern g1="k"
	g2="W"
	k="47" />
    <hkern g1="k"
	g2="Y,Yacute,Ydieresis"
	k="135" />
    <hkern g1="k"
	g2="a,c,d,e,g,o,q,ae,ccedilla,eth,oslash,oe"
	k="6" />
    <hkern g1="k"
	g2="bullet"
	k="55" />
    <hkern g1="k"
	g2="hyphen,periodcentered,endash,emdash"
	k="55" />
    <hkern g1="comma,period,quotesinglbase,quotedblbase,ellipsis"
	g2="T"
	k="190" />
    <hkern g1="comma,period,quotesinglbase,quotedblbase,ellipsis"
	g2="V"
	k="178" />
    <hkern g1="comma,period,quotesinglbase,quotedblbase,ellipsis"
	g2="W"
	k="137" />
    <hkern g1="comma,period,quotesinglbase,quotedblbase,ellipsis"
	g2="Y,Yacute,Ydieresis"
	k="184" />
    <hkern g1="comma,period,quotesinglbase,quotedblbase,ellipsis"
	g2="quotedbl,quotesingle,registered,quoteleft,quoteright,quotedblleft,quotedblright,trademark"
	k="156" />
    <hkern g1="comma,period,quotesinglbase,quotedblbase,ellipsis"
	g2="U,Ugrave,Uacute,Ucircumflex,Udieresis"
	k="61" />
    <hkern g1="comma,period,quotesinglbase,quotedblbase,ellipsis"
	g2="j"
	k="-82" />
    <hkern g1="comma,period,quotesinglbase,quotedblbase,ellipsis"
	g2="a,c,d,e,g,o,q,ae,ccedilla,eth,oslash,oe"
	k="14" />
    <hkern g1="comma,period,quotesinglbase,quotedblbase,ellipsis"
	g2="f,uniFB01,uniFB02,uniFB03,uniFB04"
	k="47" />
    <hkern g1="comma,period,quotesinglbase,quotedblbase,ellipsis"
	g2="t"
	k="47" />
    <hkern g1="comma,period,quotesinglbase,quotedblbase,ellipsis"
	g2="v"
	k="137" />
    <hkern g1="comma,period,quotesinglbase,quotedblbase,ellipsis"
	g2="w"
	k="90" />
    <hkern g1="comma,period,quotesinglbase,quotedblbase,ellipsis"
	g2="y,yacute,ydieresis"
	k="117" />
    <hkern g1="comma,period,quotesinglbase,quotedblbase,ellipsis"
	g2="one"
	k="160" />
    <hkern g1="comma,period,quotesinglbase,quotedblbase,ellipsis"
	g2="zero,six"
	k="63" />
    <hkern g1="comma,period,quotesinglbase,quotedblbase,ellipsis"
	g2="seven"
	k="135" />
    <hkern g1="questiondown"
	g2="j"
	k="-328" />
    <hkern g1="quotedbl,quotesingle,quoteleft,quoteright,quotedblleft,quotedblright"
	g2="A,Agrave,Aacute,Acircumflex,Atilde,Adieresis,Aring,AE"
	k="213" />
    <hkern g1="quotedbl,quotesingle,quoteleft,quoteright,quotedblleft,quotedblright"
	g2="C,G,O,Q,Ccedilla,Ograve,Oacute,Ocircumflex,Otilde,Odieresis,Oslash,OE"
	k="6" />
    <hkern g1="quotedbl,quotesingle,quoteleft,quoteright,quotedblleft,quotedblright"
	g2="s"
	k="61" />
    <hkern g1="quotedbl,quotesingle,quoteleft,quoteright,quotedblleft,quotedblright"
	g2="J"
	k="188" />
    <hkern g1="quotedbl,quotesingle,quoteleft,quoteright,quotedblleft,quotedblright"
	g2="comma,period,quotesinglbase,quotedblbase,ellipsis"
	k="156" />
    <hkern g1="quotedbl,quotesingle,quoteleft,quoteright,quotedblleft,quotedblright"
	g2="ampersand"
	k="-14" />
    <hkern g1="r"
	g2="V"
	k="47" />
    <hkern g1="r"
	g2="W"
	k="12" />
    <hkern g1="r"
	g2="Y,Yacute,Ydieresis"
	k="102" />
    <hkern g1="r"
	g2="comma,period,quotesinglbase,quotedblbase,ellipsis"
	k="170" />
    <hkern g1="r"
	g2="T"
	k="98" />
    <hkern g1="r"
	g2="X"
	k="18" />
    <hkern g1="s"
	g2="V"
	k="88" />
    <hkern g1="s"
	g2="W"
	k="80" />
    <hkern g1="s"
	g2="Y,Yacute,Ydieresis"
	k="190" />
    <hkern g1="s"
	g2="T"
	k="180" />
    <hkern g1="s"
	g2="X"
	k="6" />
    <hkern g1="s"
	g2="question"
	k="88" />
    <hkern g1="s"
	g2="quotedbl,quotesingle,registered,quoteleft,quoteright,quotedblleft,quotedblright,trademark"
	k="41" />
    <hkern g1="t"
	g2="V"
	k="53" />
    <hkern g1="t"
	g2="W"
	k="27" />
    <hkern g1="t"
	g2="Y,Yacute,Ydieresis"
	k="68" />
    <hkern g1="t"
	g2="T"
	k="106" />
    <hkern g1="a,u,z"
	g2="V"
	k="86" />
    <hkern g1="a,u,z"
	g2="W"
	k="61" />
    <hkern g1="a,u,z"
	g2="Y,Yacute,Ydieresis"
	k="184" />
    <hkern g1="a,u,z"
	g2="T"
	k="174" />
    <hkern g1="a,u,z"
	g2="question"
	k="47" />
    <hkern g1="v"
	g2="V"
	k="27" />
    <hkern g1="v"
	g2="W"
	k="6" />
    <hkern g1="v"
	g2="Y,Yacute,Ydieresis"
	k="123" />
    <hkern g1="v"
	g2="A,Agrave,Aacute,Acircumflex,Atilde,Adieresis,Aring,AE"
	k="41" />
    <hkern g1="v"
	g2="comma,period,quotesinglbase,quotedblbase,ellipsis"
	k="137" />
    <hkern g1="v"
	g2="T"
	k="115" />
    <hkern g1="v"
	g2="X"
	k="76" />
    <hkern g1="w"
	g2="V"
	k="12" />
    <hkern g1="w"
	g2="Y,Yacute,Ydieresis"
	k="123" />
    <hkern g1="w"
	g2="A,Agrave,Aacute,Acircumflex,Atilde,Adieresis,Aring,AE"
	k="35" />
    <hkern g1="w"
	g2="comma,period,quotesinglbase,quotedblbase,ellipsis"
	k="90" />
    <hkern g1="w"
	g2="T"
	k="115" />
    <hkern g1="w"
	g2="X"
	k="90" />
    <hkern g1="y,yacute,ydieresis"
	g2="V"
	k="12" />
    <hkern g1="y,yacute,ydieresis"
	g2="W"
	k="6" />
    <hkern g1="y,yacute,ydieresis"
	g2="Y,Yacute,Ydieresis"
	k="123" />
    <hkern g1="y,yacute,ydieresis"
	g2="A,Agrave,Aacute,Acircumflex,Atilde,Adieresis,Aring,AE"
	k="41" />
    <hkern g1="y,yacute,ydieresis"
	g2="comma,period,quotesinglbase,quotedblbase,ellipsis"
	k="117" />
    <hkern g1="y,yacute,ydieresis"
	g2="T"
	k="115" />
    <hkern g1="y,yacute,ydieresis"
	g2="X"
	k="76" />
    <hkern g1="y,yacute,ydieresis"
	g2="question"
	k="6" />
    <hkern g1="X"
	g2="C,G,O,Q,Ccedilla,Ograve,Oacute,Ocircumflex,Otilde,Odieresis,Oslash,OE"
	k="61" />
    <hkern g1="X"
	g2="y,yacute,ydieresis"
	k="76" />
    <hkern g1="X"
	g2="w"
	k="90" />
    <hkern g1="X"
	g2="v"
	k="76" />
    <hkern g1="X"
	g2="f,uniFB01,uniFB02,uniFB03,uniFB04"
	k="61" />
    <hkern g1="X"
	g2="t"
	k="61" />
    <hkern g1="X"
	g2="hyphen,periodcentered,endash,emdash"
	k="88" />
    <hkern g1="zero,nine"
	g2="comma,period,quotesinglbase,quotedblbase,ellipsis"
	k="63" />
    <hkern g1="seven"
	g2="comma,period,quotesinglbase,quotedblbase,ellipsis"
	k="199" />
    <hkern g1="x"
	g2="V"
	k="47" />
    <hkern g1="x"
	g2="W"
	k="47" />
    <hkern g1="x"
	g2="Y,Yacute,Ydieresis"
	k="150" />
    <hkern g1="x"
	g2="T"
	k="135" />
    <hkern g1="x"
	g2="a,c,d,e,g,o,q,ae,ccedilla,eth,oslash,oe"
	k="76" />
    <hkern g1="parenleft,bracketleft,braceleft"
	g2="j"
	k="-225" />
  </font>
</defs></svg>
