<?xml version="1.0" standalone="no"?>
<!DOCTYPE svg PUBLIC "-//W3C//DTD SVG 1.1//EN" "http://www.w3.org/Graphics/SVG/1.1/DTD/svg11.dtd" >
<svg xmlns="http://www.w3.org/2000/svg" xmlns:xlink="http://www.w3.org/1999/xlink" version="1.1">
<metadata>
Created by FontForge 20161013 at Thu Sep  7 17:04:00 2017
 By ,,,
Copyright (c) Mark Simonson, 2005. All rights reserved.
</metadata>
<defs>
<font id="ProximaNova-Semibold" horiz-adv-x="1175" >
  <font-face 
    font-family="Proxima Nova Lt"
    font-weight="600"
    font-stretch="normal"
    units-per-em="2048"
    panose-1="2 0 5 6 3 0 0 2 0 4"
    ascent="1618"
    descent="-430"
    x-height="989"
    cap-height="1366"
    bbox="-207 -408 2142 1839"
    underline-thickness="40"
    underline-position="-552"
    unicode-range="U+0020-FB04"
  />
<missing-glyph horiz-adv-x="748" 
d="M68 0v1365h544v-1365h-544zM136 68h408v1229h-408v-1229z" />
    <glyph glyph-name="uniFB01" unicode="fi" horiz-adv-x="1126" 
d="M29 803v186h164v55q0 162 86 252t225 90q109 0 174 -36l-47 -162q-36 22 -86 22q-66 0 -101.5 -42t-35.5 -124v-55h200v-186h-200v-803h-215v803h-164zM748 1243q0 55 39 94t94 39t94 -39t39 -94t-39 -94t-94 -39t-94 39t-39 94zM772 0v989h215v-989h-215z" />
    <glyph glyph-name="uniFB02" unicode="fl" horiz-adv-x="1126" 
d="M29 803v186h164v55q0 162 86 252t225 90q109 0 174 -36l-47 -162q-36 22 -86 22q-66 0 -101.5 -42t-35.5 -124v-55h200v-186h-200v-803h-215v803h-164zM772 0v1366h215v-1366h-215z" />
    <glyph glyph-name="uniFB03" unicode="ffi" horiz-adv-x="1757" 
d="M29 803v186h164v55q0 159 85 250.5t226 91.5q156 0 237 -86l-84 -133q-46 43 -112 43t-101.5 -42t-35.5 -124v-55h200v-186h-200v-803h-215v803h-164zM662 803v186h163v55q0 162 86.5 252t225.5 90q109 0 174 -36l-47 -162q-36 22 -86 22q-66 0 -102 -42t-36 -124v-55
h201v-186h-201v-803h-215v803h-163zM1378 1243q0 55 39 94t94 39q56 0 95 -39t39 -94t-39 -94t-95 -39q-55 0 -94 39t-39 94zM1403 0v989h215v-989h-215z" />
    <glyph glyph-name="uniFB04" unicode="ffl" horiz-adv-x="1757" 
d="M29 803v186h164v55q0 159 85 250.5t226 91.5q156 0 237 -86l-84 -133q-46 43 -112 43t-101.5 -42t-35.5 -124v-55h200v-186h-200v-803h-215v803h-164zM662 803v186h163v55q0 162 86.5 252t225.5 90q109 0 174 -36l-47 -162q-36 22 -86 22q-66 0 -102 -42t-36 -124v-55
h201v-186h-201v-803h-215v803h-163zM1403 0v1366h215v-1366h-215z" />
    <glyph glyph-name=".notdef" horiz-adv-x="748" 
d="M68 0v1365h544v-1365h-544zM136 68h408v1229h-408v-1229z" />
    <glyph glyph-name="glyph1" horiz-adv-x="0" 
 />
    <glyph glyph-name="glyph2" horiz-adv-x="682" 
 />
    <glyph glyph-name="space" unicode=" " horiz-adv-x="528" 
 />
    <glyph glyph-name="exclam" unicode="!" horiz-adv-x="499" 
d="M109 123q0 57 42.5 99t100.5 42t99.5 -42t41.5 -99q0 -59 -41.5 -101t-99.5 -42t-100.5 42t-42.5 101zM119 1366h262l-37 -946h-186z" />
    <glyph glyph-name="quotedbl" unicode="&#x22;" horiz-adv-x="778" 
d="M98 1266q0 51 35.5 85.5t85.5 34.5q51 0 86 -34.5t35 -85.5q0 -16 -18 -132t-36 -224l-18 -109h-98q-72 430 -72 465zM438 1266q0 51 35 85.5t86 34.5t86 -34.5t35 -85.5q0 -16 -18 -132t-36 -224l-18 -109h-98q-72 430 -72 465z" />
    <glyph glyph-name="numbersign" unicode="#" horiz-adv-x="1243" 
d="M39 358l45 142h209l123 366h-209l43 142h213l119 358h163l-118 -358h207l118 358h164l-121 -358h209l-41 -142h-213l-125 -366h217l-45 -142h-219l-119 -358h-163l120 358h-208l-119 -358h-164l121 358h-207zM457 500h205l124 366h-206z" />
    <glyph glyph-name="dollar" unicode="$" horiz-adv-x="1239" 
d="M74 193l135 186q61 -68 149.5 -118t192.5 -66v397q-52 13 -91 24.5t-86.5 30.5t-81.5 39t-68.5 50.5t-56 65.5t-35 82t-13.5 103q0 159 118 269.5t314 127.5v189h164v-191q245 -27 411 -186l-135 -178q-112 112 -276 145v-354q76 -20 129.5 -37.5t117.5 -51.5
t103.5 -74.5t66.5 -104t27 -142.5q0 -80 -26.5 -150t-79.5 -127.5t-139.5 -94.5t-198.5 -47v-185h-164v185q-293 22 -477 213zM365 1006q0 -56 47.5 -91t138.5 -63v322q-86 -11 -136 -56t-50 -112zM715 193q99 14 148.5 66t49.5 118q0 64 -51 103t-147 69v-356z" />
    <glyph glyph-name="percent" unicode="%" horiz-adv-x="1529" 
d="M57 1047q0 146 94.5 242.5t245.5 96.5q152 0 246 -96t94 -243q0 -145 -94.5 -241.5t-245.5 -96.5q-150 0 -245 96.5t-95 241.5zM217 1047q0 -89 51 -145t129 -56q80 0 131.5 56t51.5 145q0 90 -51.5 147t-131.5 57q-78 0 -129 -57t-51 -147zM264 0l873 1366h139
l-875 -1366h-137zM793 313q0 147 94.5 243.5t245.5 96.5t245.5 -96.5t94.5 -243.5q0 -145 -95 -241.5t-245 -96.5t-245 96.5t-95 241.5zM950 313q0 -89 51.5 -144.5t131.5 -55.5t131 55.5t51 144.5q0 90 -51 147.5t-131 57.5t-131.5 -57.5t-51.5 -147.5z" />
    <glyph glyph-name="ampersand" unicode="&#x26;" horiz-adv-x="1320" 
d="M61 365q0 76 23 139t67 110.5t92.5 82t114.5 67.5q-96 172 -96 301q0 137 106 229t265 92q144 0 240 -74.5t96 -203.5q0 -60 -20.5 -111.5t-49 -87t-79 -71.5t-89.5 -57.5t-102 -51.5q57 -80 135 -170q82 -101 135 -158q85 126 135 287l174 -80q-84 -198 -188 -340
q144 -151 266 -268h-282q-70 66 -121 119q-171 -144 -383 -144q-92 0 -171 25t-139 72.5t-94.5 123t-34.5 169.5zM289 383q0 -108 69.5 -172t169.5 -64q117 0 236 97q-114 120 -168 190q-86 99 -152 195q-74 -49 -114.5 -107t-40.5 -139zM477 1059q0 -86 68 -205
q54 26 91.5 48.5t72 52t52 64.5t17.5 77q0 62 -38.5 97.5t-98.5 35.5q-69 0 -116.5 -48t-47.5 -122z" />
    <glyph glyph-name="quotesingle" unicode="'" horiz-adv-x="438" 
d="M98 1266q0 51 35.5 85.5t85.5 34.5q51 0 86 -34.5t35 -85.5q0 -16 -18 -132t-36 -224l-18 -109h-98q-72 430 -72 465z" />
    <glyph glyph-name="parenleft" unicode="(" horiz-adv-x="565" 
d="M86 498q0 248 82.5 488t228.5 417l133 -100q-109 -201 -160 -386.5t-51 -418.5q0 -230 51.5 -417.5t159.5 -385.5l-133 -103q-146 177 -228.5 417.5t-82.5 488.5z" />
    <glyph glyph-name="parenright" unicode=")" horiz-adv-x="567" 
d="M37 -305l133 -103q145 177 227 418t82 488t-82 487.5t-227 417.5l-133 -100q107 -202 158 -387.5t51 -417.5q0 -230 -51 -417t-158 -386z" />
    <glyph glyph-name="asterisk" unicode="*" horiz-adv-x="710" 
d="M59 975l203 104l-203 105l58 98l192 -125l-10 229h113l-11 -229l193 125l57 -98l-205 -105l205 -104l-57 -98l-193 122l11 -229h-113l10 229l-192 -122z" />
    <glyph glyph-name="plus" unicode="+" horiz-adv-x="1028" 
d="M59 623v137h379v411h152v-411h379v-137h-379v-426h-152v426h-379z" />
    <glyph glyph-name="comma" unicode="," horiz-adv-x="501" 
d="M109 125q0 57 40.5 98t98.5 41q66 0 112 -50t46 -136q0 -103 -52 -195.5t-139 -154.5l-98 79q51 30 94.5 86t52.5 107q-12 -6 -35 -6q-51 0 -85.5 37t-34.5 94z" />
    <glyph glyph-name="hyphen" unicode="-" horiz-adv-x="614" 
d="M61 403v185h492v-185h-492z" />
    <glyph glyph-name="period" unicode="." horiz-adv-x="503" 
d="M109 123q0 57 42.5 99t100.5 42t100.5 -42t42.5 -99q0 -59 -42.5 -102.5t-100.5 -43.5t-100.5 43.5t-42.5 102.5z" />
    <glyph glyph-name="slash" unicode="/" horiz-adv-x="645" 
d="M0 -41l485 1448h160l-485 -1448h-160z" />
    <glyph glyph-name="zero" unicode="0" horiz-adv-x="1263" 
d="M86 682q0 106 19.5 205.5t62.5 191t105.5 159t155 108t204.5 40.5q111 0 203 -40.5t154.5 -108t105.5 -159t62.5 -191t19.5 -205.5q0 -105 -19.5 -205t-62.5 -191.5t-105.5 -160t-154.5 -109.5t-203 -41q-112 0 -204.5 41t-155 109.5t-105.5 160t-62.5 191.5t-19.5 205z
M330 682q0 -102 16.5 -187.5t51 -156t94.5 -110.5t141 -40q80 0 140 40t94 110.5t50.5 156t16.5 187.5q0 103 -16 188.5t-50.5 155t-94 109t-140.5 39.5t-141 -39.5t-94.5 -109t-51 -155.5t-16.5 -188z" />
    <glyph glyph-name="one" unicode="1" horiz-adv-x="778" 
d="M31 969l393 397h209v-1366h-240v1057l-223 -234z" />
    <glyph glyph-name="two" unicode="2" horiz-adv-x="1218" 
d="M84 1167q88 107 222 163t284 56q135 0 245 -47t179 -144t69 -228q0 -75 -28 -150.5t-76 -145.5t-125.5 -148.5t-163.5 -151t-203 -160.5h605v-211h-990v190q147 112 240 184.5t186 150t144.5 131t94 110t59 104t16.5 97.5q0 68 -37 116.5t-92 69.5t-121 21
q-224 0 -369 -162z" />
    <glyph glyph-name="three" unicode="3" 
d="M49 197l131 157q66 -77 167 -121.5t210 -44.5q133 0 209 57t76 152q0 195 -303 195q-116 0 -156 -4v217q23 -2 156 -2q128 0 205 45t77 135t-78.5 140.5t-197.5 50.5q-206 0 -355 -152l-122 149q84 99 210 157t289 58q223 0 357.5 -98.5t134.5 -267.5q0 -66 -26 -122.5
t-69.5 -94.5t-94.5 -62.5t-105 -33.5q52 -6 105.5 -29t102 -62.5t79 -102.5t30.5 -138q0 -177 -140.5 -288.5t-375.5 -111.5q-173 0 -307 62t-209 160z" />
    <glyph glyph-name="four" unicode="4" horiz-adv-x="1187" 
d="M57 309v193l561 864h330v-846h182v-211h-182v-309h-239v309h-652zM293 520h416v631z" />
    <glyph glyph-name="five" unicode="5" horiz-adv-x="1228" 
d="M117 186l137 166q139 -164 367 -164q127 0 203.5 69t76.5 173q0 109 -74.5 175.5t-199.5 66.5q-173 0 -299 -117l-170 49v762h895v-211h-656v-393q55 51 136 84t174 33q118 0 216 -50.5t160 -152.5t62 -238q0 -210 -145.5 -336.5t-376.5 -126.5q-324 0 -506 211z" />
    <glyph glyph-name="six" unicode="6" horiz-adv-x="1230" 
d="M86 682q0 149 39 276t113 223t190 150.5t260 54.5q240 0 391 -151l-110 -180q-58 59 -123.5 89t-157.5 30q-111 0 -194 -63t-124.5 -164.5t-41.5 -223.5v-39q52 77 153 135t213 58q126 0 228.5 -49t166.5 -151.5t64 -242.5q0 -126 -61.5 -230t-177.5 -166.5t-265 -62.5
q-117 0 -212 37t-159.5 102t-108.5 155t-63.5 193t-19.5 220zM332 510q5 -59 24 -113t53 -102.5t92.5 -77.5t133.5 -29q126 0 200 73.5t74 164.5q0 119 -79.5 181.5t-198.5 62.5q-87 0 -167.5 -43t-131.5 -117z" />
    <glyph glyph-name="seven" unicode="7" horiz-adv-x="1089" 
d="M55 1155v211h985v-166l-528 -1200h-264l516 1155h-709z" />
    <glyph glyph-name="eight" unicode="8" horiz-adv-x="1220" 
d="M86 352q0 123 87 216t220 137q-127 40 -205.5 121t-78.5 202q0 74 29 134.5t77.5 101.5t113.5 69t135.5 40.5t145.5 12.5q94 0 181 -21t160 -62t117 -112.5t44 -162.5q0 -121 -79 -202t-206 -121q133 -44 220.5 -137t87.5 -216q0 -119 -74 -206t-191 -129t-260 -42
t-260.5 42t-190.5 129t-73 206zM330 383q0 -89 80 -142t200 -53q118 0 199.5 53.5t81.5 141.5q0 49 -31 90.5t-79 66t-91 39t-80 19.5q-38 -5 -81 -19.5t-90 -39t-78 -65.5t-31 -91zM352 991q0 -36 19.5 -67t47.5 -51t65.5 -35.5t67 -23.5t58.5 -13q39 6 77 18t82 33.5
t71.5 57.5t27.5 81q0 86 -72 134.5t-186 48.5t-186 -48.5t-72 -134.5z" />
    <glyph glyph-name="nine" unicode="9" horiz-adv-x="1230" 
d="M80 930q0 195 140 327t364 132q117 0 212 -37t159.5 -101.5t108.5 -154.5t63.5 -193t19.5 -219q0 -119 -24.5 -225t-74 -194.5t-120.5 -152.5t-169 -99.5t-214 -35.5q-238 0 -393 152l112 182q58 -61 123 -91t158 -30q89 0 160 38.5t113.5 103.5t64.5 144t22 165
q0 27 -2 39q-50 -76 -151 -133.5t-215 -57.5q-126 0 -228 48.5t-165.5 150.5t-63.5 242zM322 938q0 -120 79.5 -182t200.5 -62q87 0 166.5 44t132.5 118q-4 47 -16.5 90t-36.5 86t-57.5 74t-83.5 50.5t-111 19.5q-126 0 -200 -73t-74 -165z" />
    <glyph glyph-name="colon" unicode=":" horiz-adv-x="485" 
d="M109 123q0 57 42.5 99t100.5 42t100.5 -42t42.5 -99q0 -59 -42.5 -102.5t-100.5 -43.5t-100.5 43.5t-42.5 102.5zM109 860q0 59 42.5 101.5t100.5 42.5t100.5 -42.5t42.5 -101.5q0 -57 -42.5 -99t-100.5 -42t-100.5 42t-42.5 99z" />
    <glyph glyph-name="semicolon" unicode=";" horiz-adv-x="501" 
d="M109 131q0 57 40.5 98t98.5 41q66 0 112 -50t46 -136q0 -103 -52 -195.5t-139 -154.5l-98 80q51 30 94.5 85.5t52.5 106.5q-8 -4 -35 -4q-51 0 -85.5 36.5t-34.5 92.5zM109 862q0 58 42 100t101 42t101 -42t42 -100t-42.5 -100.5t-100.5 -42.5t-100.5 42.5t-42.5 100.5z
" />
    <glyph glyph-name="less" unicode="&#x3c;" horiz-adv-x="1028" 
d="M59 608v156l910 424v-164l-746 -340l746 -334v-166z" />
    <glyph glyph-name="equal" unicode="=" horiz-adv-x="1028" 
d="M59 420v139h910v-139h-910zM59 811v137h910v-137h-910z" />
    <glyph glyph-name="greater" unicode="&#x3e;" horiz-adv-x="1028" 
d="M59 184v166l748 334l-748 340v164l910 -424v-156z" />
    <glyph glyph-name="question" unicode="?" horiz-adv-x="940" 
d="M27 1184q78 97 193.5 149.5t252.5 52.5q190 0 303 -90t113 -231q0 -62 -20 -114t-52.5 -88.5t-71 -68t-77.5 -58.5t-71.5 -53t-52.5 -58.5t-20 -69.5q0 -26 12 -52t33 -40l-182 -62q-72 69 -72 177q0 69 34 124.5t82.5 92t97 69.5t82.5 74t34 88q0 64 -50 106t-144 42
q-174 0 -285 -144zM317 123q0 57 43 99t101 42t100.5 -42t42.5 -99q0 -59 -42.5 -102.5t-100.5 -43.5t-101 43.5t-43 102.5z" />
    <glyph glyph-name="at" unicode="@" horiz-adv-x="1603" 
d="M72 500q0 215 114 402t301.5 296t397.5 109q191 0 339.5 -86.5t227 -231t78.5 -319.5q0 -119 -35 -216.5t-91 -157t-122.5 -91t-134.5 -31.5q-84 0 -134.5 46t-58.5 112l-2 14q-55 -78 -137 -125t-170 -47q-146 0 -231.5 94.5t-85.5 245.5q0 136 67.5 254t176 186
t227.5 68q92 0 158.5 -41t101.5 -107l22 117h193l-111 -524q-4 -20 -4 -45q0 -48 23.5 -73t60.5 -25q32 0 66.5 19t67 58t53 109.5t20.5 161.5q0 248 -156.5 403.5t-414.5 155.5q-144 0 -279 -60t-233.5 -159.5t-157.5 -233t-59 -274.5q0 -120 43.5 -226t120 -182.5
t184.5 -121t233 -44.5q198 0 375 115l41 -59q-200 -129 -426 -129q-183 0 -332 85t-233 232t-84 326zM528 528q0 -89 50 -143.5t137 -54.5q83 0 149 44.5t111 110.5l53 258q-18 48 -65.5 85.5t-118.5 37.5q-133 0 -224.5 -102.5t-91.5 -235.5z" />
    <glyph glyph-name="A" unicode="A" horiz-adv-x="1378" 
d="M4 0l537 1366h299l536 -1366h-272l-100 264h-627l-101 -264h-272zM444 475h492l-246 651z" />
    <glyph glyph-name="B" unicode="B" horiz-adv-x="1329" 
d="M145 0v1366h672q183 0 286 -98.5t103 -249.5q0 -123 -68.5 -207.5t-168.5 -105.5q111 -17 187.5 -113.5t76.5 -220.5q0 -165 -104.5 -268t-292.5 -103h-691zM385 211h395q97 0 152 50.5t55 139.5q0 81 -55 136t-152 55h-395v-381zM385 803h385q89 0 140 48.5t51 127.5
q0 77 -51 126.5t-140 49.5h-385v-352z" />
    <glyph glyph-name="C" unicode="C" horiz-adv-x="1396" 
d="M86 682q0 155 55.5 288t151.5 224.5t228 143t282 51.5q192 0 328 -84.5t219 -221.5l-203 -106q-51 88 -144 143.5t-200 55.5q-203 0 -337 -139t-134 -355q0 -213 134 -353.5t337 -140.5q106 0 199.5 56t144.5 143l205 -102q-197 -310 -549 -310q-150 0 -282 52
t-228 143.5t-151.5 224.5t-55.5 287z" />
    <glyph glyph-name="D" unicode="D" horiz-adv-x="1454" 
d="M145 0v1366h508q211 0 374 -87t252 -242t89 -353q0 -303 -197.5 -493.5t-515.5 -190.5h-510zM385 211h268q144 0 252 64.5t162.5 171t54.5 237.5q0 133 -52.5 238.5t-160 169t-254.5 63.5h-270v-944z" />
    <glyph glyph-name="E" unicode="E" horiz-adv-x="1181" 
d="M145 0v1366h936v-211h-696v-352h682v-211h-682v-381h696v-211h-936z" />
    <glyph glyph-name="F" unicode="F" horiz-adv-x="1153" 
d="M145 0v1366h936v-211h-696v-352h682v-211h-682v-592h-240z" />
    <glyph glyph-name="G" unicode="G" horiz-adv-x="1468" 
d="M86 682q0 158 56.5 291.5t153 224t228 141t279.5 50.5q351 0 549 -283l-195 -113q-59 81 -152 132t-202 51q-203 0 -337 -139t-134 -355q0 -213 134 -353.5t337 -140.5q97 0 184.5 36.5t138.5 86.5v211h-409v211h647v-510q-104 -117 -247 -183.5t-314 -66.5
q-198 0 -361 87t-259.5 250t-96.5 372z" />
    <glyph glyph-name="H" unicode="H" horiz-adv-x="1480" 
d="M145 0v1366h240v-557h711v557h239v-1366h-239v598h-711v-598h-240z" />
    <glyph glyph-name="I" unicode="I" horiz-adv-x="530" 
d="M145 0v1366h240v-1366h-240z" />
    <glyph glyph-name="J" unicode="J" horiz-adv-x="987" 
d="M16 121l113 182q100 -115 233 -115q108 0 174 68.5t66 179.5v930h240v-932q0 -225 -127 -342t-334 -117q-225 0 -365 146z" />
    <glyph glyph-name="K" unicode="K" horiz-adv-x="1271" 
d="M145 0v1366h240v-649l535 649h297l-555 -643l598 -723h-297l-457 578l-121 -142v-436h-240z" />
    <glyph glyph-name="L" unicode="L" horiz-adv-x="1036" 
d="M129 0v1366h240v-1155h602v-211h-842z" />
    <glyph glyph-name="M" unicode="M" horiz-adv-x="1710" 
d="M145 0v1366h338l373 -938l371 938h338v-1366h-240v1055l-418 -1055h-102l-420 1055v-1055h-240z" />
    <glyph glyph-name="N" unicode="N" horiz-adv-x="1474" 
d="M145 0v1366h246l699 -946v946h239v-1366h-231l-713 977v-977h-240z" />
    <glyph glyph-name="O" unicode="O" horiz-adv-x="1566" 
d="M86 682q0 202 88.5 363.5t248 252.5t361.5 91q151 0 281 -53.5t222 -147t144 -224.5t52 -282t-52 -282t-144 -224.5t-222 -147t-281 -53.5q-202 0 -361.5 91t-248 252.5t-88.5 363.5zM332 682q0 -214 124 -354t328 -140q203 0 328 140t125 354q0 215 -125 354.5
t-328 139.5q-204 0 -328 -139t-124 -355z" />
    <glyph glyph-name="P" unicode="P" horiz-adv-x="1247" 
d="M145 0v1366h603q207 0 325.5 -122.5t118.5 -305.5q0 -181 -119 -303.5t-325 -122.5h-363v-512h-240zM385 723h330q102 0 166.5 59.5t64.5 155.5q0 98 -64.5 157.5t-166.5 59.5h-330v-432z" />
    <glyph glyph-name="Q" unicode="Q" horiz-adv-x="1566" 
d="M86 682q0 202 88.5 363.5t248 252.5t361.5 91q151 0 281 -53.5t222 -147t144 -224.5t52 -282q0 -293 -183 -492l113 -127l-166 -139l-119 133q-155 -82 -344 -82q-202 0 -361.5 91t-248 252.5t-88.5 363.5zM332 682q0 -214 124 -354t328 -140q106 0 193 41l-170 193
l168 139l170 -192q92 131 92 313q0 215 -125 354.5t-328 139.5q-204 0 -328 -139t-124 -355z" />
    <glyph glyph-name="R" unicode="R" horiz-adv-x="1288" 
d="M145 0v1366h600q202 0 325.5 -118.5t123.5 -309.5q0 -88 -27.5 -160.5t-74 -121t-103.5 -79t-121 -40.5l336 -537h-278l-301 510h-240v-510h-240zM385 721h330q102 0 167.5 60t65.5 159q0 97 -65 156t-168 59h-330v-434z" />
    <glyph glyph-name="S" unicode="S" horiz-adv-x="1216" 
d="M57 193l136 186q77 -83 188 -137t244 -54q137 0 204.5 55.5t67.5 133.5q0 46 -27 80t-73 55.5t-106 38.5t-126 33.5t-131.5 36t-125.5 49.5t-106 70.5t-73 103.5t-27 143q0 173 138 287.5t360 114.5q314 0 510 -193l-135 -178q-79 79 -182.5 118.5t-214.5 39.5
q-104 0 -167 -47.5t-63 -122.5q0 -41 27 -71.5t73 -50t106 -36.5t125.5 -34t131.5 -37t126 -52t106 -74t73 -106.5t27 -145.5q0 -69 -19.5 -131t-61.5 -116t-103 -93t-149.5 -61.5t-195.5 -22.5q-346 0 -557 218z" />
    <glyph glyph-name="T" unicode="T" horiz-adv-x="1181" 
d="M57 1155v211h1067v-211h-413v-1155h-240v1155h-414z" />
    <glyph glyph-name="U" unicode="U" horiz-adv-x="1474" 
d="M145 541v825h244v-819q0 -166 90.5 -262.5t257.5 -96.5t257.5 96.5t90.5 262.5v819h244v-825q0 -261 -151 -413.5t-441 -152.5q-289 0 -440.5 152.5t-151.5 413.5z" />
    <glyph glyph-name="V" unicode="V" horiz-adv-x="1378" 
d="M4 1366h272l414 -1104l414 1104h272l-536 -1366h-299z" />
    <glyph glyph-name="W" unicode="W" horiz-adv-x="1849" 
d="M14 1366h267l266 -1051l282 1051h191l283 -1051l266 1051h268l-391 -1366h-256l-264 1010l-267 -1010h-256z" />
    <glyph glyph-name="X" unicode="X" horiz-adv-x="1353" 
d="M8 0l510 700l-479 666h287l352 -500l350 500h289l-481 -664l512 -702h-287l-383 535l-383 -535h-287z" />
    <glyph glyph-name="Y" unicode="Y" horiz-adv-x="1304" 
d="M4 1366h275l374 -584l375 584h275l-529 -799v-567h-239v567z" />
    <glyph glyph-name="Z" unicode="Z" horiz-adv-x="1206" 
d="M92 0v195l696 960h-696v211h1010v-192l-701 -963h715v-211h-1024z" />
    <glyph glyph-name="bracketleft" unicode="[" horiz-adv-x="542" 
d="M90 -389v1778h416v-148h-256v-1483h256v-147h-416z" />
    <glyph glyph-name="backslash" unicode="\" horiz-adv-x="645" 
d="M0 1407h160l485 -1448h-160z" />
    <glyph glyph-name="bracketright" unicode="]" horiz-adv-x="542" 
d="M37 -242h256v1483h-256v148h416v-1778h-416v147z" />
    <glyph glyph-name="asciicircum" unicode="^" horiz-adv-x="894" 
d="M39 682l332 684h157l328 -684h-164l-243 535l-244 -535h-166z" />
    <glyph glyph-name="underscore" unicode="_" horiz-adv-x="1155" 
d="M-6 -82h1167v-147h-1167v147z" />
    <glyph glyph-name="grave" unicode="`" horiz-adv-x="491" 
d="M0 1434h205l287 -295h-154z" />
    <glyph glyph-name="a" unicode="a" horiz-adv-x="1099" 
d="M82 303q0 82 30 146.5t80.5 102t109.5 56.5t122 19q209 0 321 -127v147q0 85 -64 134.5t-167 49.5q-170 0 -293 -126l-90 149q166 160 416 160q69 0 128.5 -11.5t112.5 -38.5t91 -67t60 -101.5t22 -138.5v-657h-216v109q-55 -64 -139 -99t-182 -35q-61 0 -121 21.5
t-110 61t-80.5 103.5t-30.5 142zM297 301q0 -80 60.5 -129t152.5 -49q72 0 135 26.5t100 75.5v152q-37 49 -100 75.5t-135 26.5q-92 0 -152.5 -49.5t-60.5 -128.5z" />
    <glyph glyph-name="b" unicode="b" horiz-adv-x="1189" 
d="M139 0v1366h215v-514q59 79 142 120.5t176 41.5q195 0 317.5 -141t122.5 -377q0 -241 -122.5 -381t-317.5 -140q-94 0 -177 42.5t-141 117.5v-135h-215zM354 297q37 -56 109 -93.5t147 -37.5q126 0 202.5 92t76.5 238q0 144 -76.5 235.5t-202.5 91.5q-75 0 -146.5 -38
t-109.5 -95v-393z" />
    <glyph glyph-name="c" unicode="c" horiz-adv-x="1019" 
d="M80 496q0 225 143.5 371.5t366.5 146.5q248 0 379 -176l-142 -129q-80 114 -227 114q-133 0 -216 -91t-83 -236t83 -237.5t216 -92.5q143 0 227 119l142 -133q-135 -177 -379 -177q-223 0 -366.5 148t-143.5 373z" />
    <glyph glyph-name="d" unicode="d" horiz-adv-x="1189" 
d="M80 496q0 236 122.5 377t315.5 141q95 0 177.5 -41.5t140.5 -120.5v514h215v-1366h-215v135q-58 -75 -140.5 -117.5t-177.5 -42.5q-193 0 -315.5 140t-122.5 381zM301 496q0 -146 76.5 -238t204.5 -92q74 0 146 38.5t108 94.5v391q-36 56 -108 94.5t-146 38.5
q-127 0 -204 -91.5t-77 -235.5z" />
    <glyph glyph-name="e" unicode="e" horiz-adv-x="1140" 
d="M80 496q0 142 63.5 260.5t179.5 188t259 69.5q220 0 352.5 -150.5t132.5 -386.5v-53h-762q13 -116 96 -194t217 -78q76 0 153.5 29t129.5 81l98 -141q-75 -70 -179.5 -108t-221.5 -38q-226 0 -372 144t-146 377zM303 578h557q-2 46 -19.5 90t-49.5 83.5t-86.5 63
t-124.5 23.5q-126 0 -198 -79.5t-79 -180.5z" />
    <glyph glyph-name="f" unicode="f" horiz-adv-x="632" 
d="M29 803v186h164v55q0 159 85 250.5t226 91.5q156 0 237 -86l-84 -133q-46 43 -112 43t-101.5 -42t-35.5 -124v-55h200v-186h-200v-803h-215v803h-164z" />
    <glyph glyph-name="g" unicode="g" horiz-adv-x="1189" 
d="M80 506q0 237 121 372.5t317 135.5q94 0 176 -41.5t142 -120.5v137h215v-938q0 -103 -30 -183.5t-78.5 -130t-116.5 -81.5t-137 -44.5t-146 -12.5q-131 0 -229 33t-187 114l100 156q113 -127 316 -127q56 0 105.5 14t93 44.5t69 86t25.5 131.5v113q-59 -77 -141.5 -121.5
t-176.5 -44.5q-194 0 -316 134.5t-122 373.5zM301 506q0 -143 76.5 -229.5t204.5 -86.5q73 0 144.5 38t109.5 94v370q-38 55 -109.5 93t-144.5 38q-128 0 -204.5 -87t-76.5 -230z" />
    <glyph glyph-name="h" unicode="h" horiz-adv-x="1163" 
d="M141 0v1366h215v-510q56 66 148 112t201 46q159 0 239 -80t80 -234v-700h-215v623q0 111 -50.5 155.5t-148.5 44.5q-78 0 -145.5 -38t-108.5 -93v-692h-215z" />
    <glyph glyph-name="i" unicode="i" horiz-adv-x="493" 
d="M115 1243q0 55 38.5 94t94.5 39t94.5 -39t38.5 -94t-38.5 -94t-94.5 -39t-94.5 39t-38.5 94zM139 0v989h215v-989h-215z" />
    <glyph glyph-name="j" unicode="j" horiz-adv-x="493" 
d="M-207 -330l64 160q62 -55 137 -55q67 0 106 41.5t39 126.5v1046h215v-1046q0 -162 -83 -253t-244 -91q-82 0 -131 16t-103 55zM115 1243q0 55 38.5 94t94.5 39t94.5 -39t38.5 -94t-38.5 -94t-94.5 -39t-94.5 39t-38.5 94z" />
    <glyph glyph-name="k" unicode="k" horiz-adv-x="1079" 
d="M139 0v1366h215v-854l437 477h266l-410 -448l418 -541h-270l-301 410l-140 -144v-266h-215z" />
    <glyph glyph-name="l" unicode="l" horiz-adv-x="493" 
d="M139 0v1366h215v-1366h-215z" />
    <glyph glyph-name="m" unicode="m" horiz-adv-x="1708" 
d="M139 0v989h215v-133q40 55 130.5 106.5t193.5 51.5q107 0 175.5 -48.5t94.5 -131.5q45 72 137.5 126t198.5 54q137 0 211 -75t74 -224v-715h-215v645q0 84 -40 131t-124 47q-68 0 -131 -38.5t-98 -92.5v-692h-216v645q0 178 -161 178q-67 0 -129.5 -39t-100.5 -92v-692
h-215z" />
    <glyph glyph-name="n" unicode="n" horiz-adv-x="1163" 
d="M139 0v989h215v-133q55 65 148.5 111.5t202.5 46.5q158 0 238.5 -82t80.5 -236v-696h-215v618q0 111 -52 158t-149 47q-76 0 -144 -38t-110 -93v-692h-215z" />
    <glyph glyph-name="o" unicode="o" 
d="M80 496q0 143 60.5 260t177.5 187.5t270 70.5t270 -70.5t177.5 -187.5t60.5 -260q0 -106 -35.5 -200.5t-100 -166t-161 -113t-211.5 -41.5t-211.5 41.5t-161 113t-100 166t-35.5 200.5zM303 496q0 -138 77 -234t208 -96q132 0 208 95.5t76 234.5q0 138 -76 232.5
t-208 94.5q-131 0 -208 -95t-77 -232z" />
    <glyph glyph-name="p" unicode="p" horiz-adv-x="1185" 
d="M139 -377v1366h215v-135q56 75 139.5 117.5t178.5 42.5q196 0 317 -139t121 -379q0 -241 -121.5 -381t-316.5 -140q-190 0 -318 162v-514h-215zM354 301q36 -57 108 -96t146 -39q127 0 204 92t77 238t-77 236.5t-204 90.5q-74 0 -145.5 -37.5t-108.5 -93.5v-391z" />
    <glyph glyph-name="q" unicode="q" horiz-adv-x="1185" 
d="M76 496q0 240 121 379t317 139q95 0 177.5 -42.5t139.5 -117.5v135h216v-1366h-216v514q-128 -162 -317 -162q-195 0 -316.5 140t-121.5 381zM297 496q0 -146 77 -238t204 -92q74 0 145.5 39t107.5 96v391q-37 56 -108 93.5t-145 37.5q-127 0 -204 -90.5t-77 -236.5z" />
    <glyph glyph-name="r" unicode="r" horiz-adv-x="710" 
d="M139 0v989h215v-143q60 74 145.5 121t176.5 47v-213q-27 6 -66 6q-70 0 -147 -39.5t-109 -93.5v-674h-215z" />
    <glyph glyph-name="s" unicode="s" horiz-adv-x="966" 
d="M55 131l99 154q55 -57 148.5 -97.5t184.5 -40.5q95 0 146 36t51 96q0 39 -33 65t-85.5 40.5t-116.5 27.5t-128 33.5t-116.5 50.5t-85.5 86t-33 133q0 127 104 213t285 86q228 0 383 -137l-90 -152q-47 52 -125 85.5t-168 33.5q-83 0 -132.5 -34.5t-49.5 -88.5
q0 -31 25.5 -53t67.5 -33.5t96 -24.5t110 -25t110 -35.5t96 -55t67.5 -85.5t25.5 -124q0 -136 -109 -223t-303 -87q-127 0 -237 40.5t-187 115.5z" />
    <glyph glyph-name="t" unicode="t" horiz-adv-x="653" 
d="M20 803v186h164v271h215v-271h201v-186h-201v-518q0 -53 25 -86t70 -33q29 0 55 11t39 26l51 -164q-71 -64 -201 -64q-125 0 -189.5 65.5t-64.5 190.5v572h-164z" />
    <glyph glyph-name="u" unicode="u" horiz-adv-x="1161" 
d="M139 289v700h215v-620q0 -110 51.5 -156.5t149.5 -46.5q77 0 144.5 37.5t107.5 91.5v694h215v-989h-215v131q-59 -66 -149.5 -111t-198.5 -45q-158 0 -239 81t-81 233z" />
    <glyph glyph-name="v" unicode="v" horiz-adv-x="1030" 
d="M-4 989h231l289 -741l289 741h229l-403 -989h-232z" />
    <glyph glyph-name="w" unicode="w" horiz-adv-x="1546" 
d="M10 989h223l209 -719l236 719h190l234 -719l209 719h225l-307 -989h-225l-232 725l-229 -725h-226z" />
    <glyph glyph-name="x" unicode="x" horiz-adv-x="1017" 
d="M10 0l365 508l-342 481h241l234 -334l235 334h242l-342 -481l365 -508h-242l-256 365l-258 -365h-242z" />
    <glyph glyph-name="y" unicode="y" horiz-adv-x="1030" 
d="M-4 989h231l289 -741l289 741h229l-477 -1167q-49 -120 -132 -170.5t-206 -52.5q-70 0 -121 14l31 192q37 -16 82 -16q55 0 88.5 19t54.5 67l49 113z" />
    <glyph glyph-name="z" unicode="z" horiz-adv-x="974" 
d="M96 0v164l488 639h-488v186h776v-155l-495 -646h504v-188h-785z" />
    <glyph glyph-name="braceleft" unicode="{" horiz-adv-x="567" 
d="M10 436v127q52 0 79.5 39.5t27.5 99.5v381q0 136 86.5 221t204.5 85h124v-148h-124q-56 0 -95 -43.5t-39 -112.5v-403q0 -143 -92 -182q92 -39 92 -183v-401q0 -68 39.5 -113t94.5 -45h124v-147h-124q-118 0 -204.5 83.5t-86.5 219.5v383q0 60 -27.5 99.5t-79.5 39.5z
" />
    <glyph glyph-name="bar" unicode="|" horiz-adv-x="438" 
d="M145 -41v1448h148v-1448h-148z" />
    <glyph glyph-name="braceright" unicode="}" horiz-adv-x="567" 
d="M35 -242h125q55 0 94 45t39 113v401q0 144 92 183q-92 39 -92 182v403q0 69 -39 112.5t-94 43.5h-125v148h125q118 0 204.5 -85t86.5 -221v-381q0 -60 27 -99.5t79 -39.5v-127q-52 0 -79 -39.5t-27 -99.5v-383q0 -136 -86.5 -219.5t-204.5 -83.5h-125v147z" />
    <glyph glyph-name="asciitilde" unicode="~" horiz-adv-x="1038" 
d="M55 870q8 103 25 183t49 154.5t88 115.5t133 41q53 0 93.5 -20.5t64.5 -54t42 -73.5t31 -79.5t26.5 -73t34 -54t48.5 -20.5q113 0 146 377l149 -16q-6 -68 -15 -123t-23.5 -114.5t-36.5 -103.5t-52 -80.5t-72.5 -55.5t-95.5 -19t-93.5 20.5t-64.5 53.5t-42 72.5t-31 79.5
t-26.5 73t-34 53.5t-48.5 20.5q-113 0 -143 -375z" />
    <glyph glyph-name="uni00A0" unicode="&#xa0;" horiz-adv-x="528" 
 />
    <glyph glyph-name="exclamdown" unicode="&#xa1;" horiz-adv-x="499" 
d="M106 868q0 58 43 101t101 43t99.5 -42.5t41.5 -101.5q0 -57 -41.5 -99t-99.5 -42t-101 42t-43 99zM119 -377l37 948h186l39 -948h-262z" />
    <glyph glyph-name="cent" unicode="&#xa2;" horiz-adv-x="1019" 
d="M80 496q0 201 116.5 342t307.5 170v149h160v-147q194 -23 305 -172l-142 -129q-63 87 -163 108v-645q98 21 163 113l142 -133q-114 -149 -305 -172v-185h-160v187q-190 28 -307 169.5t-117 344.5zM301 496q0 -117 54.5 -202t148.5 -114v629q-94 -31 -148.5 -114
t-54.5 -199z" />
    <glyph glyph-name="sterling" unicode="&#xa3;" horiz-adv-x="1097" 
d="M45 551v141h170q-38 51 -59 83t-40.5 87t-19.5 111q0 119 69 215t178 147t232 51q159 0 274 -60.5t175 -178.5l-190 -113q-25 68 -88.5 112t-143.5 44q-104 0 -175 -61t-71 -160q0 -44 14 -86.5t27 -65t45 -67t41 -58.5h301v-141h-237q6 -30 6 -62q0 -148 -143 -245
q47 18 102 18q65 0 148.5 -38t134.5 -38q61 0 111 23.5t73 54.5l98 -190q-101 -101 -291 -101q-61 0 -115 14.5t-87 32t-78 32t-90 14.5q-92 0 -238 -80l-82 170q114 53 178 124t64 154q0 55 -27 117h-266z" />
    <glyph glyph-name="currency" unicode="&#xa4;" horiz-adv-x="1069" 
d="M74 281l114 114q-102 127 -102 287q0 163 102 287l-114 116l57 58l117 -115q120 102 287 102q162 0 286 -102l115 115l59 -58l-114 -116q102 -124 102 -287q0 -160 -102 -287l114 -114l-59 -60l-115 117q-124 -105 -286 -105q-163 0 -287 105l-117 -117zM184 682
q0 -145 103 -247.5t248 -102.5t247.5 102.5t102.5 247.5q0 146 -102.5 248t-247.5 102t-248 -102t-103 -248z" />
    <glyph glyph-name="yen" unicode="&#xa5;" horiz-adv-x="1304" 
d="M4 1366h275l374 -584l375 584h275l-437 -659h394v-140h-486v-186h486v-139h-486v-242h-239v242h-488v139h488v186h-488v140h395z" />
    <glyph glyph-name="brokenbar" unicode="&#xa6;" horiz-adv-x="438" 
d="M145 -41v647h148v-647h-148zM145 760v647h148v-647h-148z" />
    <glyph glyph-name="section" unicode="&#xa7;" horiz-adv-x="976" 
d="M57 -6l97 139q56 -61 141.5 -104t183.5 -43q92 0 148.5 38t56.5 105q0 44 -33 74.5t-85.5 47.5t-116.5 32t-128 36t-116.5 51t-85.5 85t-33 131q0 97 63 163.5t152 92.5q-215 78 -215 258q0 123 106.5 204.5t280.5 81.5q252 0 385 -141l-90 -127q-51 56 -128 86.5
t-157 30.5q-87 0 -138.5 -36t-51.5 -97q0 -32 20.5 -55t55 -37t79.5 -25.5t94.5 -23t99 -25t94.5 -36.5t79.5 -53.5t55 -79t20.5 -110.5q0 -84 -46.5 -152.5t-133.5 -107.5q180 -76 180 -250q0 -146 -114.5 -229.5t-297.5 -83.5q-251 0 -422 160zM293 614q0 -23 8 -42
t18 -33t32 -27t37.5 -20t47.5 -16.5t48 -13.5t53 -13q71 32 106 73t35 101q0 36 -16 63.5t-46 46.5t-61 30.5t-74 22.5q-104 -25 -146 -67.5t-42 -104.5z" />
    <glyph glyph-name="dieresis" unicode="&#xa8;" horiz-adv-x="583" 
d="M-43 1245q0 51 35.5 86t85.5 35q51 0 86 -35t35 -86q0 -50 -35 -84.5t-86 -34.5q-50 0 -85.5 35t-35.5 84zM387 1245q0 51 34.5 86t84.5 35q51 0 86 -35t35 -86q0 -50 -35 -84.5t-86 -34.5q-50 0 -84.5 35t-34.5 84z" />
    <glyph glyph-name="copyright" unicode="&#xa9;" horiz-adv-x="1593" 
d="M90 684q0 192 95 355t258 257.5t354 94.5q144 0 275 -56t225 -150.5t150 -225.5t56 -275q0 -143 -56 -274t-150 -226t-225 -151t-275 -56q-191 0 -354 95t-258 258t-95 354zM160 684q0 -128 51 -246t136.5 -203.5t203.5 -136.5t246 -51q129 0 247.5 51t203.5 136.5
t135.5 203.5t50.5 246q0 130 -50.5 248t-135.5 203t-203 135.5t-248 50.5q-128 0 -246 -50.5t-203.5 -135.5t-136.5 -203.5t-51 -247.5zM379 688q0 186 123.5 309t302.5 123q185 0 301 -135l-57 -59q-40 54 -106 86t-138 32q-140 0 -240 -101t-100 -257q0 -153 100.5 -256.5
t239.5 -103.5q73 0 138.5 32.5t105.5 87.5l59 -57q-120 -139 -303 -139q-178 0 -302 126t-124 312z" />
    <glyph glyph-name="ordfeminine" unicode="&#xaa;" horiz-adv-x="782" 
d="M72 864q0 100 68 154.5t159 54.5q139 0 215 -80v94q0 54 -43 86.5t-109 32.5q-116 0 -192 -88l-64 105q113 104 281 104q59 0 108 -12.5t90 -40t64 -76t23 -115.5v-415h-158v69q-79 -86 -215 -86q-89 0 -158 57.5t-69 155.5zM229 864q0 -52 38.5 -81t97.5 -29
q44 0 84.5 17t64.5 48v90q-24 31 -64.5 48.5t-84.5 17.5q-59 0 -97.5 -30t-38.5 -81z" />
    <glyph glyph-name="guillemotleft" unicode="&#xab;" horiz-adv-x="1003" 
d="M61 498l328 362h205l-328 -362l328 -369h-205zM410 498l327 362h205l-328 -362l328 -369h-205z" />
    <glyph glyph-name="logicalnot" unicode="&#xac;" horiz-adv-x="1046" 
d="M59 811v137h910v-528h-144v391h-766z" />
    <glyph glyph-name="uni00AD" unicode="&#xad;" horiz-adv-x="614" 
d="M61 403v185h492v-185h-492z" />
    <glyph glyph-name="registered" unicode="&#xae;" horiz-adv-x="1011" 
d="M72 952q0 181 127 307.5t307 126.5q119 0 219 -57.5t157.5 -157.5t57.5 -219q0 -180 -126.5 -307t-307.5 -127q-180 0 -307 127t-127 307zM135 952q0 -152 108.5 -261t262.5 -109q155 0 264 108.5t109 261.5q0 156 -108.5 264.5t-264.5 108.5q-154 0 -262.5 -108.5
t-108.5 -264.5zM340 702v498h203q65 0 112 -42t47 -109q0 -72 -46 -110t-81 -38l134 -199h-84l-129 197h-88v-197h-68zM408 961h135q34 0 62 25.5t28 62.5q0 39 -28 65.5t-62 26.5h-135v-180z" />
    <glyph glyph-name="macron" unicode="&#xaf;" horiz-adv-x="743" 
d="M0 1210v127h743v-127h-743z" />
    <glyph glyph-name="degree" unicode="&#xb0;" horiz-adv-x="618" 
d="M45 1120q0 110 77 188t187 78q109 0 187.5 -78t78.5 -188q0 -109 -78.5 -186.5t-187.5 -77.5q-110 0 -187 77.5t-77 186.5zM168 1120q0 -58 41 -98.5t100 -40.5t101.5 40.5t42.5 98.5t-42.5 101t-101.5 43q-58 0 -99.5 -42.5t-41.5 -101.5z" />
    <glyph glyph-name="plusminus" unicode="&#xb1;" horiz-adv-x="1028" 
d="M59 0v139h910v-139h-910zM59 666v139h379v409h152v-409h379v-139h-379v-424h-152v424h-379z" />
    <glyph glyph-name="uni00B2" unicode="&#xb2;" horiz-adv-x="806" 
d="M84 1563q56 65 141.5 98t175.5 33q136 0 226 -64.5t90 -183.5q0 -104 -92 -207.5t-287 -243.5h385v-133h-625v123q263 186 358 278t95 171q0 63 -43.5 95t-110.5 32q-68 0 -130 -30t-95 -73z" />
    <glyph glyph-name="uni00B3" unicode="&#xb3;" horiz-adv-x="806" 
d="M76 979l84 106q41 -49 105.5 -76.5t129.5 -27.5q78 0 122 32t44 85q0 119 -194 119q-68 0 -86 -3v132q21 -3 86 -3q182 0 182 111q0 52 -46.5 79.5t-117.5 27.5q-131 0 -221 -93l-78 97q115 129 315 129q144 0 228 -59.5t84 -161.5q0 -76 -55 -125.5t-128 -61.5
q32 -3 65.5 -17t63.5 -37.5t49 -61.5t19 -83q0 -106 -89.5 -172.5t-238.5 -66.5q-109 0 -193.5 36.5t-129.5 94.5z" />
    <glyph glyph-name="acute" unicode="&#xb4;" horiz-adv-x="491" 
d="M0 1139l287 295h205l-338 -295h-154z" />
    <glyph glyph-name="mu" unicode="&#xb5;" horiz-adv-x="1161" 
d="M139 -377v1366h215v-620q0 -110 51.5 -157.5t149.5 -47.5q77 0 144 38t108 93v694h215v-989h-215v131q-59 -66 -149.5 -111t-198.5 -45q-48 0 -105 11v-363h-215z" />
    <glyph glyph-name="paragraph" unicode="&#xb6;" horiz-adv-x="919" 
d="M55 1014q0 146 103.5 249t249.5 103h395v-1571h-113v1458h-170v-1458h-112v867q-146 0 -249.5 103t-103.5 249z" />
    <glyph glyph-name="periodcentered" unicode="&#xb7;" horiz-adv-x="503" 
d="M109 502q0 57 42.5 99t100.5 42t99.5 -42t41.5 -99q0 -59 -41.5 -101.5t-99.5 -42.5t-100.5 42.5t-42.5 101.5z" />
    <glyph glyph-name="cedilla" unicode="&#xb8;" horiz-adv-x="438" 
d="M0 -334l47 94q73 -59 166 -59q47 0 80 19.5t33 54.5q0 61 -66 61q-44 0 -72 -31l-82 48l62 170h113l-52 -132q33 23 74 23q58 0 96.5 -39.5t38.5 -101.5q0 -76 -63.5 -123t-157.5 -47q-65 0 -123.5 18t-93.5 45z" />
    <glyph glyph-name="uni00B9" unicode="&#xb9;" horiz-adv-x="540" 
d="M20 1430l254 251h144v-819h-166v608l-135 -141z" />
    <glyph glyph-name="ordmasculine" unicode="&#xba;" horiz-adv-x="829" 
d="M70 989q0 142 95 240t249 98q157 0 251.5 -97.5t94.5 -240.5q0 -142 -95 -240t-251 -98q-154 0 -249 98.5t-95 239.5zM236 989q0 -93 47.5 -151t130.5 -58q86 0 135 58t49 151q0 94 -49 150.5t-135 56.5q-83 0 -130.5 -56.5t-47.5 -150.5z" />
    <glyph glyph-name="guillemotright" unicode="&#xbb;" horiz-adv-x="1003" 
d="M61 129l328 369l-328 362h205l328 -362l-328 -369h-205zM410 129l327 369l-327 362h204l328 -362l-328 -369h-204z" />
    <glyph glyph-name="onequarter" unicode="&#xbc;" horiz-adv-x="1650" 
d="M20 1114l254 252h144v-819h-166v608l-135 -141zM256 0l874 1366h138l-875 -1366h-137zM913 188v117l338 514h230v-500h110v-131h-110v-188h-164v188h-404zM1077 319h240v359z" />
    <glyph glyph-name="onehalf" unicode="&#xbd;" horiz-adv-x="1722" 
d="M20 1114l254 252h144v-819h-166v608l-135 -141zM256 0l874 1366h138l-875 -1366h-137zM1001 700q56 64 142 97.5t176 33.5q136 0 225.5 -64t89.5 -183q0 -104 -92 -207.5t-287 -243.5h385v-133h-624v123q263 186 357.5 277.5t94.5 170.5q0 63 -43 95t-110 32
q-69 0 -130.5 -30t-94.5 -72z" />
    <glyph glyph-name="threequarters" unicode="&#xbe;" horiz-adv-x="1849" 
d="M76 664l84 106q41 -49 105.5 -76.5t129.5 -27.5q78 0 122 31.5t44 84.5q0 119 -194 119q-74 0 -86 -2v131q14 -2 86 -2q182 0 182 111q0 52 -46 79t-118 27q-132 0 -221 -92l-78 96q115 129 315 129q144 0 228 -59.5t84 -161.5q0 -76 -55 -125t-128 -61q32 -3 65.5 -17
t63.5 -37.5t49 -61.5t19 -83q0 -106 -89.5 -173t-238.5 -67q-109 0 -193.5 36.5t-129.5 95.5zM455 0l874 1366h137l-874 -1366h-137zM1110 188v117l338 514h229v-500h111v-131h-111v-188h-164v188h-403zM1274 319h239v359z" />
    <glyph glyph-name="questiondown" unicode="&#xbf;" horiz-adv-x="811" 
d="M51 -80q0 62 20 114.5t52.5 89t71 68.5t77.5 58.5t71.5 53t52.5 59t20 69.5q0 26 -12 52t-33 40l182 62q72 -69 72 -176q0 -59 -24.5 -108t-61 -81t-79.5 -64.5t-79.5 -58t-61 -62t-24.5 -77.5q0 -64 50 -105.5t144 -41.5q172 0 285 143l139 -154q-79 -96 -194 -149
t-252 -53q-190 0 -303 90t-113 231zM336 868q0 59 42.5 101.5t100.5 42.5q59 0 101.5 -43t42.5 -101t-42.5 -100.5t-101.5 -42.5t-101 42.5t-42 100.5z" />
    <glyph glyph-name="Agrave" unicode="&#xc0;" horiz-adv-x="1378" 
d="M4 0l537 1366h299l536 -1366h-272l-100 264h-627l-101 -264h-272zM354 1786h205l287 -295h-154zM444 475h492l-246 651z" />
    <glyph glyph-name="Aacute" unicode="&#xc1;" horiz-adv-x="1378" 
d="M4 0l537 1366h299l536 -1366h-272l-100 264h-627l-101 -264h-272zM444 475h492l-246 651zM539 1491l286 295h205l-338 -295h-153z" />
    <glyph glyph-name="Acircumflex" unicode="&#xc2;" horiz-adv-x="1378" 
d="M4 0l537 1366h299l536 -1366h-272l-100 264h-627l-101 -264h-272zM401 1491l191 295h196l197 -295h-135l-160 199l-151 -199h-138zM444 475h492l-246 651z" />
    <glyph glyph-name="Atilde" unicode="&#xc3;" horiz-adv-x="1378" 
d="M4 0l537 1366h299l536 -1366h-272l-100 264h-627l-101 -264h-272zM362 1499q0 128 55 201.5t156 73.5q40 0 71.5 -16.5t52 -40t38 -47t38.5 -40t44 -16.5q38 0 62 37t24 110h117q0 -128 -55 -201t-156 -73q-39 0 -70.5 16.5t-52 40t-38.5 47t-39 40t-44 16.5
q-37 0 -60.5 -37.5t-23.5 -110.5h-119zM444 475h492l-246 651z" />
    <glyph glyph-name="Adieresis" unicode="&#xc4;" horiz-adv-x="1378" 
d="M4 0l537 1366h299l536 -1366h-272l-100 264h-627l-101 -264h-272zM356 1597q0 51 35.5 86t85.5 35q51 0 86 -35t35 -86q0 -50 -35 -84t-86 -34q-50 0 -85.5 34.5t-35.5 83.5zM444 475h492l-246 651zM786 1597q0 51 34.5 86t84.5 35q51 0 86 -35t35 -86q0 -50 -35 -84
t-86 -34q-50 0 -84.5 34.5t-34.5 83.5z" />
    <glyph glyph-name="Aring" unicode="&#xc5;" horiz-adv-x="1378" 
d="M4 0l537 1366h299l536 -1366h-272l-100 264h-627l-101 -264h-272zM444 475h492l-246 651zM481 1628q0 86 62.5 148.5t148.5 62.5t146.5 -62t60.5 -149q0 -86 -60.5 -147.5t-146.5 -61.5t-148.5 61.5t-62.5 147.5zM586 1628q0 -43 31 -74.5t75 -31.5q43 0 74 31.5t31 74.5
q0 44 -31 75.5t-74 31.5q-44 0 -75 -31.5t-31 -75.5z" />
    <glyph glyph-name="AE" unicode="&#xc6;" horiz-adv-x="1966" 
d="M-4 0l840 1366h1032v-211h-697v-352h682v-211h-682v-381h697v-211h-936v264h-504l-158 -264h-274zM541 475h391v651z" />
    <glyph glyph-name="Ccedilla" unicode="&#xc7;" horiz-adv-x="1396" 
d="M86 682q0 155 55.5 288t151.5 224.5t228 143t282 51.5q192 0 328 -84.5t219 -221.5l-203 -106q-51 88 -144 143.5t-200 55.5q-203 0 -337 -139t-134 -355q0 -213 134 -353.5t337 -140.5q106 0 199.5 56t144.5 143l205 -102q-188 -297 -521 -310l-28 -75q31 22 74 22
q58 0 96.5 -39.5t38.5 -101.5q0 -76 -63.5 -123t-157.5 -47q-65 0 -124 18t-94 45l48 95q75 -60 165 -60q47 0 80 19.5t33 54.5q0 61 -65 61q-45 0 -72 -30l-82 47l43 119q-136 13 -253.5 70t-202 147t-133 215.5t-48.5 269.5z" />
    <glyph glyph-name="Egrave" unicode="&#xc8;" horiz-adv-x="1181" 
d="M145 0v1366h936v-211h-696v-352h682v-211h-682v-381h696v-211h-936zM276 1786h205l287 -295h-154z" />
    <glyph glyph-name="Eacute" unicode="&#xc9;" horiz-adv-x="1181" 
d="M145 0v1366h936v-211h-696v-352h682v-211h-682v-381h696v-211h-936zM461 1491l287 295h204l-338 -295h-153z" />
    <glyph glyph-name="Ecircumflex" unicode="&#xca;" horiz-adv-x="1181" 
d="M145 0v1366h936v-211h-696v-352h682v-211h-682v-381h696v-211h-936zM322 1491l190 295h197l196 -295h-135l-160 199l-151 -199h-137z" />
    <glyph glyph-name="Edieresis" unicode="&#xcb;" horiz-adv-x="1181" 
d="M145 0v1366h936v-211h-696v-352h682v-211h-682v-381h696v-211h-936zM281 1597q0 51 35 86t85 35q51 0 86 -35t35 -86q0 -50 -35 -84t-86 -34q-50 0 -85 34.5t-35 83.5zM711 1597q0 51 34 86t84 35q51 0 86 -35t35 -86q0 -50 -35 -84t-86 -34q-49 0 -83.5 34.5t-34.5 83.5
z" />
    <glyph glyph-name="Igrave" unicode="&#xcc;" horiz-adv-x="530" 
d="M-74 1786h205l287 -295h-154zM145 0v1366h240v-1366h-240z" />
    <glyph glyph-name="Iacute" unicode="&#xcd;" horiz-adv-x="530" 
d="M117 1491l286 295h205l-338 -295h-153zM145 0v1366h240v-1366h-240z" />
    <glyph glyph-name="Icircumflex" unicode="&#xce;" horiz-adv-x="530" 
d="M-27 1491l191 295h196l197 -295h-135l-160 199l-151 -199h-138zM145 0v1366h240v-1366h-240z" />
    <glyph glyph-name="Idieresis" unicode="&#xcf;" horiz-adv-x="530" 
d="M-70 1595q0 51 35.5 86t85.5 35q51 0 86 -35t35 -86q0 -50 -35 -84t-86 -34q-50 0 -85.5 34.5t-35.5 83.5zM145 0v1366h240v-1366h-240zM360 1595q0 51 34.5 86t84.5 35q51 0 86 -35t35 -86q0 -50 -35 -84t-86 -34q-50 0 -84.5 34.5t-34.5 83.5z" />
    <glyph glyph-name="Eth" unicode="&#xd0;" horiz-adv-x="1507" 
d="M20 586v174h179v606h508q211 0 374 -87t251.5 -242t88.5 -353q0 -303 -197 -493.5t-515 -190.5h-510v586h-179zM438 211h269q144 0 252 64.5t162.5 171t54.5 237.5q0 133 -52.5 238.5t-160 169t-254.5 63.5h-271v-395h326v-174h-326v-375z" />
    <glyph glyph-name="Ntilde" unicode="&#xd1;" horiz-adv-x="1474" 
d="M145 0v1366h246l699 -946v946h239v-1366h-231l-713 977v-977h-240zM406 1499q0 128 54.5 201.5t155.5 73.5q40 0 71.5 -16.5t52 -40t38 -47t38.5 -40t44 -16.5q38 0 62 37t24 110h117q0 -128 -55 -201t-156 -73q-39 0 -70.5 16.5t-52 40t-38.5 47t-39 40t-44 16.5
q-37 0 -60.5 -37.5t-23.5 -110.5h-118z" />
    <glyph glyph-name="Ograve" unicode="&#xd2;" horiz-adv-x="1566" 
d="M86 682q0 202 88.5 363.5t248 252.5t361.5 91q151 0 281 -53.5t222 -147t144 -224.5t52 -282t-52 -282t-144 -224.5t-222 -147t-281 -53.5q-202 0 -361.5 91t-248 252.5t-88.5 363.5zM332 682q0 -214 124 -354t328 -140q203 0 328 140t125 354q0 215 -125 354.5
t-328 139.5q-204 0 -328 -139t-124 -355zM453 1786h204l287 -295h-153z" />
    <glyph glyph-name="Oacute" unicode="&#xd3;" horiz-adv-x="1566" 
d="M86 682q0 202 88.5 363.5t248 252.5t361.5 91q151 0 281 -53.5t222 -147t144 -224.5t52 -282t-52 -282t-144 -224.5t-222 -147t-281 -53.5q-202 0 -361.5 91t-248 252.5t-88.5 363.5zM332 682q0 -214 124 -354t328 -140q203 0 328 140t125 354q0 215 -125 354.5
t-328 139.5q-204 0 -328 -139t-124 -355zM633 1491l287 295h204l-338 -295h-153z" />
    <glyph glyph-name="Ocircumflex" unicode="&#xd4;" horiz-adv-x="1566" 
d="M86 682q0 202 88.5 363.5t248 252.5t361.5 91q151 0 281 -53.5t222 -147t144 -224.5t52 -282t-52 -282t-144 -224.5t-222 -147t-281 -53.5q-202 0 -361.5 91t-248 252.5t-88.5 363.5zM332 682q0 -214 124 -354t328 -140q203 0 328 140t125 354q0 215 -125 354.5
t-328 139.5q-204 0 -328 -139t-124 -355zM498 1491l190 295h197l196 -295h-135l-160 199l-151 -199h-137z" />
    <glyph glyph-name="Otilde" unicode="&#xd5;" horiz-adv-x="1566" 
d="M86 682q0 202 88.5 363.5t248 252.5t361.5 91q151 0 281 -53.5t222 -147t144 -224.5t52 -282t-52 -282t-144 -224.5t-222 -147t-281 -53.5q-202 0 -361.5 91t-248 252.5t-88.5 363.5zM332 682q0 -214 124 -354t328 -140q203 0 328 140t125 354q0 215 -125 354.5
t-328 139.5q-204 0 -328 -139t-124 -355zM457 1499q0 128 55 201.5t156 73.5q40 0 71.5 -16.5t51.5 -40t37.5 -47t38.5 -40t44 -16.5q38 0 62 37t24 110h117q0 -128 -55 -201t-156 -73q-39 0 -70.5 16.5t-52 40t-38.5 47t-39 40t-44 16.5q-37 0 -60.5 -37.5t-23.5 -110.5
h-118z" />
    <glyph glyph-name="Odieresis" unicode="&#xd6;" horiz-adv-x="1566" 
d="M86 682q0 202 88.5 363.5t248 252.5t361.5 91q151 0 281 -53.5t222 -147t144 -224.5t52 -282t-52 -282t-144 -224.5t-222 -147t-281 -53.5q-202 0 -361.5 91t-248 252.5t-88.5 363.5zM332 682q0 -214 124 -354t328 -140q203 0 328 140t125 354q0 215 -125 354.5
t-328 139.5q-204 0 -328 -139t-124 -355zM451 1597q0 51 35 86t85 35q51 0 86 -35t35 -86q0 -50 -35 -84t-86 -34q-50 0 -85 34.5t-35 83.5zM881 1597q0 51 34 86t84 35q51 0 86 -35t35 -86q0 -50 -35 -84t-86 -34q-49 0 -83.5 34.5t-34.5 83.5z" />
    <glyph glyph-name="multiply" unicode="&#xd7;" horiz-adv-x="1028" 
d="M121 389l297 295l-297 297l98 96l295 -295l297 295l96 -96l-295 -297l295 -295l-96 -98l-297 297l-295 -297z" />
    <glyph glyph-name="Oslash" unicode="&#xd8;" horiz-adv-x="1566" 
d="M86 682q0 202 88.5 363.5t248 252.5t361.5 91q193 0 349 -86l45 63h178l-105 -145q110 -97 171 -236t61 -303q0 -151 -52 -282t-144 -224.5t-222 -147t-281 -53.5q-204 0 -366 95l-51 -70h-179l113 156q-103 97 -159 232t-56 294zM332 682q0 -203 106 -336l563 776
q-97 54 -217 54q-204 0 -328 -139t-124 -355zM549 250q105 -62 235 -62q203 0 328 140t125 354q0 213 -123 352z" />
    <glyph glyph-name="Ugrave" unicode="&#xd9;" horiz-adv-x="1474" 
d="M145 541v825h244v-819q0 -166 90.5 -262.5t257.5 -96.5t257.5 96.5t90.5 262.5v819h244v-825q0 -261 -151 -413.5t-441 -152.5q-289 0 -440.5 152.5t-151.5 413.5zM403 1786h205l287 -295h-154z" />
    <glyph glyph-name="Uacute" unicode="&#xda;" horiz-adv-x="1474" 
d="M145 541v825h244v-819q0 -166 90.5 -262.5t257.5 -96.5t257.5 96.5t90.5 262.5v819h244v-825q0 -261 -151 -413.5t-441 -152.5q-289 0 -440.5 152.5t-151.5 413.5zM586 1491l286 295h205l-338 -295h-153z" />
    <glyph glyph-name="Ucircumflex" unicode="&#xdb;" horiz-adv-x="1474" 
d="M145 541v825h244v-819q0 -166 90.5 -262.5t257.5 -96.5t257.5 96.5t90.5 262.5v819h244v-825q0 -261 -151 -413.5t-441 -152.5q-289 0 -440.5 152.5t-151.5 413.5zM457 1491l190 295h197l196 -295h-135l-160 199l-151 -199h-137z" />
    <glyph glyph-name="Udieresis" unicode="&#xdc;" horiz-adv-x="1474" 
d="M145 541v825h244v-819q0 -166 90.5 -262.5t257.5 -96.5t257.5 96.5t90.5 262.5v819h244v-825q0 -261 -151 -413.5t-441 -152.5q-289 0 -440.5 152.5t-151.5 413.5zM406 1597q0 51 35 86t85 35q51 0 86 -35t35 -86q0 -50 -35 -84t-86 -34q-50 0 -85 34.5t-35 83.5z
M836 1597q0 51 34 86t84 35q51 0 86 -35t35 -86q0 -50 -35 -84t-86 -34q-50 0 -84 34.5t-34 83.5z" />
    <glyph glyph-name="Yacute" unicode="&#xdd;" horiz-adv-x="1304" 
d="M4 1366h275l374 -584l375 584h275l-529 -799v-567h-239v567zM506 1491l287 295h204l-338 -295h-153z" />
    <glyph glyph-name="Thorn" unicode="&#xde;" horiz-adv-x="1247" 
d="M145 0v1366h240v-229h363q139 0 241.5 -60t152.5 -156t50 -214q0 -182 -119 -304t-325 -122h-363v-281h-240zM385 492h330q102 0 166.5 59.5t64.5 155.5q0 98 -64.5 158.5t-166.5 60.5h-330v-434z" />
    <glyph glyph-name="germandbls" unicode="&#xdf;" horiz-adv-x="1275" 
d="M141 0v993q0 167 118 280t316 113q161 0 278.5 -77t117.5 -201q0 -53 -21.5 -97.5t-53 -72t-69 -55t-69 -48.5t-53 -50t-21.5 -62q0 -31 24 -53t63 -33.5t89 -24.5t102.5 -24.5t102.5 -35t89 -55t63 -85t24 -123.5q0 -135 -106 -224.5t-291 -89.5q-136 0 -223.5 41.5
t-169.5 120.5l94 148q45 -58 126 -96.5t173 -38.5t141 37.5t49 93.5q0 34 -24 59t-63 38.5t-89 28t-102.5 26.5t-102.5 35t-89 52.5t-63 80t-24 116.5q0 50 20 93.5t50.5 72t66 55.5t66 46.5t50.5 44.5t20 50q0 55 -53.5 86t-125.5 31q-93 0 -154 -55t-61 -148v-993h-215z
" />
    <glyph glyph-name="agrave" unicode="&#xe0;" horiz-adv-x="1099" 
d="M82 303q0 82 30 146.5t80.5 102t109.5 56.5t122 19q209 0 321 -127v147q0 85 -64 134.5t-167 49.5q-170 0 -293 -126l-90 149q166 160 416 160q69 0 128.5 -11.5t112.5 -38.5t91 -67t60 -101.5t22 -138.5v-657h-216v109q-55 -64 -139 -99t-182 -35q-61 0 -121 21.5
t-110 61t-80.5 103.5t-30.5 142zM211 1434h205l286 -295h-153zM297 301q0 -80 60.5 -129t152.5 -49q72 0 135 26.5t100 75.5v152q-37 49 -100 75.5t-135 26.5q-92 0 -152.5 -49.5t-60.5 -128.5z" />
    <glyph glyph-name="aacute" unicode="&#xe1;" horiz-adv-x="1099" 
d="M82 303q0 82 30 146.5t80.5 102t109.5 56.5t122 19q209 0 321 -127v147q0 85 -64 134.5t-167 49.5q-170 0 -293 -126l-90 149q166 160 416 160q69 0 128.5 -11.5t112.5 -38.5t91 -67t60 -101.5t22 -138.5v-657h-216v109q-55 -64 -139 -99t-182 -35q-61 0 -121 21.5
t-110 61t-80.5 103.5t-30.5 142zM297 301q0 -80 60.5 -129t152.5 -49q72 0 135 26.5t100 75.5v152q-37 49 -100 75.5t-135 26.5q-92 0 -152.5 -49.5t-60.5 -128.5zM401 1139l287 295h205l-338 -295h-154z" />
    <glyph glyph-name="acircumflex" unicode="&#xe2;" horiz-adv-x="1099" 
d="M82 303q0 82 30 146.5t80.5 102t109.5 56.5t122 19q209 0 321 -127v147q0 85 -64 134.5t-167 49.5q-170 0 -293 -126l-90 149q166 160 416 160q69 0 128.5 -11.5t112.5 -38.5t91 -67t60 -101.5t22 -138.5v-657h-216v109q-55 -64 -139 -99t-182 -35q-61 0 -121 21.5
t-110 61t-80.5 103.5t-30.5 142zM264 1139l191 295h196l197 -295h-135l-160 198l-152 -198h-137zM297 301q0 -80 60.5 -129t152.5 -49q72 0 135 26.5t100 75.5v152q-37 49 -100 75.5t-135 26.5q-92 0 -152.5 -49.5t-60.5 -128.5z" />
    <glyph glyph-name="atilde" unicode="&#xe3;" horiz-adv-x="1099" 
d="M82 303q0 82 30 146.5t80.5 102t109.5 56.5t122 19q209 0 321 -127v147q0 85 -64 134.5t-167 49.5q-170 0 -293 -126l-90 149q166 160 416 160q69 0 128.5 -11.5t112.5 -38.5t91 -67t60 -101.5t22 -138.5v-657h-216v109q-55 -64 -139 -99t-182 -35q-61 0 -121 21.5
t-110 61t-80.5 103.5t-30.5 142zM221 1147q0 128 55 201t156 73q40 0 71.5 -16.5t52 -39.5t38 -46.5t38.5 -40t44 -16.5q38 0 62 37t24 110h117q0 -128 -55 -201t-156 -73q-39 0 -70.5 16.5t-52 39.5t-38.5 46.5t-39 40t-44 16.5q-37 0 -60.5 -37t-23.5 -110h-119zM297 301
q0 -80 60.5 -129t152.5 -49q72 0 135 26.5t100 75.5v152q-37 49 -100 75.5t-135 26.5q-92 0 -152.5 -49.5t-60.5 -128.5z" />
    <glyph glyph-name="adieresis" unicode="&#xe4;" horiz-adv-x="1099" 
d="M82 303q0 82 30 146.5t80.5 102t109.5 56.5t122 19q209 0 321 -127v147q0 85 -64 134.5t-167 49.5q-170 0 -293 -126l-90 149q166 160 416 160q69 0 128.5 -11.5t112.5 -38.5t91 -67t60 -101.5t22 -138.5v-657h-216v109q-55 -64 -139 -99t-182 -35q-61 0 -121 21.5
t-110 61t-80.5 103.5t-30.5 142zM211 1245q0 51 35.5 86t85.5 35q51 0 86 -35t35 -86q0 -50 -35 -84.5t-86 -34.5q-50 0 -85.5 35t-35.5 84zM297 301q0 -80 60.5 -129t152.5 -49q72 0 135 26.5t100 75.5v152q-37 49 -100 75.5t-135 26.5q-92 0 -152.5 -49.5t-60.5 -128.5z
M641 1245q0 51 34.5 86t84.5 35q51 0 86 -35t35 -86q0 -50 -35 -84.5t-86 -34.5q-50 0 -84.5 35t-34.5 84z" />
    <glyph glyph-name="aring" unicode="&#xe5;" horiz-adv-x="1099" 
d="M82 303q0 82 30 146.5t80.5 102t109.5 56.5t122 19q209 0 321 -127v147q0 85 -64 134.5t-167 49.5q-170 0 -293 -126l-90 149q166 160 416 160q69 0 128.5 -11.5t112.5 -38.5t91 -67t60 -101.5t22 -138.5v-657h-216v109q-55 -64 -139 -99t-182 -35q-61 0 -121 21.5
t-110 61t-80.5 103.5t-30.5 142zM297 301q0 -80 60.5 -129t152.5 -49q72 0 135 26.5t100 75.5v152q-37 49 -100 75.5t-135 26.5q-92 0 -152.5 -49.5t-60.5 -128.5zM342 1323q0 86 62.5 148.5t148.5 62.5t146.5 -62t60.5 -149q0 -86 -60.5 -147.5t-146.5 -61.5t-148.5 61.5
t-62.5 147.5zM446 1323q0 -43 31.5 -74.5t75.5 -31.5q43 0 73.5 31.5t30.5 74.5q0 44 -30.5 75.5t-73.5 31.5q-44 0 -75.5 -31.5t-31.5 -75.5z" />
    <glyph glyph-name="ae" unicode="&#xe6;" horiz-adv-x="1798" 
d="M82 301q0 79 28 142t76 102.5t109 60.5t129 21q208 0 321 -125v145q0 85 -64 134.5t-167 49.5q-170 0 -293 -126l-90 149q166 160 416 160q267 0 338 -185q127 185 364 185q213 0 344 -150.5t131 -386.5v-53h-761q13 -116 96 -192t217 -76q75 0 152.5 29.5t130.5 80.5
l98 -145q-75 -70 -179.5 -108t-222.5 -38q-131 0 -236 51.5t-173 139.5q-65 -82 -168 -136.5t-238 -54.5q-67 0 -130 21t-114.5 60t-82.5 103t-31 142zM297 301q0 -80 60.5 -129t152.5 -49q78 0 147.5 33.5t112.5 107.5q-25 48 -25 109q-37 51 -100.5 78.5t-134.5 27.5
q-92 0 -152.5 -49.5t-60.5 -128.5zM961 578h557q-2 46 -19.5 90t-49.5 83t-87 63t-125 24q-126 0 -197.5 -78.5t-78.5 -181.5z" />
    <glyph glyph-name="ccedilla" unicode="&#xe7;" horiz-adv-x="1019" 
d="M80 496q0 225 143.5 371.5t366.5 146.5q248 0 379 -176l-142 -129q-80 114 -227 114q-133 0 -216 -91t-83 -236t83 -237.5t216 -92.5q143 0 227 119l142 -133q-118 -157 -330 -175l-31 -81q31 22 74 22q58 0 96.5 -39.5t38.5 -101.5q0 -76 -63.5 -123t-157.5 -47
q-65 0 -123.5 18t-93.5 45l47 94q73 -59 166 -59q47 0 80 19.5t33 54.5q0 61 -66 61q-45 0 -72 -30l-82 47l43 123q-199 20 -323.5 163.5t-124.5 352.5z" />
    <glyph glyph-name="egrave" unicode="&#xe8;" horiz-adv-x="1140" 
d="M80 496q0 142 63.5 260.5t179.5 188t259 69.5q220 0 352.5 -150.5t132.5 -386.5v-53h-762q13 -116 96 -194t217 -78q76 0 153.5 29t129.5 81l98 -141q-75 -70 -179.5 -108t-221.5 -38q-226 0 -372 144t-146 377zM244 1434h205l286 -295h-153zM303 578h557q-2 46 -19.5 90
t-49.5 83.5t-86.5 63t-124.5 23.5q-126 0 -198 -79.5t-79 -180.5z" />
    <glyph glyph-name="eacute" unicode="&#xe9;" horiz-adv-x="1140" 
d="M80 496q0 142 63.5 260.5t179.5 188t259 69.5q220 0 352.5 -150.5t132.5 -386.5v-53h-762q13 -116 96 -194t217 -78q76 0 153.5 29t129.5 81l98 -141q-75 -70 -179.5 -108t-221.5 -38q-226 0 -372 144t-146 377zM303 578h557q-2 46 -19.5 90t-49.5 83.5t-86.5 63
t-124.5 23.5q-126 0 -198 -79.5t-79 -180.5zM430 1139l287 295h205l-338 -295h-154z" />
    <glyph glyph-name="ecircumflex" unicode="&#xea;" horiz-adv-x="1140" 
d="M80 496q0 142 63.5 260.5t179.5 188t259 69.5q220 0 352.5 -150.5t132.5 -386.5v-53h-762q13 -116 96 -194t217 -78q76 0 153.5 29t129.5 81l98 -141q-75 -70 -179.5 -108t-221.5 -38q-226 0 -372 144t-146 377zM293 1139l190 295h197l197 -295h-136l-159 198l-152 -198
h-137zM303 578h557q-2 46 -19.5 90t-49.5 83.5t-86.5 63t-124.5 23.5q-126 0 -198 -79.5t-79 -180.5z" />
    <glyph glyph-name="edieresis" unicode="&#xeb;" horiz-adv-x="1140" 
d="M80 496q0 142 63.5 260.5t179.5 188t259 69.5q220 0 352.5 -150.5t132.5 -386.5v-53h-762q13 -116 96 -194t217 -78q76 0 153.5 29t129.5 81l98 -141q-75 -70 -179.5 -108t-221.5 -38q-226 0 -372 144t-146 377zM248 1245q0 51 35.5 86t85.5 35q51 0 85.5 -35t34.5 -86
q0 -50 -34.5 -84.5t-85.5 -34.5q-50 0 -85.5 35t-35.5 84zM303 578h557q-2 46 -19.5 90t-49.5 83.5t-86.5 63t-124.5 23.5q-126 0 -198 -79.5t-79 -180.5zM678 1245q0 51 34.5 86t84.5 35q51 0 86 -35t35 -86q0 -50 -35 -84.5t-86 -34.5q-49 0 -84 35t-35 84z" />
    <glyph glyph-name="igrave" unicode="&#xec;" horiz-adv-x="493" 
d="M-92 1434h205l286 -295h-153zM139 0v989h215v-989h-215z" />
    <glyph glyph-name="iacute" unicode="&#xed;" horiz-adv-x="493" 
d="M94 1139l287 295h205l-338 -295h-154zM139 0v989h215v-989h-215z" />
    <glyph glyph-name="icircumflex" unicode="&#xee;" horiz-adv-x="493" 
d="M-45 1139l190 295h197l197 -295h-136l-159 198l-152 -198h-137zM139 0v989h215v-989h-215z" />
    <glyph glyph-name="idieresis" unicode="&#xef;" horiz-adv-x="493" 
d="M-88 1245q0 51 35.5 86t85.5 35q51 0 86 -35t35 -86q0 -50 -35 -84.5t-86 -34.5q-50 0 -85.5 35t-35.5 84zM139 0v989h215v-989h-215zM342 1245q0 51 34.5 86t84.5 35q51 0 86 -35t35 -86q0 -50 -35 -84.5t-86 -34.5q-49 0 -84 35t-35 84z" />
    <glyph glyph-name="eth" unicode="&#xf0;" 
d="M80 469q0 213 125.5 351t316.5 138q207 0 326 -184q-84 169 -324 342l-297 -131l-43 107l230 100q-38 25 -140 88l117 174q142 -88 244 -164l215 94l45 -102l-162 -72q363 -320 363 -698q0 -238 -137.5 -387.5t-370.5 -149.5q-228 0 -368 139t-140 355zM303 469
q0 -127 77 -215t208 -88q133 0 208.5 87.5t75.5 215.5q0 126 -76 213.5t-208 87.5q-131 0 -208 -87.5t-77 -213.5z" />
    <glyph glyph-name="ntilde" unicode="&#xf1;" horiz-adv-x="1163" 
d="M150 0v989h215v-133q55 66 148 112t202 46q158 0 238.5 -82t80.5 -236v-696h-215v618q0 111 -52 158t-149 47q-76 0 -143.5 -38t-109.5 -93v-692h-215zM254 1147q0 128 55 201t156 73q40 0 71.5 -16.5t52 -39.5t38 -46.5t38.5 -40t44 -16.5q38 0 62 37t24 110h116
q0 -128 -55 -201t-156 -73q-39 0 -70.5 16.5t-52 39.5t-38 46.5t-38.5 40t-44 16.5q-37 0 -60.5 -37t-23.5 -110h-119z" />
    <glyph glyph-name="ograve" unicode="&#xf2;" 
d="M80 496q0 143 60.5 260t177.5 187.5t270 70.5t270 -70.5t177.5 -187.5t60.5 -260q0 -106 -35.5 -200.5t-100 -166t-161 -113t-211.5 -41.5t-211.5 41.5t-161 113t-100 166t-35.5 200.5zM250 1434h205l286 -295h-153zM303 496q0 -138 77 -234t208 -96q132 0 208 95.5
t76 234.5q0 138 -76 232.5t-208 94.5q-131 0 -208 -95t-77 -232z" />
    <glyph glyph-name="oacute" unicode="&#xf3;" 
d="M80 496q0 143 60.5 260t177.5 187.5t270 70.5t270 -70.5t177.5 -187.5t60.5 -260q0 -106 -35.5 -200.5t-100 -166t-161 -113t-211.5 -41.5t-211.5 41.5t-161 113t-100 166t-35.5 200.5zM303 496q0 -138 77 -234t208 -96q132 0 208 95.5t76 234.5q0 138 -76 232.5
t-208 94.5q-131 0 -208 -95t-77 -232zM434 1139l287 295h205l-338 -295h-154z" />
    <glyph glyph-name="ocircumflex" unicode="&#xf4;" 
d="M80 496q0 143 60.5 260t177.5 187.5t270 70.5t270 -70.5t177.5 -187.5t60.5 -260q0 -106 -35.5 -200.5t-100 -166t-161 -113t-211.5 -41.5t-211.5 41.5t-161 113t-100 166t-35.5 200.5zM299 1139l190 295h197l197 -295h-135l-160 198l-152 -198h-137zM303 496
q0 -138 77 -234t208 -96q132 0 208 95.5t76 234.5q0 138 -76 232.5t-208 94.5q-131 0 -208 -95t-77 -232z" />
    <glyph glyph-name="otilde" unicode="&#xf5;" 
d="M80 496q0 143 60.5 260t177.5 187.5t270 70.5t270 -70.5t177.5 -187.5t60.5 -260q0 -106 -35.5 -200.5t-100 -166t-161 -113t-211.5 -41.5t-211.5 41.5t-161 113t-100 166t-35.5 200.5zM260 1147q0 128 55 201t156 73q40 0 71.5 -16.5t52 -39.5t38 -46.5t38.5 -40
t44 -16.5q38 0 62 37t24 110h117q0 -128 -55 -201t-156 -73q-39 0 -70.5 16.5t-52 39.5t-38.5 46.5t-39 40t-44 16.5q-37 0 -60.5 -37t-23.5 -110h-119zM303 496q0 -138 77 -234t208 -96q132 0 208 95.5t76 234.5q0 138 -76 232.5t-208 94.5q-131 0 -208 -95t-77 -232z" />
    <glyph glyph-name="odieresis" unicode="&#xf6;" 
d="M80 496q0 143 60.5 260t177.5 187.5t270 70.5t270 -70.5t177.5 -187.5t60.5 -260q0 -106 -35.5 -200.5t-100 -166t-161 -113t-211.5 -41.5t-211.5 41.5t-161 113t-100 166t-35.5 200.5zM252 1245q0 51 35.5 86t85.5 35q51 0 86 -35t35 -86q0 -50 -35 -84.5t-86 -34.5
q-50 0 -85.5 35t-35.5 84zM303 496q0 -138 77 -234t208 -96q132 0 208 95.5t76 234.5q0 138 -76 232.5t-208 94.5q-131 0 -208 -95t-77 -232zM682 1245q0 51 34.5 86t84.5 35q51 0 86 -35t35 -86q0 -50 -35 -84.5t-86 -34.5q-49 0 -84 35t-35 84z" />
    <glyph glyph-name="divide" unicode="&#xf7;" horiz-adv-x="1046" 
d="M59 623v137h928v-137h-928zM412 311q0 46 33 78.5t79 32.5t78.5 -32.5t32.5 -78.5t-32.5 -79t-78.5 -33t-79 33t-33 79zM412 1067q0 45 33 77t79 32t78.5 -31.5t32.5 -77.5t-33 -80.5t-78 -34.5t-78.5 34.5t-33.5 80.5z" />
    <glyph glyph-name="oslash" unicode="&#xf8;" 
d="M80 496q0 143 60.5 260t177.5 187.5t270 70.5q157 0 284 -80l48 55h141l-105 -125q140 -146 140 -368q0 -106 -35.5 -200.5t-100 -166t-161 -113t-211.5 -41.5q-171 0 -293 86l-51 -61h-140l109 131q-133 145 -133 365zM303 496q0 -115 49 -197l391 477q-66 47 -155 47
q-131 0 -208 -95t-77 -232zM424 219q72 -53 164 -53q132 0 208 95.5t76 234.5q0 114 -53 200z" />
    <glyph glyph-name="ugrave" unicode="&#xf9;" horiz-adv-x="1161" 
d="M139 289v700h215v-620q0 -110 51.5 -156.5t149.5 -46.5q77 0 144.5 37.5t107.5 91.5v694h215v-989h-215v131q-59 -66 -149.5 -111t-198.5 -45q-158 0 -239 81t-81 233zM248 1434h205l286 -295h-153z" />
    <glyph glyph-name="uacute" unicode="&#xfa;" horiz-adv-x="1161" 
d="M139 289v700h215v-620q0 -110 51.5 -156.5t149.5 -46.5q77 0 144.5 37.5t107.5 91.5v694h215v-989h-215v131q-59 -66 -149.5 -111t-198.5 -45q-158 0 -239 81t-81 233zM430 1139l287 295h205l-338 -295h-154z" />
    <glyph glyph-name="ucircumflex" unicode="&#xfb;" horiz-adv-x="1161" 
d="M139 289v700h215v-620q0 -110 51.5 -156.5t149.5 -46.5q77 0 144.5 37.5t107.5 91.5v694h215v-989h-215v131q-59 -66 -149.5 -111t-198.5 -45q-158 0 -239 81t-81 233zM291 1139l190 295h197l196 -295h-135l-159 198l-152 -198h-137z" />
    <glyph glyph-name="udieresis" unicode="&#xfc;" horiz-adv-x="1161" 
d="M139 289v700h215v-620q0 -110 51.5 -156.5t149.5 -46.5q77 0 144.5 37.5t107.5 91.5v694h215v-989h-215v131q-59 -66 -149.5 -111t-198.5 -45q-158 0 -239 81t-81 233zM252 1245q0 51 35.5 86t85.5 35q51 0 86 -35t35 -86q0 -50 -35 -84.5t-86 -34.5q-50 0 -85.5 35
t-35.5 84zM682 1245q0 51 34.5 86t84.5 35q51 0 86 -35t35 -86q0 -50 -35 -84.5t-86 -34.5q-49 0 -84 35t-35 84z" />
    <glyph glyph-name="yacute" unicode="&#xfd;" horiz-adv-x="1030" 
d="M-4 989h231l289 -741l289 741h229l-477 -1167q-49 -120 -132 -170.5t-206 -52.5q-70 0 -121 14l31 192q37 -16 82 -16q55 0 88.5 19t54.5 67l49 113zM362 1139l287 295h205l-338 -295h-154z" />
    <glyph glyph-name="thorn" unicode="&#xfe;" horiz-adv-x="1185" 
d="M139 -377v1743h215v-512q56 75 139.5 117.5t178.5 42.5q196 0 317 -139t121 -379q0 -241 -121.5 -381t-316.5 -140q-190 0 -318 162v-514h-215zM354 301q36 -57 108 -96t146 -39q127 0 204 92t77 238t-77 236.5t-204 90.5q-74 0 -145.5 -37.5t-108.5 -93.5v-391z" />
    <glyph glyph-name="ydieresis" unicode="&#xff;" horiz-adv-x="1030" 
d="M-4 989h231l289 -741l289 741h229l-477 -1167q-49 -120 -132 -170.5t-206 -52.5q-70 0 -121 14l31 192q37 -16 82 -16q55 0 88.5 19t54.5 67l49 113zM180 1245q0 51 35.5 86t85.5 35q51 0 86 -35t35 -86q0 -50 -35 -84.5t-86 -34.5q-50 0 -85.5 35t-35.5 84zM610 1245
q0 51 34.5 86t84.5 35q51 0 86 -35t35 -86q0 -50 -35 -84.5t-86 -34.5q-49 0 -84 35t-35 84z" />
    <glyph glyph-name="OE" unicode="&#x152;" horiz-adv-x="2238" 
d="M86 682q0 203 85 363.5t239 250.5t350 90q133 0 254 -56t192 -161v197h936v-211h-696v-352h682v-211h-682v-381h696v-211h-936v199q-71 -107 -192.5 -165.5t-253.5 -58.5q-196 0 -350 91t-239 252t-85 364zM332 682q0 -215 125.5 -354.5t335.5 -139.5q140 0 249 72
t164 207v434q-55 133 -163.5 203t-249.5 70q-210 0 -335.5 -138t-125.5 -354z" />
    <glyph glyph-name="oe" unicode="&#x153;" horiz-adv-x="1935" 
d="M80 496q0 143 60.5 260t177.5 187.5t270 70.5q252 0 395 -246q24 43 55 81.5t78.5 78t114 63t143.5 23.5q220 0 354 -150.5t134 -386.5v-53h-764q13 -116 97 -194t218 -78q74 0 152 29.5t129 80.5l98 -141q-73 -70 -177.5 -108t-223.5 -38q-268 0 -408 246
q-145 -246 -395 -246q-115 0 -211.5 41.5t-161 113t-100 166t-35.5 200.5zM303 496q0 -143 78 -237.5t207 -94.5t206.5 94.5t77.5 237.5q0 141 -77.5 234t-206.5 93t-207 -93t-78 -234zM1096 578h557q-2 46 -18.5 90.5t-48.5 83t-87 62.5t-125 24q-66 0 -119 -23
t-85.5 -61.5t-51 -83t-22.5 -92.5z" />
    <glyph glyph-name="Ydieresis" unicode="&#x178;" horiz-adv-x="1304" 
d="M4 1366h275l374 -584l375 584h275l-529 -799v-567h-239v567zM324 1597q0 51 35 86t85 35q51 0 86 -35t35 -86q0 -50 -35 -84t-86 -34q-50 0 -85 34.5t-35 83.5zM754 1597q0 51 34 86t84 35q51 0 86 -35t35 -86q0 -50 -35 -84t-86 -34q-50 0 -84 34.5t-34 83.5z" />
    <glyph glyph-name="circumflex" unicode="&#x2c6;" horiz-adv-x="583" 
d="M0 1139l190 295h197l197 -295h-135l-160 198l-152 -198h-137z" />
    <glyph glyph-name="tilde" unicode="&#x2dc;" horiz-adv-x="657" 
d="M0 1147q0 128 55 201t156 73q40 0 71.5 -16.5t52 -39.5t38 -46.5t38.5 -40t44 -16.5q38 0 62 37t24 110h116q0 -128 -55 -201t-156 -73q-39 0 -70.5 16.5t-52 39.5t-38 46.5t-38.5 40t-44 16.5q-37 0 -60.5 -37t-23.5 -110h-119z" />
    <glyph glyph-name="uni2000" unicode="&#x2000;" horiz-adv-x="919" 
 />
    <glyph glyph-name="uni2001" unicode="&#x2001;" horiz-adv-x="1839" 
 />
    <glyph glyph-name="uni2002" unicode="&#x2002;" horiz-adv-x="919" 
 />
    <glyph glyph-name="uni2003" unicode="&#x2003;" horiz-adv-x="1839" 
 />
    <glyph glyph-name="uni2004" unicode="&#x2004;" horiz-adv-x="613" 
 />
    <glyph glyph-name="uni2005" unicode="&#x2005;" horiz-adv-x="459" 
 />
    <glyph glyph-name="uni2006" unicode="&#x2006;" horiz-adv-x="306" 
 />
    <glyph glyph-name="uni2007" unicode="&#x2007;" horiz-adv-x="306" 
 />
    <glyph glyph-name="uni2008" unicode="&#x2008;" horiz-adv-x="229" 
 />
    <glyph glyph-name="uni2009" unicode="&#x2009;" horiz-adv-x="367" 
 />
    <glyph glyph-name="uni200A" unicode="&#x200a;" horiz-adv-x="102" 
 />
    <glyph glyph-name="uni2010" unicode="&#x2010;" horiz-adv-x="614" 
d="M61 403v185h492v-185h-492z" />
    <glyph glyph-name="uni2011" unicode="&#x2011;" horiz-adv-x="614" 
d="M61 403v185h492v-185h-492z" />
    <glyph glyph-name="figuredash" unicode="&#x2012;" horiz-adv-x="614" 
d="M61 403v185h492v-185h-492z" />
    <glyph glyph-name="endash" unicode="&#x2013;" horiz-adv-x="1214" 
d="M61 403v185h1092v-185h-1092z" />
    <glyph glyph-name="emdash" unicode="&#x2014;" horiz-adv-x="1705" 
d="M61 403v185h1584v-185h-1584z" />
    <glyph glyph-name="quoteleft" unicode="&#x2018;" horiz-adv-x="501" 
d="M88 1038q0 103 52 196t139 155l98 -80q-51 -30 -95 -86t-53 -107q12 6 35 6q52 0 86.5 -36.5t34.5 -92.5q0 -59 -40.5 -100t-98.5 -41q-66 0 -112 50t-46 136z" />
    <glyph glyph-name="quoteright" unicode="&#x2019;" horiz-adv-x="501" 
d="M109 1247q0 57 40.5 98t98.5 41q66 0 112 -50t46 -136q0 -103 -52 -194.5t-139 -153.5l-98 78q51 30 94.5 85.5t52.5 106.5q-8 -4 -35 -4q-51 0 -85.5 36.5t-34.5 92.5z" />
    <glyph glyph-name="quotesinglbase" unicode="&#x201a;" horiz-adv-x="501" 
d="M109 125q0 57 40.5 98t98.5 41q66 0 112 -50t46 -136q0 -103 -52 -195.5t-139 -154.5l-98 79q51 30 94.5 86t52.5 107q-12 -6 -35 -6q-51 0 -85.5 37t-34.5 94z" />
    <glyph glyph-name="quotedblleft" unicode="&#x201c;" horiz-adv-x="880" 
d="M94 1038q0 103 53 196t140 155l96 -80q-50 -30 -93.5 -85.5t-53.5 -107.5q18 6 34 6q53 0 88 -36t35 -93q0 -58 -41 -99.5t-98 -41.5q-66 0 -113 50t-47 136zM473 1038q0 103 53 196t140 155l96 -80q-51 -30 -94.5 -86t-53.5 -107q18 6 35 6q53 0 88 -36t35 -93
q0 -58 -41 -99.5t-98 -41.5q-66 0 -113 50t-47 136z" />
    <glyph glyph-name="quotedblright" unicode="&#x201d;" horiz-adv-x="880" 
d="M109 1247q0 57 40.5 98t98.5 41q66 0 112 -50t46 -136q0 -103 -52 -194.5t-139 -153.5l-98 78q51 30 94.5 85.5t52.5 106.5q-8 -4 -35 -4q-51 0 -85.5 36.5t-34.5 92.5zM487 1247q0 57 41 98t99 41q66 0 111.5 -50t45.5 -136q0 -103 -51.5 -194.5t-138.5 -153.5l-98 78
q51 30 94.5 85.5t52.5 106.5q-8 -4 -35 -4q-52 0 -86.5 36.5t-34.5 92.5z" />
    <glyph glyph-name="quotedblbase" unicode="&#x201e;" horiz-adv-x="880" 
d="M109 125q0 57 40.5 98t98.5 41q66 0 112 -50t46 -136q0 -103 -52 -195.5t-139 -154.5l-98 79q51 30 94.5 86t52.5 107q-12 -6 -35 -6q-51 0 -85.5 37t-34.5 94zM487 125q0 57 41 98t99 41q66 0 111.5 -50t45.5 -136q0 -103 -51.5 -196t-138.5 -154l-98 79q51 30 94.5 86
t52.5 107q-12 -6 -35 -6q-51 0 -86 37t-35 94z" />
    <glyph glyph-name="bullet" unicode="&#x2022;" horiz-adv-x="733" 
d="M135 496q0 97 68.5 165t165.5 68t165 -68t68 -165q0 -96 -68 -164t-165 -68t-165.5 68.5t-68.5 163.5z" />
    <glyph glyph-name="ellipsis" unicode="&#x2026;" horiz-adv-x="1505" 
d="M109 123q0 57 42.5 99t100.5 42t99.5 -42t41.5 -99q0 -59 -41.5 -101t-99.5 -42t-100.5 42t-42.5 101zM610 123q0 57 43 99t101 42t99.5 -42t41.5 -99q0 -59 -41.5 -101t-99.5 -42q-59 0 -101.5 42.5t-42.5 100.5zM1112 123q0 57 42.5 99t100.5 42t100 -42t42 -99
q0 -59 -42 -101t-100 -42q-59 0 -101 42t-42 101z" />
    <glyph glyph-name="uni202F" unicode="&#x202f;" horiz-adv-x="367" 
 />
    <glyph glyph-name="guilsinglleft" unicode="&#x2039;" horiz-adv-x="655" 
d="M61 498l328 362h205l-328 -362l328 -369h-205z" />
    <glyph glyph-name="guilsinglright" unicode="&#x203a;" horiz-adv-x="655" 
d="M61 129l328 369l-328 362h205l328 -362l-328 -369h-205z" />
    <glyph glyph-name="uni205F" unicode="&#x205f;" horiz-adv-x="459" 
 />
    <glyph glyph-name="Euro" unicode="&#x20ac;" horiz-adv-x="1439" 
d="M53 471v139h82q-2 23 -2 72q0 24 4 78h-84v139h111q66 224 252 357t434 133q192 0 328 -84.5t219 -221.5l-203 -106q-51 88 -144 143.5t-200 55.5q-146 0 -259.5 -74.5t-168.5 -202.5h549v-139h-588q-4 -54 -4 -78q0 -49 4 -72h588v-139h-551q55 -131 168.5 -207
t261.5 -76q106 0 199.5 56t144.5 143l205 -102q-197 -310 -549 -310q-249 0 -436.5 134.5t-251.5 361.5h-109z" />
    <glyph glyph-name="trademark" unicode="&#x2122;" horiz-adv-x="929" 
d="M35 1313v53h311v-53h-127v-398h-57v398h-127zM420 915v451h88l131 -328l131 328h88v-451h-57v373l-154 -373h-16l-154 373v-373h-57z" />
    <glyph glyph-name="uni25FC" unicode="&#x25fc;" horiz-adv-x="993" 
d="M0 0v993h993v-993h-993z" />
    <hkern g1="A,Agrave,Aacute,Acircumflex,Atilde,Adieresis,Aring"
	g2="J"
	k="-31" />
    <hkern g1="A,Agrave,Aacute,Acircumflex,Atilde,Adieresis,Aring"
	g2="S"
	k="20" />
    <hkern g1="A,Agrave,Aacute,Acircumflex,Atilde,Adieresis,Aring"
	g2="T"
	k="133" />
    <hkern g1="A,Agrave,Aacute,Acircumflex,Atilde,Adieresis,Aring"
	g2="U,Ugrave,Uacute,Ucircumflex,Udieresis"
	k="61" />
    <hkern g1="A,Agrave,Aacute,Acircumflex,Atilde,Adieresis,Aring"
	g2="C,G,O,Q,Ccedilla,Ograve,Oacute,Ocircumflex,Otilde,Odieresis,Oslash,OE"
	k="72" />
    <hkern g1="A,Agrave,Aacute,Acircumflex,Atilde,Adieresis,Aring"
	g2="V"
	k="102" />
    <hkern g1="A,Agrave,Aacute,Acircumflex,Atilde,Adieresis,Aring"
	g2="W"
	k="92" />
    <hkern g1="A,Agrave,Aacute,Acircumflex,Atilde,Adieresis,Aring"
	g2="Y,Yacute,Ydieresis"
	k="133" />
    <hkern g1="A,Agrave,Aacute,Acircumflex,Atilde,Adieresis,Aring"
	g2="question"
	k="154" />
    <hkern g1="A,Agrave,Aacute,Acircumflex,Atilde,Adieresis,Aring"
	g2="asterisk"
	k="195" />
    <hkern g1="A,Agrave,Aacute,Acircumflex,Atilde,Adieresis,Aring"
	g2="quotedbl,quotesingle,registered,quoteleft,quoteright,quotedblleft,quotedblright,trademark"
	k="195" />
    <hkern g1="A,Agrave,Aacute,Acircumflex,Atilde,Adieresis,Aring"
	g2="f,uniFB01,uniFB02,uniFB03,uniFB04"
	k="31" />
    <hkern g1="A,Agrave,Aacute,Acircumflex,Atilde,Adieresis,Aring"
	g2="t"
	k="37" />
    <hkern g1="A,Agrave,Aacute,Acircumflex,Atilde,Adieresis,Aring"
	g2="u"
	k="27" />
    <hkern g1="A,Agrave,Aacute,Acircumflex,Atilde,Adieresis,Aring"
	g2="v"
	k="41" />
    <hkern g1="A,Agrave,Aacute,Acircumflex,Atilde,Adieresis,Aring"
	g2="w"
	k="31" />
    <hkern g1="A,Agrave,Aacute,Acircumflex,Atilde,Adieresis,Aring"
	g2="y,yacute,ydieresis"
	k="41" />
    <hkern g1="B"
	g2="T"
	k="31" />
    <hkern g1="B"
	g2="V"
	k="31" />
    <hkern g1="B"
	g2="W"
	k="20" />
    <hkern g1="B"
	g2="Y,Yacute,Ydieresis"
	k="61" />
    <hkern g1="B"
	g2="quotedbl,quotesingle,registered,quoteleft,quoteright,quotedblleft,quotedblright,trademark"
	k="20" />
    <hkern g1="C,Ccedilla"
	g2="V"
	k="6" />
    <hkern g1="C,Ccedilla"
	g2="W"
	k="10" />
    <hkern g1="C,Ccedilla"
	g2="Y,Yacute,Ydieresis"
	k="41" />
    <hkern g1="C,Ccedilla"
	g2="question"
	k="10" />
    <hkern g1="C,Ccedilla"
	g2="A,Agrave,Aacute,Acircumflex,Atilde,Adieresis,Aring,AE"
	k="10" />
    <hkern g1="D,O,Q,Eth,Ograve,Oacute,Ocircumflex,Otilde,Odieresis,Oslash,Thorn"
	g2="J"
	k="41" />
    <hkern g1="D,O,Q,Eth,Ograve,Oacute,Ocircumflex,Otilde,Odieresis,Oslash,Thorn"
	g2="T"
	k="51" />
    <hkern g1="D,O,Q,Eth,Ograve,Oacute,Ocircumflex,Otilde,Odieresis,Oslash,Thorn"
	g2="V"
	k="41" />
    <hkern g1="D,O,Q,Eth,Ograve,Oacute,Ocircumflex,Otilde,Odieresis,Oslash,Thorn"
	g2="W"
	k="41" />
    <hkern g1="D,O,Q,Eth,Ograve,Oacute,Ocircumflex,Otilde,Odieresis,Oslash,Thorn"
	g2="Y,Yacute,Ydieresis"
	k="82" />
    <hkern g1="D,O,Q,Eth,Ograve,Oacute,Ocircumflex,Otilde,Odieresis,Oslash,Thorn"
	g2="question"
	k="41" />
    <hkern g1="D,O,Q,Eth,Ograve,Oacute,Ocircumflex,Otilde,Odieresis,Oslash,Thorn"
	g2="quotedbl,quotesingle,registered,quoteleft,quoteright,quotedblleft,quotedblright,trademark"
	k="20" />
    <hkern g1="D,O,Q,Eth,Ograve,Oacute,Ocircumflex,Otilde,Odieresis,Oslash,Thorn"
	g2="A,Agrave,Aacute,Acircumflex,Atilde,Adieresis,Aring,AE"
	k="72" />
    <hkern g1="D,O,Q,Eth,Ograve,Oacute,Ocircumflex,Otilde,Odieresis,Oslash,Thorn"
	g2="X"
	k="61" />
    <hkern g1="D,O,Q,Eth,Ograve,Oacute,Ocircumflex,Otilde,Odieresis,Oslash,Thorn"
	g2="Z"
	k="31" />
    <hkern g1="D,O,Q,Eth,Ograve,Oacute,Ocircumflex,Otilde,Odieresis,Oslash,Thorn"
	g2="comma,period,quotesinglbase,quotedblbase,ellipsis"
	k="51" />
    <hkern g1="F"
	g2="A,Agrave,Aacute,Acircumflex,Atilde,Adieresis,Aring,AE"
	k="82" />
    <hkern g1="F"
	g2="J"
	k="133" />
    <hkern g1="F"
	g2="ampersand"
	k="20" />
    <hkern g1="F"
	g2="comma,period,quotesinglbase,quotedblbase,ellipsis"
	k="102" />
    <hkern g1="G"
	g2="T"
	k="10" />
    <hkern g1="G"
	g2="A,Agrave,Aacute,Acircumflex,Atilde,Adieresis,Aring,AE"
	k="10" />
    <hkern g1="G"
	g2="X"
	k="10" />
    <hkern g1="G"
	g2="V"
	k="20" />
    <hkern g1="G"
	g2="W"
	k="10" />
    <hkern g1="G"
	g2="Y,Yacute,Ydieresis"
	k="31" />
    <hkern g1="G"
	g2="question"
	k="20" />
    <hkern g1="K"
	g2="Y,Yacute,Ydieresis"
	k="31" />
    <hkern g1="K"
	g2="C,G,O,Q,Ccedilla,Ograve,Oacute,Ocircumflex,Otilde,Odieresis,Oslash,OE"
	k="102" />
    <hkern g1="K"
	g2="a,ae"
	k="31" />
    <hkern g1="K"
	g2="c,d,e,g,o,q,ccedilla,eth,oslash,oe"
	k="61" />
    <hkern g1="K"
	g2="f,uniFB01,uniFB02,uniFB03,uniFB04"
	k="61" />
    <hkern g1="K"
	g2="t"
	k="92" />
    <hkern g1="K"
	g2="u"
	k="41" />
    <hkern g1="K"
	g2="v"
	k="123" />
    <hkern g1="K"
	g2="w"
	k="82" />
    <hkern g1="K"
	g2="x"
	k="61" />
    <hkern g1="K"
	g2="y,yacute,ydieresis"
	k="123" />
    <hkern g1="K"
	g2="hyphen,periodcentered,endash,emdash"
	k="102" />
    <hkern g1="L"
	g2="T"
	k="205" />
    <hkern g1="L"
	g2="ampersand"
	k="10" />
    <hkern g1="L"
	g2="V"
	k="184" />
    <hkern g1="L"
	g2="W"
	k="143" />
    <hkern g1="L"
	g2="Y,Yacute,Ydieresis"
	k="256" />
    <hkern g1="L"
	g2="question"
	k="225" />
    <hkern g1="L"
	g2="quotedbl,quotesingle,registered,quoteleft,quoteright,quotedblleft,quotedblright,trademark"
	k="266" />
    <hkern g1="L"
	g2="C,G,O,Q,Ccedilla,Ograve,Oacute,Ocircumflex,Otilde,Odieresis,Oslash,OE"
	k="61" />
    <hkern g1="L"
	g2="a,ae"
	k="20" />
    <hkern g1="L"
	g2="c,d,e,g,o,q,ccedilla,eth,oslash,oe"
	k="31" />
    <hkern g1="L"
	g2="t"
	k="72" />
    <hkern g1="L"
	g2="u"
	k="20" />
    <hkern g1="L"
	g2="v"
	k="113" />
    <hkern g1="L"
	g2="w"
	k="72" />
    <hkern g1="L"
	g2="y,yacute,ydieresis"
	k="113" />
    <hkern g1="L"
	g2="U,Ugrave,Uacute,Ucircumflex,Udieresis"
	k="51" />
    <hkern g1="L"
	g2="asterisk"
	k="348" />
    <hkern g1="P"
	g2="Y,Yacute,Ydieresis"
	k="10" />
    <hkern g1="P"
	g2="A,Agrave,Aacute,Acircumflex,Atilde,Adieresis,Aring,AE"
	k="154" />
    <hkern g1="P"
	g2="J"
	k="236" />
    <hkern g1="P"
	g2="X"
	k="31" />
    <hkern g1="P"
	g2="ampersand"
	k="61" />
    <hkern g1="P"
	g2="comma,period,quotesinglbase,quotedblbase,ellipsis"
	k="184" />
    <hkern g1="P"
	g2="a,ae"
	k="41" />
    <hkern g1="P"
	g2="c,d,e,g,o,q,ccedilla,eth,oslash,oe"
	k="31" />
    <hkern g1="P"
	g2="hyphen,periodcentered,endash,emdash"
	k="61" />
    <hkern g1="R"
	g2="T"
	k="20" />
    <hkern g1="R"
	g2="V"
	k="20" />
    <hkern g1="R"
	g2="Y,Yacute,Ydieresis"
	k="35" />
    <hkern g1="R"
	g2="quotedbl,quotesingle,registered,quoteleft,quoteright,quotedblleft,quotedblright,trademark"
	k="10" />
    <hkern g1="R"
	g2="ampersand"
	k="10" />
    <hkern g1="R"
	g2="a,ae"
	k="41" />
    <hkern g1="R"
	g2="c,d,e,g,o,q,ccedilla,eth,oslash,oe"
	k="61" />
    <hkern g1="R"
	g2="s"
	k="20" />
    <hkern g1="S"
	g2="T"
	k="20" />
    <hkern g1="S"
	g2="Y,Yacute,Ydieresis"
	k="20" />
    <hkern g1="S"
	g2="A,Agrave,Aacute,Acircumflex,Atilde,Adieresis,Aring,AE"
	k="20" />
    <hkern g1="S"
	g2="t"
	k="31" />
    <hkern g1="S"
	g2="v"
	k="20" />
    <hkern g1="S"
	g2="w"
	k="10" />
    <hkern g1="S"
	g2="x"
	k="31" />
    <hkern g1="S"
	g2="y,yacute,ydieresis"
	k="20" />
    <hkern g1="T"
	g2="C,G,O,Q,Ccedilla,Ograve,Oacute,Ocircumflex,Otilde,Odieresis,Oslash,OE"
	k="51" />
    <hkern g1="T"
	g2="A,Agrave,Aacute,Acircumflex,Atilde,Adieresis,Aring,AE"
	k="133" />
    <hkern g1="T"
	g2="J"
	k="174" />
    <hkern g1="T"
	g2="ampersand"
	k="113" />
    <hkern g1="T"
	g2="comma,period,quotesinglbase,quotedblbase,ellipsis"
	k="195" />
    <hkern g1="T"
	g2="a,ae"
	k="174" />
    <hkern g1="T"
	g2="c,d,e,g,o,q,ccedilla,eth,oslash,oe"
	k="215" />
    <hkern g1="T"
	g2="hyphen,periodcentered,endash,emdash"
	k="123" />
    <hkern g1="T"
	g2="s"
	k="174" />
    <hkern g1="T"
	g2="v"
	k="82" />
    <hkern g1="T"
	g2="w"
	k="82" />
    <hkern g1="T"
	g2="x"
	k="102" />
    <hkern g1="T"
	g2="y,yacute,ydieresis"
	k="82" />
    <hkern g1="T"
	g2="S"
	k="10" />
    <hkern g1="T"
	g2="colon,semicolon"
	k="102" />
    <hkern g1="T"
	g2="f,uniFB01,uniFB02,uniFB03,uniFB04"
	k="51" />
    <hkern g1="T"
	g2="m,n,p,r,z"
	k="154" />
    <hkern g1="T"
	g2="u"
	k="154" />
    <hkern g1="J,U,Ugrave,Uacute,Ucircumflex,Udieresis"
	g2="A,Agrave,Aacute,Acircumflex,Atilde,Adieresis,Aring,AE"
	k="61" />
    <hkern g1="J,U,Ugrave,Uacute,Ucircumflex,Udieresis"
	g2="J"
	k="41" />
    <hkern g1="J,U,Ugrave,Uacute,Ucircumflex,Udieresis"
	g2="comma,period,quotesinglbase,quotedblbase,ellipsis"
	k="61" />
    <hkern g1="V"
	g2="A,Agrave,Aacute,Acircumflex,Atilde,Adieresis,Aring,AE"
	k="102" />
    <hkern g1="V"
	g2="comma,period,quotesinglbase,quotedblbase,ellipsis"
	k="184" />
    <hkern g1="V"
	g2="C,G,O,Q,Ccedilla,Ograve,Oacute,Ocircumflex,Otilde,Odieresis,Oslash,OE"
	k="41" />
    <hkern g1="V"
	g2="J"
	k="195" />
    <hkern g1="V"
	g2="ampersand"
	k="72" />
    <hkern g1="V"
	g2="a,ae"
	k="133" />
    <hkern g1="V"
	g2="c,d,e,g,o,q,ccedilla,eth,oslash,oe"
	k="123" />
    <hkern g1="V"
	g2="f,uniFB01,uniFB02,uniFB03,uniFB04"
	k="51" />
    <hkern g1="V"
	g2="m,n,p,r,z"
	k="102" />
    <hkern g1="V"
	g2="s"
	k="92" />
    <hkern g1="V"
	g2="t"
	k="31" />
    <hkern g1="V"
	g2="u"
	k="102" />
    <hkern g1="V"
	g2="v"
	k="31" />
    <hkern g1="V"
	g2="w"
	k="20" />
    <hkern g1="V"
	g2="x"
	k="51" />
    <hkern g1="V"
	g2="y,yacute,ydieresis"
	k="20" />
    <hkern g1="V"
	g2="hyphen,periodcentered,endash,emdash"
	k="113" />
    <hkern g1="W"
	g2="A,Agrave,Aacute,Acircumflex,Atilde,Adieresis,Aring,AE"
	k="92" />
    <hkern g1="W"
	g2="comma,period,quotesinglbase,quotedblbase,ellipsis"
	k="133" />
    <hkern g1="W"
	g2="C,G,O,Q,Ccedilla,Ograve,Oacute,Ocircumflex,Otilde,Odieresis,Oslash,OE"
	k="41" />
    <hkern g1="W"
	g2="J"
	k="102" />
    <hkern g1="W"
	g2="ampersand"
	k="41" />
    <hkern g1="W"
	g2="a,ae"
	k="82" />
    <hkern g1="W"
	g2="c,d,e,g,o,q,ccedilla,eth,oslash,oe"
	k="82" />
    <hkern g1="W"
	g2="f,uniFB01,uniFB02,uniFB03,uniFB04"
	k="31" />
    <hkern g1="W"
	g2="m,n,p,r,z"
	k="61" />
    <hkern g1="W"
	g2="s"
	k="51" />
    <hkern g1="W"
	g2="t"
	k="31" />
    <hkern g1="W"
	g2="u"
	k="61" />
    <hkern g1="W"
	g2="v"
	k="10" />
    <hkern g1="W"
	g2="x"
	k="51" />
    <hkern g1="W"
	g2="y,yacute,ydieresis"
	k="10" />
    <hkern g1="W"
	g2="hyphen,periodcentered,endash,emdash"
	k="72" />
    <hkern g1="Y,Yacute,Ydieresis"
	g2="A,Agrave,Aacute,Acircumflex,Atilde,Adieresis,Aring,AE"
	k="133" />
    <hkern g1="Y,Yacute,Ydieresis"
	g2="comma,period,quotesinglbase,quotedblbase,ellipsis"
	k="184" />
    <hkern g1="Y,Yacute,Ydieresis"
	g2="C,G,O,Q,Ccedilla,Ograve,Oacute,Ocircumflex,Otilde,Odieresis,Oslash,OE"
	k="82" />
    <hkern g1="Y,Yacute,Ydieresis"
	g2="J"
	k="236" />
    <hkern g1="Y,Yacute,Ydieresis"
	g2="ampersand"
	k="123" />
    <hkern g1="Y,Yacute,Ydieresis"
	g2="a,ae"
	k="236" />
    <hkern g1="Y,Yacute,Ydieresis"
	g2="c,d,e,g,o,q,ccedilla,eth,oslash,oe"
	k="256" />
    <hkern g1="Y,Yacute,Ydieresis"
	g2="f,uniFB01,uniFB02,uniFB03,uniFB04"
	k="113" />
    <hkern g1="Y,Yacute,Ydieresis"
	g2="m,n,p,r,z"
	k="184" />
    <hkern g1="Y,Yacute,Ydieresis"
	g2="s"
	k="205" />
    <hkern g1="Y,Yacute,Ydieresis"
	g2="t"
	k="61" />
    <hkern g1="Y,Yacute,Ydieresis"
	g2="u"
	k="184" />
    <hkern g1="Y,Yacute,Ydieresis"
	g2="v"
	k="123" />
    <hkern g1="Y,Yacute,Ydieresis"
	g2="w"
	k="123" />
    <hkern g1="Y,Yacute,Ydieresis"
	g2="x"
	k="154" />
    <hkern g1="Y,Yacute,Ydieresis"
	g2="y,yacute,ydieresis"
	k="123" />
    <hkern g1="Y,Yacute,Ydieresis"
	g2="hyphen,periodcentered,endash,emdash"
	k="246" />
    <hkern g1="Y,Yacute,Ydieresis"
	g2="S"
	k="41" />
    <hkern g1="Y,Yacute,Ydieresis"
	g2="colon,semicolon"
	k="133" />
    <hkern g1="Z"
	g2="C,G,O,Q,Ccedilla,Ograve,Oacute,Ocircumflex,Otilde,Odieresis,Oslash,OE"
	k="31" />
    <hkern g1="a,h,m,n"
	g2="T"
	k="205" />
    <hkern g1="a,h,m,n"
	g2="question"
	k="82" />
    <hkern g1="a,h,m,n"
	g2="quotedbl,quotesingle,registered,quoteleft,quoteright,quotedblleft,quotedblright,trademark"
	k="20" />
    <hkern g1="a,h,m,n"
	g2="Y,Yacute,Ydieresis"
	k="225" />
    <hkern g1="a,h,m,n"
	g2="V"
	k="143" />
    <hkern g1="a,h,m,n"
	g2="W"
	k="92" />
    <hkern g1="ampersand"
	g2="T"
	k="143" />
    <hkern g1="ampersand"
	g2="Y,Yacute,Ydieresis"
	k="174" />
    <hkern g1="ampersand"
	g2="V"
	k="102" />
    <hkern g1="ampersand"
	g2="W"
	k="82" />
    <hkern g1="asterisk"
	g2="A,Agrave,Aacute,Acircumflex,Atilde,Adieresis,Aring,AE"
	k="195" />
    <hkern g1="asterisk"
	g2="J"
	k="246" />
    <hkern g1="b,o,p,oslash,thorn"
	g2="T"
	k="215" />
    <hkern g1="b,o,p,oslash,thorn"
	g2="question"
	k="102" />
    <hkern g1="b,o,p,oslash,thorn"
	g2="quotedbl,quotesingle,registered,quoteleft,quoteright,quotedblleft,quotedblright,trademark"
	k="20" />
    <hkern g1="b,o,p,oslash,thorn"
	g2="Y,Yacute,Ydieresis"
	k="246" />
    <hkern g1="b,o,p,oslash,thorn"
	g2="V"
	k="123" />
    <hkern g1="b,o,p,oslash,thorn"
	g2="W"
	k="82" />
    <hkern g1="b,o,p,oslash,thorn"
	g2="comma,period,quotesinglbase,quotedblbase,ellipsis"
	k="10" />
    <hkern g1="b,o,p,oslash,thorn"
	g2="x"
	k="72" />
    <hkern g1="c,cent,ccedilla"
	g2="T"
	k="154" />
    <hkern g1="c,cent,ccedilla"
	g2="question"
	k="51" />
    <hkern g1="c,cent,ccedilla"
	g2="quotedbl,quotesingle,registered,quoteleft,quoteright,quotedblleft,quotedblright,trademark"
	k="10" />
    <hkern g1="c,cent,ccedilla"
	g2="Y,Yacute,Ydieresis"
	k="133" />
    <hkern g1="c,cent,ccedilla"
	g2="V"
	k="82" />
    <hkern g1="c,cent,ccedilla"
	g2="W"
	k="51" />
    <hkern g1="colon,semicolon"
	g2="T"
	k="102" />
    <hkern g1="colon,semicolon"
	g2="Y,Yacute,Ydieresis"
	k="133" />
    <hkern g1="e,ae,oe"
	g2="T"
	k="195" />
    <hkern g1="e,ae,oe"
	g2="question"
	k="82" />
    <hkern g1="e,ae,oe"
	g2="quotedbl,quotesingle,registered,quoteleft,quoteright,quotedblleft,quotedblright,trademark"
	k="10" />
    <hkern g1="e,ae,oe"
	g2="Y,Yacute,Ydieresis"
	k="225" />
    <hkern g1="e,ae,oe"
	g2="V"
	k="113" />
    <hkern g1="e,ae,oe"
	g2="W"
	k="82" />
    <hkern g1="e,ae,oe"
	g2="comma,period,quotesinglbase,quotedblbase,ellipsis"
	k="10" />
    <hkern g1="e,ae,oe"
	g2="asterisk"
	k="31" />
    <hkern g1="eth"
	g2="comma,period,quotesinglbase,quotedblbase,ellipsis"
	k="10" />
    <hkern g1="f"
	g2="T"
	k="-82" />
    <hkern g1="f"
	g2="question"
	k="-113" />
    <hkern g1="f"
	g2="quotedbl,quotesingle,registered,quoteleft,quoteright,quotedblleft,quotedblright,trademark"
	k="-133" />
    <hkern g1="f"
	g2="Y,Yacute,Ydieresis"
	k="-123" />
    <hkern g1="f"
	g2="V"
	k="-133" />
    <hkern g1="f"
	g2="W"
	k="-133" />
    <hkern g1="f"
	g2="comma,period,quotesinglbase,quotedblbase,ellipsis"
	k="92" />
    <hkern g1="f"
	g2="X"
	k="-82" />
    <hkern g1="f"
	g2="Z"
	k="-82" />
    <hkern g1="f"
	g2="asterisk"
	k="-133" />
    <hkern g1="f"
	g2="ampersand"
	k="10" />
    <hkern g1="f"
	g2="parenright,bracketright,braceright"
	k="-143" />
    <hkern g1="f"
	g2="exclam,B,D,E,F,H,I,K,L,M,N,P,R,Egrave,Eacute,Ecircumflex,Edieresis,Igrave,Iacute,Icircumflex,Idieresis,Eth,Ntilde"
	k="-82" />
    <hkern g1="f"
	g2="S"
	k="-51" />
    <hkern g1="f"
	g2="U,Ugrave,Uacute,Ucircumflex,Udieresis"
	k="-82" />
    <hkern g1="g,q"
	g2="T"
	k="154" />
    <hkern g1="g,q"
	g2="question"
	k="51" />
    <hkern g1="g,q"
	g2="Y,Yacute,Ydieresis"
	k="184" />
    <hkern g1="g,q"
	g2="V"
	k="102" />
    <hkern g1="g,q"
	g2="W"
	k="61" />
    <hkern g1="g,q"
	g2="j"
	k="-102" />
    <hkern g1="hyphen,periodcentered,endash,emdash"
	g2="Y,Yacute,Ydieresis"
	k="236" />
    <hkern g1="hyphen,periodcentered,endash,emdash"
	g2="V"
	k="113" />
    <hkern g1="hyphen,periodcentered,endash,emdash"
	g2="W"
	k="72" />
    <hkern g1="hyphen,periodcentered,endash,emdash"
	g2="X"
	k="92" />
    <hkern g1="k"
	g2="T"
	k="113" />
    <hkern g1="k"
	g2="Y,Yacute,Ydieresis"
	k="143" />
    <hkern g1="k"
	g2="V"
	k="51" />
    <hkern g1="k"
	g2="W"
	k="51" />
    <hkern g1="k"
	g2="c,d,e,g,o,q,ccedilla,eth,oslash,oe"
	k="10" />
    <hkern g1="k"
	g2="bullet"
	k="51" />
    <hkern g1="k"
	g2="hyphen,periodcentered,endash,emdash"
	k="51" />
    <hkern g1="comma,period,quotesinglbase,quotedblbase,ellipsis"
	g2="T"
	k="195" />
    <hkern g1="comma,period,quotesinglbase,quotedblbase,ellipsis"
	g2="U,Ugrave,Uacute,Ucircumflex,Udieresis"
	k="61" />
    <hkern g1="comma,period,quotesinglbase,quotedblbase,ellipsis"
	g2="V"
	k="174" />
    <hkern g1="comma,period,quotesinglbase,quotedblbase,ellipsis"
	g2="W"
	k="133" />
    <hkern g1="comma,period,quotesinglbase,quotedblbase,ellipsis"
	g2="c,d,e,g,o,q,ccedilla,eth,oslash,oe"
	k="10" />
    <hkern g1="comma,period,quotesinglbase,quotedblbase,ellipsis"
	g2="f,uniFB01,uniFB02,uniFB03,uniFB04"
	k="51" />
    <hkern g1="comma,period,quotesinglbase,quotedblbase,ellipsis"
	g2="t"
	k="51" />
    <hkern g1="comma,period,quotesinglbase,quotedblbase,ellipsis"
	g2="v"
	k="133" />
    <hkern g1="comma,period,quotesinglbase,quotedblbase,ellipsis"
	g2="w"
	k="82" />
    <hkern g1="comma,period,quotesinglbase,quotedblbase,ellipsis"
	g2="y,yacute,ydieresis"
	k="113" />
    <hkern g1="comma,period,quotesinglbase,quotedblbase,ellipsis"
	g2="one"
	k="184" />
    <hkern g1="comma,period,quotesinglbase,quotedblbase,ellipsis"
	g2="zero,six"
	k="51" />
    <hkern g1="comma,period,quotesinglbase,quotedblbase,ellipsis"
	g2="seven"
	k="143" />
    <hkern g1="comma,period,quotesinglbase,quotedblbase,ellipsis"
	g2="Y,Yacute,Ydieresis"
	k="184" />
    <hkern g1="comma,period,quotesinglbase,quotedblbase,ellipsis"
	g2="quotedbl,quotesingle,registered,quoteleft,quoteright,quotedblleft,quotedblright,trademark"
	k="164" />
    <hkern g1="comma,period,quotesinglbase,quotedblbase,ellipsis"
	g2="j"
	k="-82" />
    <hkern g1="questiondown"
	g2="j"
	k="-328" />
    <hkern g1="quotedbl,quotesingle,quoteleft,quoteright,quotedblleft,quotedblright"
	g2="A,Agrave,Aacute,Acircumflex,Atilde,Adieresis,Aring,AE"
	k="205" />
    <hkern g1="quotedbl,quotesingle,quoteleft,quoteright,quotedblleft,quotedblright"
	g2="C,G,O,Q,Ccedilla,Ograve,Oacute,Ocircumflex,Otilde,Odieresis,Oslash,OE"
	k="10" />
    <hkern g1="quotedbl,quotesingle,quoteleft,quoteright,quotedblleft,quotedblright"
	g2="s"
	k="61" />
    <hkern g1="quotedbl,quotesingle,quoteleft,quoteright,quotedblleft,quotedblright"
	g2="J"
	k="205" />
    <hkern g1="quotedbl,quotesingle,quoteleft,quoteright,quotedblleft,quotedblright"
	g2="comma,period,quotesinglbase,quotedblbase,ellipsis"
	k="164" />
    <hkern g1="r"
	g2="T"
	k="82" />
    <hkern g1="r"
	g2="V"
	k="51" />
    <hkern g1="r"
	g2="W"
	k="20" />
    <hkern g1="r"
	g2="Y,Yacute,Ydieresis"
	k="102" />
    <hkern g1="r"
	g2="comma,period,quotesinglbase,quotedblbase,ellipsis"
	k="174" />
    <hkern g1="r"
	g2="X"
	k="31" />
    <hkern g1="s"
	g2="T"
	k="164" />
    <hkern g1="s"
	g2="V"
	k="92" />
    <hkern g1="s"
	g2="W"
	k="92" />
    <hkern g1="s"
	g2="Y,Yacute,Ydieresis"
	k="195" />
    <hkern g1="s"
	g2="quotedbl,quotesingle,registered,quoteleft,quoteright,quotedblleft,quotedblright,trademark"
	k="41" />
    <hkern g1="s"
	g2="X"
	k="10" />
    <hkern g1="s"
	g2="question"
	k="92" />
    <hkern g1="t"
	g2="T"
	k="82" />
    <hkern g1="t"
	g2="V"
	k="61" />
    <hkern g1="t"
	g2="W"
	k="31" />
    <hkern g1="t"
	g2="Y,Yacute,Ydieresis"
	k="72" />
    <hkern g1="u,z"
	g2="T"
	k="154" />
    <hkern g1="u,z"
	g2="V"
	k="102" />
    <hkern g1="u,z"
	g2="W"
	k="61" />
    <hkern g1="u,z"
	g2="Y,Yacute,Ydieresis"
	k="184" />
    <hkern g1="u,z"
	g2="question"
	k="51" />
    <hkern g1="v"
	g2="T"
	k="82" />
    <hkern g1="v"
	g2="V"
	k="31" />
    <hkern g1="v"
	g2="W"
	k="10" />
    <hkern g1="v"
	g2="Y,Yacute,Ydieresis"
	k="123" />
    <hkern g1="v"
	g2="A,Agrave,Aacute,Acircumflex,Atilde,Adieresis,Aring,AE"
	k="41" />
    <hkern g1="v"
	g2="comma,period,quotesinglbase,quotedblbase,ellipsis"
	k="133" />
    <hkern g1="v"
	g2="X"
	k="72" />
    <hkern g1="w"
	g2="T"
	k="82" />
    <hkern g1="w"
	g2="V"
	k="20" />
    <hkern g1="w"
	g2="Y,Yacute,Ydieresis"
	k="123" />
    <hkern g1="w"
	g2="A,Agrave,Aacute,Acircumflex,Atilde,Adieresis,Aring,AE"
	k="31" />
    <hkern g1="w"
	g2="comma,period,quotesinglbase,quotedblbase,ellipsis"
	k="82" />
    <hkern g1="w"
	g2="X"
	k="82" />
    <hkern g1="y,yacute,ydieresis"
	g2="T"
	k="82" />
    <hkern g1="y,yacute,ydieresis"
	g2="V"
	k="20" />
    <hkern g1="y,yacute,ydieresis"
	g2="W"
	k="10" />
    <hkern g1="y,yacute,ydieresis"
	g2="Y,Yacute,Ydieresis"
	k="123" />
    <hkern g1="y,yacute,ydieresis"
	g2="A,Agrave,Aacute,Acircumflex,Atilde,Adieresis,Aring,AE"
	k="41" />
    <hkern g1="y,yacute,ydieresis"
	g2="comma,period,quotesinglbase,quotedblbase,ellipsis"
	k="113" />
    <hkern g1="y,yacute,ydieresis"
	g2="X"
	k="72" />
    <hkern g1="y,yacute,ydieresis"
	g2="question"
	k="10" />
    <hkern g1="X"
	g2="f,uniFB01,uniFB02,uniFB03,uniFB04"
	k="61" />
    <hkern g1="X"
	g2="t"
	k="61" />
    <hkern g1="X"
	g2="v"
	k="72" />
    <hkern g1="X"
	g2="w"
	k="82" />
    <hkern g1="X"
	g2="y,yacute,ydieresis"
	k="72" />
    <hkern g1="X"
	g2="C,G,O,Q,Ccedilla,Ograve,Oacute,Ocircumflex,Otilde,Odieresis,Oslash,OE"
	k="61" />
    <hkern g1="X"
	g2="hyphen,periodcentered,endash,emdash"
	k="92" />
    <hkern g1="zero,nine"
	g2="comma,period,quotesinglbase,quotedblbase,ellipsis"
	k="51" />
    <hkern g1="seven"
	g2="comma,period,quotesinglbase,quotedblbase,ellipsis"
	k="195" />
    <hkern g1="x"
	g2="T"
	k="102" />
    <hkern g1="x"
	g2="V"
	k="51" />
    <hkern g1="x"
	g2="W"
	k="51" />
    <hkern g1="x"
	g2="c,d,e,g,o,q,ccedilla,eth,oslash,oe"
	k="72" />
    <hkern g1="x"
	g2="Y,Yacute,Ydieresis"
	k="154" />
    <hkern g1="parenleft,bracketleft,braceleft"
	g2="j"
	k="-225" />
  </font>
</defs></svg>
