<?xml version="1.0" standalone="no"?>
<!DOCTYPE svg PUBLIC "-//W3C//DTD SVG 1.1//EN" "http://www.w3.org/Graphics/SVG/1.1/DTD/svg11.dtd" >
<svg xmlns="http://www.w3.org/2000/svg" xmlns:xlink="http://www.w3.org/1999/xlink" version="1.1">
<metadata>
Created by FontForge 20161013 at Thu Sep  7 17:03:57 2017
 By ,,,
Copyright (c) Mark Simonson, 2005. All rights reserved.
</metadata>
<defs>
<font id="ProximaNova-LightIt" horiz-adv-x="1169" >
  <font-face 
    font-family="Proxima Nova Lt"
    font-weight="300"
    font-style="italic"
    font-stretch="normal"
    units-per-em="2048"
    panose-1="2 0 5 6 3 0 0 2 0 4"
    ascent="1618"
    descent="-430"
    x-height="989"
    cap-height="1366"
    bbox="-371 -408 2351 1810"
    underline-thickness="40"
    underline-position="-512"
    unicode-range="U+0020-FB04"
  />
<missing-glyph horiz-adv-x="748" 
d="M68 0v1365h544v-1365h-544zM136 68h408v1229h-408v-1229z" />
    <glyph glyph-name="uniFB01" unicode="fi" horiz-adv-x="978" 
d="M90 0l199 895h-164l20 94h164l19 90q68 307 307 307q92 0 156 -43l-48 -86q-41 33 -106 33q-83 0 -130.5 -53.5t-70.5 -157.5l-20 -90h202l-22 -94h-201l-196 -895h-109zM598 0l219 989h107l-219 -989h-107zM838 1217q0 39 29.5 64.5t62.5 25.5q32 0 54 -21t22 -51
q0 -39 -30 -64.5t-65 -25.5q-31 0 -52 21.5t-21 50.5z" />
    <glyph glyph-name="uniFB02" unicode="fl" horiz-adv-x="978" 
d="M90 0l199 895h-164l20 94h164l19 90q68 307 307 307q92 0 156 -43l-48 -86q-41 33 -106 33q-83 0 -130.5 -53.5t-70.5 -157.5l-20 -90h202l-22 -94h-201l-196 -895h-109zM598 0l301 1366h107l-301 -1366h-107z" />
    <glyph glyph-name="uniFB03" unicode="ffi" horiz-adv-x="1521" 
d="M90 0l199 895h-164l20 94h164l19 90q72 307 307 307q121 0 196 -75l-65 -76q-48 55 -129 55q-83 0 -130.5 -53.5t-70.5 -157.5l-20 -90h202l-22 -94h-201l-196 -895h-109zM633 0l198 895h-163l20 94h164l18 90q68 307 308 307q91 0 155 -43l-47 -86q-41 33 -106 33
q-83 0 -130.5 -53.5t-70.5 -157.5l-21 -90h203l-22 -94h-201l-197 -895h-108zM1141 0l219 989h106l-219 -989h-106zM1380 1217q0 39 29.5 64.5t63.5 25.5q32 0 53.5 -21t21.5 -51q0 -39 -29.5 -64.5t-64.5 -25.5q-31 0 -52.5 21.5t-21.5 50.5z" />
    <glyph glyph-name="uniFB04" unicode="ffl" horiz-adv-x="1521" 
d="M90 0l199 895h-164l20 94h164l19 90q72 307 307 307q121 0 196 -75l-65 -76q-48 55 -129 55q-83 0 -130.5 -53.5t-70.5 -157.5l-20 -90h202l-22 -94h-201l-196 -895h-109zM633 0l198 895h-163l20 94h164l18 90q68 307 308 307q91 0 155 -43l-47 -86q-41 33 -106 33
q-83 0 -130.5 -53.5t-70.5 -157.5l-21 -90h203l-22 -94h-201l-197 -895h-108zM1141 0l301 1366h106l-301 -1366h-106z" />
    <glyph glyph-name=".notdef" horiz-adv-x="748" 
d="M68 0v1365h544v-1365h-544zM136 68h408v1229h-408v-1229z" />
    <glyph glyph-name="glyph1" horiz-adv-x="0" 
 />
    <glyph glyph-name="glyph2" horiz-adv-x="682" 
 />
    <glyph glyph-name="space" unicode=" " horiz-adv-x="530" 
 />
    <glyph glyph-name="exclam" unicode="!" horiz-adv-x="448" 
d="M39 63q0 40 29 68.5t69 28.5q35 0 58.5 -24t23.5 -58q0 -41 -29 -69.5t-69 -28.5q-35 0 -58.5 24t-23.5 59zM150 356l196 1010h137l-250 -1010h-83z" />
    <glyph glyph-name="quotedbl" unicode="&#x22;" horiz-adv-x="649" 
d="M242 874q47 393 51 422q3 40 26.5 65t59.5 25q27 0 46 -19t19 -48q0 -1 -10 -41l-133 -404h-59zM510 874q47 393 51 422q5 41 27.5 65.5t58.5 24.5q28 0 47 -19t19 -48q0 -5 -2 -13.5t-5 -17t-4 -10.5l-133 -404h-59z" />
    <glyph glyph-name="numbersign" unicode="#" horiz-adv-x="1185" 
d="M23 381l43 84h229l244 436h-230l41 84h236l209 381h96l-209 -381h240l208 381h99l-213 -381h227l-41 -84h-231l-244 -436h236l-43 -84h-238l-213 -381h-96l215 381h-244l-211 -381h-96l211 381h-225zM391 465h238l245 436h-239z" />
    <glyph glyph-name="dollar" unicode="$" horiz-adv-x="1196" 
d="M53 215l86 84q56 -79 140.5 -133t187.5 -74l127 567q-64 28 -103.5 47t-91 52t-80.5 65.5t-50 80.5t-21 104q0 157 134 269t327 112q23 0 47 -3l41 187h94l-45 -199q110 -22 197 -74t137 -124l-88 -82q-90 132 -269 174l-114 -514q63 -28 104.5 -48.5t92.5 -54.5t81 -68
t51 -83.5t21 -106.5q0 -62 -19.5 -122t-60 -113.5t-97 -94t-136 -64.5t-171.5 -24q-26 0 -40 2l-39 -182h-95l43 193q-132 22 -236 82.5t-155 144.5zM375 1020q0 -41 18.5 -75t56.5 -62.5t76 -48.5t97 -46l108 492q-10 2 -33 2q-134 0 -228.5 -79.5t-94.5 -182.5zM559 82h27
q87 0 156 27.5t108.5 71.5t59.5 95t20 103q0 44 -19 81t-57 67t-77 51.5t-97 46.5z" />
    <glyph glyph-name="percent" unicode="%" horiz-adv-x="1474" 
d="M152 0l1173 1366h94l-1175 -1366h-92zM184 989q0 173 106.5 285t252.5 112q125 0 210 -76t85 -196q0 -173 -107 -286t-252 -113q-125 0 -210 76.5t-85 197.5zM279 997q0 -88 57.5 -145t146.5 -57q104 0 182 90t78 219q0 88 -57.5 145.5t-146.5 57.5q-105 0 -182.5 -89.5
t-77.5 -220.5zM715 250q0 173 106.5 285t251.5 112q127 0 212 -76.5t85 -197.5q0 -173 -106.5 -285.5t-251.5 -112.5q-126 0 -211.5 77t-85.5 198zM809 258q0 -88 58.5 -145.5t146.5 -57.5q105 0 182.5 89.5t77.5 220.5q0 88 -57.5 145t-145.5 57q-105 0 -183.5 -89.5
t-78.5 -219.5z" />
    <glyph glyph-name="ampersand" unicode="&#x26;" horiz-adv-x="1308" 
d="M43 309q0 65 15 120.5t44.5 99.5t64.5 79.5t84.5 66.5t94 53.5t103.5 47.5q-52 132 -52 244q0 149 108.5 257.5t252.5 108.5q123 0 201.5 -60.5t78.5 -170.5q0 -49 -13 -92t-33 -76t-55 -64t-67 -52.5t-81 -46t-85.5 -40t-91.5 -37.5q-13 -5 -20 -8q40 -87 119 -217
q64 -109 143 -229q142 153 231 321l89 -51q-134 -215 -263 -350q50 -69 166 -213h-147q-26 31 -103 133q-191 -158 -387 -158q-173 0 -285 88.5t-112 245.5zM166 324q0 -121 82.5 -187.5t202.5 -66.5q152 0 319 143q-111 162 -156 242q-89 150 -131 239q-72 -33 -123 -64
t-98.5 -75t-71.5 -102t-24 -129zM512 1022q0 -91 45 -203q60 23 96.5 38.5t85.5 40t78 47.5t57 53.5t41 67t13 79.5q0 72 -48.5 111.5t-119.5 39.5q-43 0 -86 -18.5t-79.5 -51.5t-59.5 -86.5t-23 -117.5z" />
    <glyph glyph-name="quotesingle" unicode="'" horiz-adv-x="382" 
d="M242 874q47 393 51 422q3 40 26.5 65t59.5 25q27 0 46 -19t19 -48q0 -1 -10 -41l-133 -404h-59z" />
    <glyph glyph-name="parenleft" unicode="(" horiz-adv-x="464" 
d="M51 172q0 317 131.5 631.5t382.5 599.5l53 -53q-220 -296 -336 -597.5t-116 -629.5q0 -212 74 -490l-74 -41q-115 269 -115 580z" />
    <glyph glyph-name="parenright" unicode=")" horiz-adv-x="464" 
d="M-156 -354q221 296 337 597.5t116 628.5q0 212 -74 490l74 41q115 -269 115 -580q0 -317 -131.5 -631.5t-382.5 -599.5z" />
    <glyph glyph-name="asterisk" unicode="*" horiz-adv-x="686" 
d="M186 1024l236 84l-186 129l51 61l172 -149l41 237h78l-66 -241l229 104l23 -69l-236 -84l187 -129l-53 -62l-170 150l-41 -238h-80l67 244l-229 -107z" />
    <glyph glyph-name="plus" unicode="+" horiz-adv-x="1015" 
d="M92 647l19 86h403l94 432h92l-94 -432h404l-21 -86h-403l-99 -444h-90l99 444h-404z" />
    <glyph glyph-name="comma" unicode="," horiz-adv-x="448" 
d="M-37 -184q57 29 102 77t58 95h-14q-28 0 -49 21.5t-21 51.5q0 41 28.5 70t67.5 29q38 0 63 -26.5t25 -72.5q0 -85 -63 -170.5t-148 -128.5z" />
    <glyph glyph-name="hyphen" unicode="-" horiz-adv-x="614" 
d="M49 446l21 99h491l-20 -99h-492z" />
    <glyph glyph-name="period" unicode="." horiz-adv-x="448" 
d="M39 63q0 40 29 68.5t69 28.5q35 0 58.5 -24t23.5 -58q0 -41 -29 -69.5t-69 -28.5q-35 0 -58.5 24t-23.5 59z" />
    <glyph glyph-name="slash" unicode="/" horiz-adv-x="577" 
d="M-121 -41l805 1448h96l-807 -1448h-94z" />
    <glyph glyph-name="zero" unicode="0" horiz-adv-x="1245" 
d="M133 500q0 120 27 244.5t81.5 239t128.5 204.5t176.5 144t217.5 54q209 0 317.5 -139.5t108.5 -382.5q0 -120 -26.5 -244.5t-80.5 -240t-127 -206t-175 -144.5t-216 -54q-209 0 -320.5 141.5t-111.5 383.5zM256 492q0 -89 17.5 -162t54.5 -129.5t99.5 -87.5t145.5 -31
q110 0 206 75t158 192t97 255t35 268q0 89 -17.5 161.5t-54.5 128.5t-99 87t-146 31q-89 0 -169 -49t-138.5 -130t-102 -183.5t-65 -212.5t-21.5 -213z" />
    <glyph glyph-name="one" unicode="1" horiz-adv-x="630" 
d="M174 1049l371 317h106l-301 -1366h-117l265 1206l-269 -233z" />
    <glyph glyph-name="two" unicode="2" horiz-adv-x="1191" 
d="M4 0l29 123q137 87 225 144.5t201.5 136t184.5 136t147.5 128t119 128.5t70 122t27.5 124q0 110 -87.5 174t-228.5 64q-217 0 -354 -137l-64 82q73 73 186 117t236 44q86 0 163 -20.5t139 -61t98.5 -107t36.5 -150.5q0 -54 -16.5 -109.5t-45 -107t-74 -107t-93.5 -104.5
t-115.5 -105t-129 -103t-143.5 -103t-150 -100.5t-157 -101.5h719l-23 -106h-901z" />
    <glyph glyph-name="three" unicode="3" horiz-adv-x="1114" 
d="M2 260l94 62q45 -109 154 -174.5t242 -65.5q164 0 262 92t98 236q0 108 -89.5 174.5t-236.5 66.5q-70 0 -116 -4l26 111q18 -2 182 -2q94 0 173 30t130.5 95t51.5 155q0 104 -91.5 174t-240.5 70q-197 0 -350 -143l-58 82q76 78 187 122.5t227 44.5q197 0 321 -89.5
t124 -249.5q0 -78 -33 -144.5t-87.5 -110t-119 -69.5t-131.5 -31q106 -25 177 -101t71 -188q0 -86 -34.5 -164t-95.5 -136.5t-151 -93t-194 -34.5q-168 0 -306.5 80t-185.5 205z" />
    <glyph glyph-name="four" unicode="4" horiz-adv-x="1107" 
d="M43 373l27 112l790 881h166l-197 -887h201l-22 -106h-201l-82 -373h-117l82 373h-647zM186 479h527l170 770z" />
    <glyph glyph-name="five" unicode="5" horiz-adv-x="1191" 
d="M86 252l94 67q104 -237 385 -237q155 0 266 108t111 265q0 137 -92 213.5t-238 76.5q-158 0 -299 -102l-77 45l149 678h789l-23 -106h-672l-112 -506q51 40 128 67t164 27q109 0 199.5 -42t148.5 -131t58 -210q0 -131 -64 -242.5t-182 -179.5t-264 -68q-340 0 -469 277z
" />
    <glyph glyph-name="six" unicode="6" horiz-adv-x="1196" 
d="M125 467q0 93 16.5 193.5t49.5 204.5t87.5 197t123.5 165.5t164.5 115.5t205.5 43q138 0 239 -55.5t154 -156.5l-88 -76q-39 87 -119 134.5t-192 47.5q-85 0 -159 -35.5t-127 -92.5t-96.5 -136t-70.5 -157.5t-47 -166.5q-1 -3 -10 -39q64 73 178 132t232 59
q182 0 294.5 -95.5t112.5 -259.5q0 -135 -65.5 -253t-183.5 -189.5t-261 -71.5q-211 0 -324.5 128t-113.5 364zM238 436q0 -160 86 -257t243 -97q108 0 197 55.5t137.5 145t48.5 190.5q0 124 -87.5 196t-233.5 72q-212 0 -387 -196q-4 -36 -4 -109z" />
    <glyph glyph-name="seven" unicode="7" horiz-adv-x="1028" 
d="M137 0l848 1260h-749l22 106h895l-18 -82l-863 -1284h-135z" />
    <glyph glyph-name="eight" unicode="8" 
d="M76 317q0 156 117.5 261.5t310.5 140.5q-103 39 -176.5 114.5t-73.5 178.5q0 74 27.5 137t73 106t105.5 73t124.5 44t130.5 14q117 0 216 -38t161.5 -114t62.5 -177q0 -149 -110.5 -244t-290.5 -121q47 -20 90 -47t85.5 -67t67.5 -95t25 -118q0 -110 -64.5 -200
t-173.5 -140t-239 -50q-134 0 -239 38.5t-167.5 117t-62.5 186.5zM201 338q0 -121 99.5 -188.5t246.5 -67.5q89 0 169 33.5t133.5 101.5t53.5 156q0 53 -27.5 102t-71.5 83.5t-91.5 58.5t-94.5 36q-182 -12 -299.5 -98.5t-117.5 -216.5zM373 1006q0 -61 44.5 -116t103.5 -88
t120 -48q175 14 282 89t107 201q0 99 -93 166.5t-226 67.5q-139 0 -238.5 -73.5t-99.5 -198.5z" />
    <glyph glyph-name="nine" unicode="9" horiz-adv-x="1196" 
d="M111 190l86 76q39 -87 119.5 -134.5t193.5 -47.5q85 0 158.5 35.5t126 92.5t96.5 136t71.5 157.5t47.5 166.5q8 36 8 39q-64 -73 -178 -132t-232 -59q-183 0 -295 95t-112 259q0 135 66 253t184 190t260 72q211 0 324.5 -128t113.5 -364q0 -79 -11.5 -164.5t-37 -175.5
t-62 -173.5t-90 -158t-118 -129.5t-149 -87t-179.5 -32q-137 0 -237.5 56t-153.5 157zM324 891q0 -124 87.5 -196t233.5 -72q107 0 207 52t180 144q4 36 4 109q0 160 -85.5 257t-243.5 97q-162 0 -272.5 -117.5t-110.5 -273.5z" />
    <glyph glyph-name="colon" unicode=":" horiz-adv-x="444" 
d="M39 63q0 40 29 68.5t69 28.5q35 0 58.5 -24t23.5 -58q0 -41 -29 -69.5t-69 -28.5q-35 0 -58.5 24t-23.5 59zM225 907q0 40 29.5 68.5t69.5 28.5q35 0 58.5 -24t23.5 -58q0 -41 -29.5 -69t-69.5 -28q-35 0 -58.5 23.5t-23.5 58.5z" />
    <glyph glyph-name="semicolon" unicode=";" horiz-adv-x="448" 
d="M-37 -184q57 29 102 77t58 95h-14q-28 0 -49 21.5t-21 51.5q0 41 28.5 70t67.5 29q38 0 63 -26.5t25 -72.5q0 -85 -63 -170.5t-148 -128.5zM225 907q0 40 29.5 68.5t69.5 28.5q35 0 58.5 -24t23.5 -58q0 -41 -29.5 -69t-69.5 -28q-35 0 -58.5 23.5t-23.5 58.5z" />
    <glyph glyph-name="less" unicode="&#x3c;" horiz-adv-x="1015" 
d="M90 647l19 76l999 465l-25 -107l-876 -401l698 -399l-20 -97z" />
    <glyph glyph-name="equal" unicode="=" horiz-adv-x="1015" 
d="M45 442l21 84h897l-19 -84h-899zM135 842l19 86h897l-19 -86h-897z" />
    <glyph glyph-name="greater" unicode="&#x3e;" horiz-adv-x="1015" 
d="M-12 184l24 107l881 397l-703 404l21 96l795 -465l-17 -76z" />
    <glyph glyph-name="question" unicode="?" horiz-adv-x="950" 
d="M195 1212q174 174 407 174q180 0 292 -83t112 -216q0 -74 -30 -134.5t-78 -100.5t-106 -74t-116.5 -62.5t-106.5 -57.5t-78 -68t-30 -86q0 -53 39 -92l-92 -52q-54 69 -54 148q0 60 29 108.5t75 81.5t101.5 62.5t111.5 59.5t102 63t75 81.5t29 108.5q0 94 -75.5 150.5
t-207.5 56.5q-200 0 -344 -147zM270 63q0 40 29.5 68.5t69.5 28.5q35 0 58.5 -24t23.5 -58q0 -41 -29 -69.5t-70 -28.5q-34 0 -58 24t-24 59z" />
    <glyph glyph-name="at" unicode="@" horiz-adv-x="1603" 
d="M113 500q0 163 67.5 313t179 257.5t260.5 172t306 64.5q188 0 336.5 -88.5t228.5 -238.5t80 -333q0 -112 -28 -203.5t-74.5 -149.5t-105.5 -89t-124 -31q-80 0 -129 51.5t-51 122.5l-2 12q-58 -80 -148 -133t-188 -53q-141 0 -227 89.5t-86 238.5q0 107 42 205
t110.5 166.5t157 109.5t179.5 41q97 0 165.5 -48t100.5 -122l27 133h100l-121 -577q-4 -24 -4 -39q0 -52 30 -82.5t73 -30.5q26 0 55.5 11t62.5 40t59 71t43 112t17 157q0 168 -73 302.5t-207 212t-305 77.5q-146 0 -283.5 -62t-237.5 -163t-160.5 -236.5t-60.5 -277.5
q0 -163 76 -296t212 -209.5t304 -76.5q197 0 383 117l35 -51q-200 -129 -426 -129q-183 0 -332 85t-233 232t-84 326zM514 506q0 -108 61 -177t166 -69t191 59.5t145 145.5l66 303q-23 66 -82.5 118t-151.5 52q-106 0 -198 -62t-144.5 -161.5t-52.5 -208.5z" />
    <glyph glyph-name="A" unicode="A" horiz-adv-x="1325" 
d="M-80 0l860 1366h146l258 -1366h-129l-62 336h-723l-209 -336h-141zM332 442h647l-148 799z" />
    <glyph glyph-name="B" unicode="B" horiz-adv-x="1259" 
d="M59 0l301 1366h527q142 0 240 -85.5t98 -223.5q0 -144 -93.5 -249t-224.5 -120q84 -22 141.5 -103.5t57.5 -178.5q0 -79 -28.5 -151t-84 -129.5t-146 -91.5t-204.5 -34h-584zM199 106h450q156 0 246 91t90 215q0 103 -67 169t-183 66h-416zM344 754h447q81 0 142.5 25.5
t95.5 68.5t50.5 92.5t16.5 103.5q0 92 -68.5 154t-167.5 62h-405z" />
    <glyph glyph-name="C" unicode="C" horiz-adv-x="1374" 
d="M137 567q0 181 64.5 337.5t171 261t242.5 164t280 59.5q180 0 319.5 -76t217.5 -217l-113 -52q-68 122 -180.5 180t-251.5 58q-117 0 -228.5 -50.5t-199.5 -140.5t-141.5 -226t-53.5 -294q0 -221 134 -355t360 -134q206 0 387 156l82 -70q-99 -96 -223 -144.5t-252 -48.5
q-178 0 -317.5 73t-218.5 208.5t-79 310.5z" />
    <glyph glyph-name="D" unicode="D" horiz-adv-x="1417" 
d="M59 0l301 1366h426q113 0 215 -44t177 -120t119 -185t44 -233q0 -115 -32.5 -226.5t-102 -212.5t-167 -177.5t-238.5 -122t-307 -45.5h-435zM199 106h319h-4q158 0 292 54.5t223.5 147t139.5 214.5t50 258q0 207 -130 343.5t-325 136.5h-309z" />
    <glyph glyph-name="E" unicode="E" horiz-adv-x="1155" 
d="M59 0l301 1366h867l-23 -106h-749l-111 -506h733l-24 -107h-734l-120 -541h749l-22 -106h-867z" />
    <glyph glyph-name="F" unicode="F" horiz-adv-x="1110" 
d="M59 0l301 1366h867l-23 -106h-749l-111 -506h733l-24 -107h-734l-143 -647h-117z" />
    <glyph glyph-name="G" unicode="G" horiz-adv-x="1456" 
d="M137 567q0 175 61.5 329t165.5 261.5t244 169.5t293 62q178 0 313.5 -75t212.5 -206l-104 -53q-61 111 -177 169t-259 58q-120 0 -233 -53.5t-199.5 -145.5t-138.5 -226t-52 -286q0 -223 135 -356t359 -133q222 0 397 164l72 327h-516l22 107h635l-108 -490
q-221 -215 -508 -215q-278 0 -446.5 165.5t-168.5 426.5z" />
    <glyph glyph-name="H" unicode="H" horiz-adv-x="1439" 
d="M59 0l301 1366h117l-133 -610h864l135 610h119l-301 -1366h-119l144 649h-867l-143 -649h-117z" />
    <glyph glyph-name="I" unicode="I" horiz-adv-x="456" 
d="M59 0l301 1366h117l-301 -1366h-117z" />
    <glyph glyph-name="J" unicode="J" horiz-adv-x="962" 
d="M-39 156l80 82q39 -74 109 -115t163 -41q136 0 221 84t117 229l215 971h117l-213 -971q-46 -210 -162 -315t-289 -105q-119 0 -213.5 46.5t-144.5 134.5z" />
    <glyph glyph-name="K" unicode="K" horiz-adv-x="1200" 
d="M59 0l301 1366h117l-162 -733l813 733h158l-725 -651l479 -715h-139l-426 649l-192 -172l-107 -477h-117z" />
    <glyph glyph-name="L" unicode="L" horiz-adv-x="991" 
d="M31 0l301 1366h119l-279 -1260h659l-20 -106h-780z" />
    <glyph glyph-name="M" unicode="M" horiz-adv-x="1617" 
d="M59 0l301 1366h168l213 -1137l717 1137h180l-301 -1366h-118l268 1219l-766 -1219h-45l-230 1219l-270 -1219h-117z" />
    <glyph glyph-name="N" unicode="N" horiz-adv-x="1431" 
d="M59 0l301 1366h119l596 -1167l260 1167h117l-301 -1366h-115l-598 1184l-262 -1184h-117z" />
    <glyph glyph-name="O" unicode="O" horiz-adv-x="1564" 
d="M137 567q0 170 60.5 323t162.5 262t241.5 173t293.5 64q127 0 238 -39.5t194.5 -113t131.5 -187t48 -252.5q0 -226 -101.5 -415.5t-275 -298t-378.5 -108.5q-128 0 -239.5 39.5t-195.5 113t-132 187t-48 252.5zM264 571q0 -116 39 -210t107 -154.5t157 -92.5t191 -32
q123 0 236.5 53.5t198.5 146t136 226.5t51 285q0 116 -39 210t-107 154.5t-157.5 92.5t-191.5 32q-123 0 -236.5 -53.5t-198.5 -146t-135.5 -226t-50.5 -285.5z" />
    <glyph glyph-name="P" unicode="P" 
d="M59 0l301 1366h490q148 0 248 -101.5t100 -240.5q0 -65 -17.5 -128.5t-57 -123.5t-96.5 -105t-143.5 -72.5t-191.5 -27.5h-389l-127 -567h-117zM326 674h381h-2q89 0 160.5 28t116 76t68 108.5t23.5 129.5q0 99 -72.5 171.5t-179.5 72.5h-366z" />
    <glyph glyph-name="Q" unicode="Q" horiz-adv-x="1564" 
d="M137 567q0 170 60.5 323t162.5 262t241.5 173t293.5 64q127 0 238 -39.5t194.5 -113t131.5 -187t48 -252.5q0 -205 -84.5 -381t-230.5 -289l92 -123l-94 -59l-90 121q-166 -91 -348 -91q-128 0 -239.5 39.5t-195.5 113t-132 187t-48 252.5zM264 571q0 -116 39 -210
t107 -154.5t157 -92.5t191 -32q142 0 274 74l-176 239l94 60l174 -238q119 98 187.5 247t68.5 329q0 116 -39 210t-107 154.5t-157.5 92.5t-191.5 32q-123 0 -236.5 -53.5t-198.5 -146t-135.5 -226t-50.5 -285.5z" />
    <glyph glyph-name="R" unicode="R" horiz-adv-x="1216" 
d="M59 0l301 1366h469q70 0 136 -23.5t118.5 -66t84.5 -109t32 -145.5q0 -193 -128.5 -319t-338.5 -132l268 -571h-133l-258 565h-309l-125 -565h-117zM326 672h376h5q172 0 269 99t97 245q0 104 -78 174t-178 70h-362z" />
    <glyph glyph-name="S" unicode="S" horiz-adv-x="1189" 
d="M49 215l86 84q72 -102 187.5 -159.5t259.5 -57.5q87 0 156 27.5t108.5 71.5t59.5 95t20 103q0 48 -23.5 88t-63 69t-90.5 55t-107.5 49t-113 47.5t-107.5 55t-90.5 66.5t-63 87t-23.5 112q0 157 134 269t327 112q155 0 281 -58t190 -155l-89 -82q-62 93 -167 140.5
t-226 47.5q-134 0 -228.5 -79.5t-94.5 -182.5q0 -49 29.5 -90t77.5 -69t109.5 -57.5t125.5 -54t125.5 -59.5t109.5 -73.5t77.5 -96t29.5 -127.5q0 -62 -19.5 -122t-60 -113.5t-97 -94t-136 -64.5t-171.5 -24q-171 0 -314 68t-208 172z" />
    <glyph glyph-name="T" unicode="T" horiz-adv-x="1155" 
d="M240 1260l22 106h1012l-23 -106h-446l-279 -1260h-118l278 1260h-446z" />
    <glyph glyph-name="U" unicode="U" horiz-adv-x="1404" 
d="M166 420q0 46 10 104l184 842h119l-184 -840q-12 -48 -12 -92q0 -158 103 -255t286 -97q192 0 296.5 112t153.5 332l185 840h118l-184 -842q-30 -132 -73 -228.5t-109.5 -171t-163 -112t-223.5 -37.5q-235 0 -370.5 120t-135.5 325z" />
    <glyph glyph-name="V" unicode="V" horiz-adv-x="1325" 
d="M221 1366h129l223 -1235l770 1235h142l-860 -1366h-146z" />
    <glyph glyph-name="W" unicode="W" horiz-adv-x="1775" 
d="M229 1366h129l62 -1202l602 1202h106l70 -1202l594 1202h135l-690 -1366h-131l-70 1174l-585 -1174h-132z" />
    <glyph glyph-name="X" unicode="X" horiz-adv-x="1320" 
d="M-72 0l701 709l-369 657h135l322 -580l565 580h160l-662 -672l391 -694h-133l-348 618l-604 -618h-158z" />
    <glyph glyph-name="Y" unicode="Y" horiz-adv-x="1265" 
d="M221 1366h131l314 -672l608 672h151l-714 -782l-129 -584h-119l131 584z" />
    <glyph glyph-name="Z" unicode="Z" horiz-adv-x="1189" 
d="M-8 0l22 102l1069 1158h-811l21 106h971l-21 -100l-1071 -1160h827l-22 -106h-985z" />
    <glyph glyph-name="bracketleft" unicode="[" horiz-adv-x="466" 
d="M-121 -389l393 1778h357l-21 -89h-264l-356 -1601h264l-19 -88h-354z" />
    <glyph glyph-name="backslash" unicode="\" horiz-adv-x="577" 
d="M201 1407h92l164 -1448h-92z" />
    <glyph glyph-name="bracketright" unicode="]" horiz-adv-x="466" 
d="M-162 -389l21 88h262l356 1601h-266l20 89h357l-395 -1778h-355z" />
    <glyph glyph-name="asciicircum" unicode="^" horiz-adv-x="876" 
d="M78 682l508 684h86l205 -684h-93l-168 600l-434 -600h-104z" />
    <glyph glyph-name="underscore" unicode="_" horiz-adv-x="1155" 
d="M-154 -170l21 88h1165l-20 -88h-1166z" />
    <glyph glyph-name="grave" unicode="`" horiz-adv-x="442" 
d="M207 1434h127l250 -295h-90z" />
    <glyph glyph-name="a" unicode="a" 
d="M92 381q0 125 38 240t104.5 202t165 139t212.5 52q118 0 211 -52.5t146 -140.5l35 168h108l-219 -989h-109l35 150q-64 -81 -151 -128t-189 -47q-173 0 -280 109t-107 297zM209 401q0 -151 81.5 -240t217.5 -89q100 0 191 54.5t145 135.5l104 475q-39 78 -125.5 129.5
t-201.5 51.5q-119 0 -215.5 -75.5t-146.5 -193t-50 -248.5z" />
    <glyph glyph-name="b" unicode="b" 
d="M55 0l301 1366h107l-115 -526q62 81 149.5 127.5t190.5 46.5q172 0 278.5 -109t106.5 -297q0 -167 -63.5 -310.5t-183.5 -233t-271 -89.5q-119 0 -211 52.5t-145 140.5l-37 -168h-107zM217 252q39 -78 126 -129t202 -51q91 0 169.5 44t130.5 116.5t81.5 165t29.5 190.5
q0 151 -81.5 240.5t-217.5 89.5q-99 0 -189 -54.5t-146 -136.5z" />
    <glyph glyph-name="c" unicode="c" horiz-adv-x="1011" 
d="M94 414q0 161 72 299t199 219.5t278 81.5q248 0 354 -180l-82 -62q-41 73 -112 109.5t-156 36.5q-131 0 -233.5 -73t-154.5 -187t-52 -246q0 -163 94.5 -251.5t243.5 -88.5q81 0 150 34t118 93l61 -74q-147 -150 -339 -150q-196 0 -318.5 116.5t-122.5 322.5z" />
    <glyph glyph-name="d" unicode="d" 
d="M92 381q0 125 38 240t104.5 202t165 139t212.5 52q118 0 211 -52.5t146 -140.5l118 545h109l-303 -1366h-109l35 150q-64 -81 -151 -128t-189 -47q-173 0 -280 109t-107 297zM209 401q0 -151 81.5 -240t217.5 -89q100 0 191 54.5t145 135.5l104 475q-39 78 -125.5 129.5
t-201.5 51.5q-119 0 -215.5 -75.5t-146.5 -193t-50 -248.5z" />
    <glyph glyph-name="e" unicode="e" horiz-adv-x="1161" 
d="M94 412q0 122 43 233t116 192t175 129t215 48q193 0 306.5 -121t113.5 -307q0 -58 -16 -125h-836q-4 -24 -4 -58q0 -144 94 -239.5t268 -95.5q78 0 157.5 27t141.5 79l41 -78q-70 -54 -160.5 -87.5t-183.5 -33.5q-219 0 -345 120t-126 317zM221 545h731h6q3 15 3 45
q0 149 -87 240.5t-243 91.5q-147 0 -265 -111t-145 -266z" />
    <glyph glyph-name="f" unicode="f" horiz-adv-x="542" 
d="M90 0l199 895h-164l20 94h164l19 90q29 144 105.5 225.5t201.5 81.5q121 0 196 -75l-65 -76q-48 55 -129 55q-83 0 -130.5 -53.5t-70.5 -157.5l-20 -90h202l-22 -94h-201l-196 -895h-109z" />
    <glyph glyph-name="g" unicode="g" horiz-adv-x="1167" 
d="M8 -233l76 79q100 -151 350 -151q61 0 115.5 17t102 53t82.5 98t52 145l31 150q-63 -80 -153.5 -127t-196.5 -47q-165 0 -270 105t-105 306q0 95 23 186t67.5 169t106 137t143.5 93t174 34q104 0 204 -55t155 -138l39 168h108l-219 -981q-25 -110 -70 -190.5
t-105.5 -127.5t-130.5 -69t-153 -22q-148 0 -251.5 37.5t-174.5 130.5zM207 410q0 -154 80.5 -242t218.5 -88q91 0 182.5 50.5t151.5 125.5l108 479q-44 83 -137.5 133t-200.5 50q-120 0 -214 -76.5t-141.5 -191t-47.5 -240.5z" />
    <glyph glyph-name="h" unicode="h" horiz-adv-x="1105" 
d="M55 0l301 1366h107l-115 -526q76 75 168.5 124.5t188.5 49.5q131 0 209.5 -62t78.5 -180q0 -38 -12 -84l-152 -688h-106l147 672q13 58 13 71q0 88 -60 131.5t-161 43.5q-86 0 -174.5 -50.5t-159.5 -124.5l-166 -743h-107z" />
    <glyph glyph-name="i" unicode="i" horiz-adv-x="438" 
d="M55 0l219 989h107l-219 -989h-107zM295 1217q0 39 29.5 64.5t62.5 25.5q32 0 54 -21t22 -51q0 -39 -29.5 -64.5t-64.5 -25.5q-31 0 -52.5 21.5t-21.5 50.5z" />
    <glyph glyph-name="j" unicode="j" horiz-adv-x="438" 
d="M-371 -313l64 82q25 -32 63 -53t80 -21q150 0 191 180l247 1114h107l-248 -1114q-31 -140 -99.5 -208t-185.5 -68q-149 0 -219 88zM295 1217q0 39 29.5 64.5t62.5 25.5q32 0 54 -21t22 -51q0 -39 -29.5 -64.5t-64.5 -25.5q-31 0 -52.5 21.5t-21.5 50.5z" />
    <glyph glyph-name="k" unicode="k" horiz-adv-x="1034" 
d="M55 0l301 1366h107l-207 -934l700 557h150l-561 -446l340 -543h-131l-297 477l-230 -180l-65 -297h-107z" />
    <glyph glyph-name="l" unicode="l" horiz-adv-x="438" 
d="M55 0l301 1366h107l-301 -1366h-107z" />
    <glyph glyph-name="m" unicode="m" horiz-adv-x="1615" 
d="M55 0l219 989h107l-33 -149q35 40 75 74.5t107.5 67t133.5 32.5q59 0 108.5 -19.5t79 -50t45.5 -63.5t16 -64v-4q70 86 157.5 143.5t182.5 57.5q105 0 177.5 -64t72.5 -178q0 -26 -12 -84l-152 -688h-106l151 688q9 36 9 55q0 81 -52.5 128t-128.5 47q-74 0 -154.5 -50
t-142.5 -123l-163 -745h-109l154 688q8 62 8 68q-2 72 -50 117t-134 45q-72 0 -150.5 -49.5t-142.5 -123.5l-166 -745h-107z" />
    <glyph glyph-name="n" unicode="n" horiz-adv-x="1105" 
d="M55 0l219 989h107l-33 -149q76 75 168.5 124.5t188.5 49.5q131 0 209.5 -62t78.5 -180q0 -38 -12 -84l-152 -688h-106l147 672q13 58 13 71q0 88 -60 131.5t-161 43.5q-86 0 -175 -50t-159 -123l-166 -745h-107z" />
    <glyph glyph-name="o" unicode="o" 
d="M92 410q0 156 70 294.5t196.5 224t278.5 85.5q199 0 317.5 -118.5t118.5 -315.5q0 -156 -70 -294.5t-196.5 -224.5t-278.5 -86q-199 0 -317.5 119t-118.5 316zM209 414q0 -157 85 -249.5t236 -92.5q120 0 219 72.5t153 187.5t54 243q0 157 -85 250t-236 93
q-120 0 -219 -72.5t-153 -188t-54 -243.5z" />
    <glyph glyph-name="p" unicode="p" horiz-adv-x="1161" 
d="M-29 -377l303 1366h107l-33 -149q62 81 149.5 127.5t190.5 46.5q172 0 278.5 -109t106.5 -297q0 -167 -63.5 -310.5t-183.5 -233t-271 -89.5q-119 0 -211 52.5t-145 140.5l-121 -545h-107zM217 252q39 -78 126 -129t202 -51q91 0 169.5 44t130.5 116.5t81.5 165
t29.5 190.5q0 151 -81.5 240.5t-217.5 89.5q-99 0 -189 -54.5t-146 -136.5z" />
    <glyph glyph-name="q" unicode="q" horiz-adv-x="1161" 
d="M92 381q0 125 38 240t104.5 202t165 139t212.5 52q118 0 211 -52.5t146 -140.5l35 168h108l-303 -1366h-109l119 527q-64 -81 -151 -128t-189 -47q-173 0 -280 109t-107 297zM209 401q0 -151 81.5 -240t217.5 -89q100 0 191 54.5t145 135.5l104 475q-39 78 -125.5 129.5
t-201.5 51.5q-119 0 -215.5 -75.5t-146.5 -193t-50 -248.5z" />
    <glyph glyph-name="r" unicode="r" horiz-adv-x="649" 
d="M55 0l219 989h107l-37 -160q81 95 165 138t212 43l-27 -115q-36 6 -71 6q-85 0 -167 -53t-134 -127l-160 -721h-107z" />
    <glyph glyph-name="s" unicode="s" horiz-adv-x="940" 
d="M16 150l76 73q41 -66 128.5 -111.5t195.5 -45.5q118 0 190 60.5t72 143.5q0 43 -29 77t-75.5 58.5t-103 46.5t-113 46.5t-103 53t-75.5 72t-29 97.5q0 125 97 209t263 84q122 0 219 -46.5t141 -115.5l-69 -70q-33 60 -117.5 101t-181.5 41q-110 0 -177 -51t-67 -128
q0 -41 29 -73.5t75.5 -55t103 -44t113 -46.5t103 -54.5t75.5 -75.5t29 -103q0 -131 -100 -224.5t-272 -93.5q-273 0 -398 175z" />
    <glyph glyph-name="t" unicode="t" horiz-adv-x="563" 
d="M111 139q0 30 8 54l155 702h-163l20 94h164l59 271h109l-60 -271h201l-22 -94h-201l-152 -686q-4 -24 -4 -43q0 -94 101 -94q53 0 104 37l21 -86q-66 -48 -142 -48q-95 0 -146.5 40.5t-51.5 123.5z" />
    <glyph glyph-name="u" unicode="u" horiz-adv-x="1105" 
d="M111 217q0 38 12 84l149 688h109l-150 -670q-10 -45 -10 -73q0 -88 59.5 -131t159.5 -43q88 0 177.5 50t158.5 124l166 743h107l-220 -989h-106l33 150q-179 -175 -357 -175q-131 0 -209.5 62t-78.5 180z" />
    <glyph glyph-name="v" unicode="v" horiz-adv-x="985" 
d="M123 989h115l165 -864l551 864h125l-637 -989h-120z" />
    <glyph glyph-name="w" unicode="w" horiz-adv-x="1472" 
d="M143 989h109l78 -839l465 839h90l92 -839l450 839h119l-540 -989h-103l-90 846l-465 -846h-102z" />
    <glyph glyph-name="x" unicode="x" horiz-adv-x="980" 
d="M-76 0l502 508l-260 481h121l215 -407l395 407h135l-477 -481l281 -508h-121l-232 436l-424 -436h-135z" />
    <glyph glyph-name="y" unicode="y" horiz-adv-x="985" 
d="M-94 -381l41 102q36 -18 96 -18q42 0 77.5 24.5t78.5 88.5l118 178l-194 995h115l165 -864l551 864h125l-780 -1206q-59 -94 -125.5 -139t-150.5 -45q-62 0 -117 20z" />
    <glyph glyph-name="z" unicode="z" horiz-adv-x="960" 
d="M4 0l19 88l757 807h-577l20 94h723l-18 -86l-764 -809h590l-19 -94h-731z" />
    <glyph glyph-name="braceleft" unicode="{" horiz-adv-x="509" 
d="M-31 -190q0 34 8 55l101 448q4 24 4 37q0 46 -22 77.5t-58 31.5l18 82q57 0 92 40.5t48 104.5l100 449q29 124 103.5 189t181.5 65h127l-21 -89h-127q-67 0 -112 -43t-62 -122l-104 -465q-30 -141 -131 -178q59 -32 59 -111q0 -37 -8 -70l-98 -446q-5 -30 -5 -43
q0 -54 34 -88.5t85 -34.5h115l-21 -88h-100q-82 0 -144.5 55.5t-62.5 143.5z" />
    <glyph glyph-name="bar" unicode="|" horiz-adv-x="425" 
d="M211 -41v1448h88v-1448h-88z" />
    <glyph glyph-name="braceright" unicode="}" horiz-adv-x="509" 
d="M-164 -389l21 88h125q68 0 113.5 43.5t62.5 122.5l102 465q33 141 133 180q-59 27 -59 108q0 37 8 70l98 447q4 24 4 43q0 54 -33.5 88t-84.5 34h-115l20 89h101q82 0 143.5 -55t61.5 -144q0 -34 -7 -55l-100 -449q-4 -24 -4 -37q0 -46 22 -77t58 -31l-19 -82
q-57 0 -91.5 -41t-47.5 -105l-100 -448q-29 -124 -103.5 -189t-181.5 -65h-127z" />
    <glyph glyph-name="asciitilde" unicode="~" horiz-adv-x="1021" 
d="M141 887q23 99 54 180.5t74 150t101 106.5t126 38q56 0 93.5 -22.5t55.5 -58t28.5 -78.5t17.5 -86t17.5 -78.5t34.5 -58t62 -22.5q81 0 149.5 107.5t114.5 300.5l86 -10q-23 -99 -53.5 -180.5t-73 -151t-101 -108.5t-128.5 -39q-56 0 -93 22t-54.5 57.5t-28 78
t-17.5 85.5t-17.5 78.5t-34.5 57.5t-62 22q-81 0 -151 -107.5t-114 -298.5z" />
    <glyph glyph-name="uni00A0" unicode="&#xa0;" horiz-adv-x="530" 
 />
    <glyph glyph-name="exclamdown" unicode="&#xa1;" horiz-adv-x="448" 
d="M-39 -377l250 1010h84l-197 -1010h-137zM225 911q0 41 29.5 70t69.5 29q35 0 58.5 -24.5t23.5 -59.5q0 -40 -29.5 -68.5t-69.5 -28.5q-35 0 -58.5 24t-23.5 58z" />
    <glyph glyph-name="cent" unicode="&#xa2;" horiz-adv-x="1011" 
d="M94 414q0 160 71.5 297.5t197.5 219.5t276 83l33 143h90l-35 -149q184 -26 270 -174l-82 -62q-68 118 -208 141l-187 -841h25q81 0 150 34t118 93l61 -74q-147 -150 -339 -150q-25 0 -37 2l-39 -182h-90l43 195q-146 31 -232 142t-86 282zM207 412q0 -131 60.5 -214
t164.5 -112l186 829q-124 -8 -219 -81.5t-143.5 -184t-48.5 -237.5z" />
    <glyph glyph-name="sterling" unicode="&#xa3;" horiz-adv-x="1032" 
d="M2 84q158 62 265.5 176.5t107.5 231.5q0 28 -6 55h-322l19 86h270q-11 21 -53.5 85.5t-62 115t-19.5 112.5q0 83 37.5 163.5t101 141t153.5 98t189 37.5q136 0 250.5 -65t144.5 -166l-108 -49q-20 77 -99.5 127.5t-183.5 50.5q-147 0 -252.5 -94.5t-105.5 -247.5
q0 -61 20.5 -112.5t59 -110t51.5 -86.5h301l-19 -86h-258q4 -28 4 -41q0 -102 -73 -197.5t-166 -154.5q56 16 98 16q70 0 176 -45t166 -45q109 0 197 84l33 -96q-116 -97 -234 -97q-62 0 -118.5 15t-93 33.5t-92 33.5t-116.5 15q-96 0 -237 -82z" />
    <glyph glyph-name="currency" unicode="&#xa4;" horiz-adv-x="1069" 
d="M23 283l157 129q-35 64 -49 109.5t-14 111.5q0 193 164 354l-76 100l65 54l80 -99q122 88 273 88q167 0 292 -116l160 131l51 -62l-159 -131q63 -104 63 -221q0 -187 -164 -354l78 -98l-70 -56l-75 101q-126 -91 -271 -91q-170 0 -297 121l-161 -135zM217 645
q0 -139 89 -226t229 -87q157 0 276 115.5t119 271.5q0 139 -89 226t-229 87q-157 0 -276 -115.5t-119 -271.5z" />
    <glyph glyph-name="yen" unicode="&#xa5;" horiz-adv-x="1265" 
d="M-10 258l18 84h537l55 242h-537l17 86h479l-332 696h131l314 -672l608 672h152l-637 -696h465l-19 -86h-524l-53 -242h522l-19 -84h-522l-57 -258h-119l57 258h-536z" />
    <glyph glyph-name="brokenbar" unicode="&#xa6;" horiz-adv-x="425" 
d="M211 -41v647h88v-647h-88zM211 760v647h88v-647h-88z" />
    <glyph glyph-name="section" unicode="&#xa7;" horiz-adv-x="944" 
d="M-33 -2l78 68q47 -69 138 -108.5t200 -39.5q114 0 187 62t73 153q0 45 -29 79.5t-75 58t-101.5 45t-111 45.5t-101.5 53.5t-75 76t-29 105.5q0 102 82 179.5t231 96.5q-203 73 -203 228q0 113 96 199.5t257 86.5q129 0 228 -40.5t159 -112.5l-74 -62q-49 66 -132.5 99
t-174.5 33q-107 0 -179.5 -55t-72.5 -132q0 -45 29 -80t75.5 -58t103 -43.5t113 -44t103 -53.5t75.5 -78t29 -110q0 -96 -66 -174t-196 -115q84 -44 117 -95t33 -120q0 -59 -25 -114.5t-70.5 -99.5t-116.5 -70.5t-155 -26.5q-281 0 -420 164zM229 612q0 -33 14 -59.5
t34.5 -46t61.5 -39.5t75.5 -33.5t95.5 -34.5q127 36 186.5 98t59.5 132q0 72 -55 116t-160 82q-155 -21 -233.5 -79.5t-78.5 -135.5z" />
    <glyph glyph-name="dieresis" unicode="&#xa8;" horiz-adv-x="536" 
d="M143 1223q0 34 26 59t60 25q29 0 48.5 -19.5t19.5 -48.5q0 -34 -25.5 -59t-60.5 -25q-28 0 -48 19.5t-20 48.5zM561 1223q0 34 26 59t60 25q29 0 48.5 -19.5t19.5 -48.5q0 -34 -25 -59t-59 -25q-29 0 -49.5 19.5t-20.5 48.5z" />
    <glyph glyph-name="copyright" unicode="&#xa9;" horiz-adv-x="1593" 
d="M131 684q0 192 94.5 355t257 257.5t353.5 94.5q192 0 355 -94.5t258 -257.5t95 -355q0 -143 -56 -274t-151 -226t-226 -151t-275 -56q-191 0 -353.5 95t-257 258t-94.5 354zM188 684q0 -175 87 -324.5t236.5 -237t324.5 -87.5q176 0 326 87.5t237.5 237t87.5 324.5
q0 176 -87.5 325.5t-237.5 236.5t-326 87q-131 0 -251 -51.5t-207 -138.5t-138.5 -207t-51.5 -252zM403 629q0 103 41.5 196t109 158t155 103t178.5 38q220 0 317 -163l-55 -39q-36 68 -104.5 104.5t-157.5 36.5q-101 0 -196 -55t-157.5 -156.5t-62.5 -222.5
q0 -134 91.5 -228t234.5 -94q64 0 128.5 27t108.5 69l35 -51q-129 -106 -272 -106q-181 0 -287.5 109.5t-106.5 273.5z" />
    <glyph glyph-name="ordfeminine" unicode="&#xaa;" horiz-adv-x="837" 
d="M186 928q0 104 44.5 195.5t125.5 147.5t179 56q80 0 141.5 -31t97.5 -86l23 101h88l-144 -643h-88l23 102q-96 -119 -232 -119q-108 0 -183 72t-75 205zM279 934q0 -100 52.5 -155.5t139.5 -55.5q119 0 221 117l70 311q-26 47 -85 75.5t-130 28.5q-113 0 -190.5 -95
t-77.5 -226z" />
    <glyph glyph-name="guillemotleft" unicode="&#xab;" horiz-adv-x="823" 
d="M59 498l410 362h125l-418 -373l238 -358h-109zM315 498l410 362h125l-418 -373l238 -358h-109z" />
    <glyph glyph-name="logicalnot" unicode="&#xac;" horiz-adv-x="1021" 
d="M135 842l19 86h897l-107 -486h-90l88 400h-807z" />
    <glyph glyph-name="uni00AD" unicode="&#xad;" horiz-adv-x="614" 
d="M49 446l21 99h491l-20 -99h-492z" />
    <glyph glyph-name="registered" unicode="&#xae;" horiz-adv-x="1011" 
d="M172 952q0 181 127 307.5t307 126.5q119 0 219 -57.5t157.5 -157.5t57.5 -219q0 -180 -127.5 -307t-308.5 -127q-180 0 -306 127t-126 307zM227 952q0 -156 110.5 -267.5t266.5 -111.5q157 0 269 112t112 267q0 158 -112 268.5t-269 110.5t-267 -110.5t-110 -268.5z
M387 702l109 498h186q58 0 99.5 -35t41.5 -96q0 -71 -51.5 -119.5t-112.5 -48.5l91 -199h-74l-86 197h-98l-43 -197h-62zM504 958h141q46 0 79.5 30t33.5 73q0 38 -24.5 60t-61.5 22h-127z" />
    <glyph glyph-name="macron" unicode="&#xaf;" horiz-adv-x="743" 
d="M158 1210l16 78h741l-16 -78h-741z" />
    <glyph glyph-name="degree" unicode="&#xb0;" horiz-adv-x="577" 
d="M193 1147q0 98 69.5 168.5t167.5 70.5t169 -70.5t71 -168.5t-70.5 -167t-169.5 -69q-98 0 -167.5 69t-69.5 167zM274 1147q0 -65 45 -110.5t109 -45.5q65 0 113.5 46t48.5 110q0 66 -47.5 113t-112.5 47q-64 0 -110 -47t-46 -113z" />
    <glyph glyph-name="plusminus" unicode="&#xb1;" horiz-adv-x="1015" 
d="M-51 0l18 84h897l-18 -84h-897zM94 662l21 83h401l96 435h90l-94 -435h404l-19 -83h-403l-98 -447h-93l99 447h-404z" />
    <glyph glyph-name="uni00B2" unicode="&#xb2;" horiz-adv-x="786" 
d="M186 862l19 80q70 42 111.5 67.5t101 63t94.5 62t80.5 58.5t72 58.5t55.5 55t44 57t25 55t10 56.5q0 69 -55.5 105t-131.5 36q-144 0 -231 -96l-45 61q107 113 276 113q51 0 98.5 -12t89.5 -36t67.5 -67t25.5 -100q0 -42 -16.5 -84t-41.5 -79t-70 -79t-85.5 -74.5
t-104.5 -75.5t-111.5 -72.5t-121.5 -74.5h436l-16 -78h-576z" />
    <glyph glyph-name="uni00B3" unicode="&#xb3;" horiz-adv-x="786" 
d="M213 995l66 52q77 -121 243 -121q91 0 146 52.5t55 131.5q0 60 -59.5 98.5t-153.5 38.5q-43 0 -57 -2l16 78q62 -4 121 -4q92 0 148.5 42.5t56.5 115.5q0 64 -59 101.5t-142 37.5q-120 0 -223 -90l-41 59q51 47 123 78t145 31q122 0 205.5 -53t83.5 -152
q0 -92 -64.5 -149.5t-163.5 -65.5q63 -11 110.5 -59.5t47.5 -116.5q0 -97 -81 -173.5t-212 -76.5q-107 0 -188.5 38.5t-122.5 108.5z" />
    <glyph glyph-name="acute" unicode="&#xb4;" horiz-adv-x="442" 
d="M137 1139l381 295h129l-418 -295h-92z" />
    <glyph glyph-name="mu" unicode="&#xb5;" horiz-adv-x="1105" 
d="M-29 -377l303 1366h107l-154 -696q-6 -30 -6 -68q0 -86 49.5 -121.5t143.5 -35.5q92 0 192.5 49.5t165.5 118.5l170 753h107l-220 -989h-106l31 145q-81 -73 -187 -121.5t-207 -48.5q-128 0 -192 52l-90 -404h-107z" />
    <glyph glyph-name="paragraph" unicode="&#xb6;" horiz-adv-x="919" 
d="M162 981q0 97 50.5 185t143 144t203.5 56h385l-348 -1571h-78l332 1493h-191l-331 -1493h-78l192 867q-116 0 -198 91t-82 228z" />
    <glyph glyph-name="periodcentered" unicode="&#xb7;" horiz-adv-x="448" 
d="M133 494q0 41 29 68.5t71 27.5q34 0 58 -23.5t24 -58.5q0 -40 -29 -68t-69 -28q-35 0 -59.5 24t-24.5 58z" />
    <glyph glyph-name="cedilla" unicode="&#xb8;" horiz-adv-x="405" 
d="M-182 -311l47 61q66 -69 170 -69q66 0 100.5 29.5t34.5 74.5q0 31 -22 50.5t-60 19.5q-46 0 -76 -37l-49 32l100 173h78l-84 -138q33 23 70 23q53 0 86 -31t33 -86q0 -79 -59.5 -128.5t-155.5 -49.5q-133 0 -213 76z" />
    <glyph glyph-name="uni00B9" unicode="&#xb9;" horiz-adv-x="438" 
d="M250 1479l244 202h81l-180 -819h-94l152 690l-158 -135z" />
    <glyph glyph-name="ordmasculine" unicode="&#xba;" horiz-adv-x="829" 
d="M190 940q0 158 106.5 272.5t260.5 114.5q134 0 215.5 -79.5t81.5 -209.5q0 -158 -106.5 -272.5t-260.5 -114.5q-134 0 -215.5 79.5t-81.5 209.5zM283 940q0 -95 56.5 -154t149.5 -59q121 0 198 92.5t77 218.5q0 94 -57.5 152.5t-149.5 58.5q-121 0 -197.5 -91.5
t-76.5 -217.5z" />
    <glyph glyph-name="guillemotright" unicode="&#xbb;" horiz-adv-x="823" 
d="M-23 129l418 373l-237 358h108l246 -368l-410 -363h-125zM231 129l420 373l-237 358h108l246 -368l-410 -363h-127z" />
    <glyph glyph-name="onequarter" unicode="&#xbc;" horiz-adv-x="1519" 
d="M86 0l1174 1366h94l-1176 -1366h-92zM180 1163l244 203h82l-180 -819h-95l152 690l-158 -135zM758 219l16 72l483 528h125l-116 -524h123l-15 -76h-123l-49 -219h-90l47 219h-401zM870 295h306l96 432z" />
    <glyph glyph-name="onehalf" unicode="&#xbd;" horiz-adv-x="1599" 
d="M86 0l1174 1366h94l-1176 -1366h-92zM180 1163l244 203h82l-180 -819h-95l152 690l-158 -135zM809 0l18 80q92 56 142 87t123.5 78.5t113.5 78t87.5 72t71 74t40 69.5t16.5 73q0 69 -55 105.5t-131 36.5q-144 0 -231 -97l-46 62q106 112 277 112q51 0 98.5 -12t89.5 -36
t67.5 -67t25.5 -100q0 -42 -16.5 -84t-41.5 -79t-70 -79t-85.5 -74t-105 -75.5t-111 -72.5t-121.5 -74h436l-17 -78h-575z" />
    <glyph glyph-name="threequarters" unicode="&#xbe;" horiz-adv-x="1759" 
d="M143 680l66 51q38 -59 101.5 -90t142.5 -31q91 0 145.5 53t54.5 132q0 60 -59.5 98.5t-153.5 38.5q-43 0 -57 -2l16 78q62 -4 121 -4q92 0 148.5 42t56.5 115q0 64 -59 101.5t-142 37.5q-120 0 -223 -90l-41 60q51 46 122.5 77t145.5 31q123 0 206 -52.5t83 -151.5
q0 -92 -64 -150t-163 -66q63 -11 110.5 -59.5t47.5 -116.5q0 -97 -81 -173.5t-212 -76.5q-107 0 -189 39t-123 109zM326 0l1173 1366h94l-1175 -1366h-92zM997 219l17 72l483 528h125l-117 -524h123l-14 -76h-123l-49 -219h-90l47 219h-402zM1110 295h305l96 432z" />
    <glyph glyph-name="questiondown" unicode="&#xbf;" horiz-adv-x="802" 
d="M-57 -100q0 75 30 135.5t78 101t106 74t116 62.5t106 58t78 68t30 86q0 52 -41 93l95 49q53 -64 53 -146q0 -60 -29 -108.5t-75 -81.5t-102 -63t-112 -59.5t-102 -63t-75 -82.5t-29 -109q0 -92 75.5 -148.5t208.5 -56.5q200 0 342 148l58 -80q-177 -174 -410 -174
q-180 0 -290.5 82.5t-110.5 214.5zM496 911q0 41 29 69t69 28q35 0 58.5 -23.5t23.5 -58.5q0 -40 -28.5 -68.5t-69.5 -28.5q-34 0 -58 24t-24 58z" />
    <glyph glyph-name="Agrave" unicode="&#xc0;" horiz-adv-x="1325" 
d="M-80 0l860 1366h146l258 -1366h-129l-62 336h-723l-209 -336h-141zM332 442h647l-148 799zM629 1786h127l250 -295h-91z" />
    <glyph glyph-name="Aacute" unicode="&#xc1;" horiz-adv-x="1325" 
d="M-80 0l860 1366h146l258 -1366h-129l-62 336h-723l-209 -336h-141zM332 442h647l-148 799zM758 1491l381 295h129l-418 -295h-92z" />
    <glyph glyph-name="Acircumflex" unicode="&#xc2;" horiz-adv-x="1325" 
d="M-80 0l860 1366h146l258 -1366h-129l-62 336h-723l-209 -336h-141zM332 442h647l-148 799zM629 1491l264 295h111l137 -295h-78l-127 231l-221 -231h-86z" />
    <glyph glyph-name="Atilde" unicode="&#xc3;" horiz-adv-x="1325" 
d="M-80 0l860 1366h146l258 -1366h-129l-62 336h-723l-209 -336h-141zM332 442h647l-148 799zM571 1499q25 123 83.5 199t146.5 76q43 0 72 -21.5t45 -52t30 -61.5t36.5 -52.5t55.5 -21.5q94 0 144 196h73q-26 -124 -84.5 -199t-146.5 -75q-43 0 -72 21.5t-45 52t-30 61.5
t-37 52.5t-56 21.5q-94 0 -141 -197h-74z" />
    <glyph glyph-name="Adieresis" unicode="&#xc4;" horiz-adv-x="1325" 
d="M-80 0l860 1366h146l258 -1366h-129l-62 336h-723l-209 -336h-141zM332 442h647l-148 799zM616 1567q0 34 26 59t60 25q29 0 48.5 -19.5t19.5 -48.5q0 -34 -25.5 -59t-60.5 -25q-28 0 -48 19.5t-20 48.5zM1034 1567q0 34 26 59t60 25q29 0 48.5 -19.5t19.5 -48.5
q0 -34 -25 -59t-59 -25q-29 0 -49.5 19.5t-20.5 48.5z" />
    <glyph glyph-name="Aring" unicode="&#xc5;" horiz-adv-x="1325" 
d="M-80 0l860 1366h146l258 -1366h-129l-62 336h-723l-209 -336h-141zM332 442h647l-148 799zM711 1595q0 87 64 151t151 64q78 0 128 -50t50 -128q0 -87 -64 -151t-151 -64q-78 0 -128 50t-50 128zM776 1602q0 -53 31.5 -86t83.5 -33q59 0 103 42.5t44 100.5q0 53 -31.5 86
t-82.5 33q-60 0 -104 -42.5t-44 -100.5z" />
    <glyph glyph-name="AE" unicode="&#xc6;" horiz-adv-x="1923" 
d="M-82 0l1163 1366h910l-23 -106h-747l-113 -506h733l-22 -107h-736l-118 -541h747l-22 -106h-867l74 336h-555l-283 -336h-141zM426 442h496l174 789z" />
    <glyph glyph-name="Ccedilla" unicode="&#xc7;" horiz-adv-x="1374" 
d="M137 567q0 181 64.5 337.5t171 261t242.5 164t280 59.5q180 0 319.5 -76t217.5 -217l-113 -52q-68 122 -180.5 180t-251.5 58q-117 0 -228.5 -50.5t-199.5 -140.5t-141.5 -226t-53.5 -294q0 -221 134 -355t360 -134q206 0 387 156l82 -70q-99 -96 -223 -144.5t-252 -48.5
q-27 0 -39 2l-56 -92q33 23 70 23q53 0 86 -31t33 -86q0 -79 -59.5 -128.5t-155.5 -49.5q-133 0 -213 76l47 61q66 -69 170 -69q66 0 100.5 29.5t34.5 74.5q0 31 -22 50.5t-60 19.5q-46 0 -76 -37l-49 32l78 134q-227 33 -365.5 190t-138.5 393z" />
    <glyph glyph-name="Egrave" unicode="&#xc8;" horiz-adv-x="1155" 
d="M59 0l301 1366h867l-23 -106h-749l-111 -506h733l-24 -107h-734l-120 -541h749l-22 -106h-867zM567 1786h127l250 -295h-90z" />
    <glyph glyph-name="Eacute" unicode="&#xc9;" horiz-adv-x="1155" 
d="M59 0l301 1366h867l-23 -106h-749l-111 -506h733l-24 -107h-734l-120 -541h749l-22 -106h-867zM696 1491l381 295h129l-418 -295h-92z" />
    <glyph glyph-name="Ecircumflex" unicode="&#xca;" horiz-adv-x="1155" 
d="M59 0l301 1366h867l-23 -106h-749l-111 -506h733l-24 -107h-734l-120 -541h749l-22 -106h-867zM563 1491l264 295h111l137 -295h-78l-127 231l-221 -231h-86z" />
    <glyph glyph-name="Edieresis" unicode="&#xcb;" horiz-adv-x="1155" 
d="M59 0l301 1366h867l-23 -106h-749l-111 -506h733l-24 -107h-734l-120 -541h749l-22 -106h-867zM551 1567q0 34 26 59t60 25q29 0 48.5 -19.5t19.5 -48.5q0 -34 -26 -59t-61 -25q-28 0 -47.5 19.5t-19.5 48.5zM969 1567q0 34 26 59t60 25q29 0 48 -19.5t19 -48.5
q0 -34 -25 -59t-59 -25q-29 0 -49 19.5t-20 48.5z" />
    <glyph glyph-name="Igrave" unicode="&#xcc;" horiz-adv-x="456" 
d="M59 0l301 1366h117l-301 -1366h-117zM195 1786h127l249 -295h-90z" />
    <glyph glyph-name="Iacute" unicode="&#xcd;" horiz-adv-x="456" 
d="M59 0l301 1366h117l-301 -1366h-117zM324 1491l381 295h129l-418 -295h-92z" />
    <glyph glyph-name="Icircumflex" unicode="&#xce;" horiz-adv-x="456" 
d="M59 0l301 1366h117l-301 -1366h-117zM195 1491l264 295h110l138 -295h-78l-127 231l-221 -231h-86z" />
    <glyph glyph-name="Idieresis" unicode="&#xcf;" horiz-adv-x="456" 
d="M59 0l301 1366h117l-301 -1366h-117zM180 1567q0 34 26 59t60 25q29 0 48.5 -19.5t19.5 -48.5q0 -34 -25.5 -59t-60.5 -25q-28 0 -48 19.5t-20 48.5zM598 1567q0 34 26 59t60 25q29 0 48.5 -19.5t19.5 -48.5q0 -34 -25 -59t-59 -25q-29 0 -49.5 19.5t-20.5 48.5z" />
    <glyph glyph-name="Eth" unicode="&#xd0;" horiz-adv-x="1476" 
d="M51 633l23 102h207l139 631h426q113 0 215 -44t177 -120t119 -185t44 -233q0 -115 -32.5 -226.5t-102 -212.5t-167.5 -177.5t-239 -122t-307 -45.5h-434l139 633h-207zM258 106h315q158 0 292 54.5t223.5 147t139.5 214.5t50 258q0 207 -130 343.5t-325 136.5h-309
l-117 -525h367l-23 -102h-366z" />
    <glyph glyph-name="Ntilde" unicode="&#xd1;" horiz-adv-x="1431" 
d="M59 0l301 1366h119l596 -1167l260 1167h117l-301 -1366h-115l-598 1184l-262 -1184h-117zM621 1499q25 123 83 199t146 76q43 0 72 -21.5t45 -52t30.5 -61.5t37 -52.5t55.5 -21.5q93 0 143 196h74q-26 -123 -85 -198.5t-147 -75.5q-43 0 -72 21.5t-44.5 52t-29.5 61.5
t-37 52.5t-56 21.5q-95 0 -142 -197h-73z" />
    <glyph glyph-name="Ograve" unicode="&#xd2;" horiz-adv-x="1564" 
d="M137 567q0 170 60.5 323t162.5 262t241.5 173t293.5 64q127 0 238 -39.5t194.5 -113t131.5 -187t48 -252.5q0 -226 -101.5 -415.5t-275 -298t-378.5 -108.5q-128 0 -239.5 39.5t-195.5 113t-132 187t-48 252.5zM264 571q0 -116 39 -210t107 -154.5t157 -92.5t191 -32
q123 0 236.5 53.5t198.5 146t136 226.5t51 285q0 116 -39 210t-107 154.5t-157.5 92.5t-191.5 32q-123 0 -236.5 -53.5t-198.5 -146t-135.5 -226t-50.5 -285.5zM756 1786h127l250 -295h-91z" />
    <glyph glyph-name="Oacute" unicode="&#xd3;" horiz-adv-x="1564" 
d="M137 567q0 170 60.5 323t162.5 262t241.5 173t293.5 64q127 0 238 -39.5t194.5 -113t131.5 -187t48 -252.5q0 -226 -101.5 -415.5t-275 -298t-378.5 -108.5q-128 0 -239.5 39.5t-195.5 113t-132 187t-48 252.5zM264 571q0 -116 39 -210t107 -154.5t157 -92.5t191 -32
q123 0 236.5 53.5t198.5 146t136 226.5t51 285q0 116 -39 210t-107 154.5t-157.5 92.5t-191.5 32q-123 0 -236.5 -53.5t-198.5 -146t-135.5 -226t-50.5 -285.5zM879 1491l381 295h129l-418 -295h-92z" />
    <glyph glyph-name="Ocircumflex" unicode="&#xd4;" horiz-adv-x="1564" 
d="M137 567q0 170 60.5 323t162.5 262t241.5 173t293.5 64q127 0 238 -39.5t194.5 -113t131.5 -187t48 -252.5q0 -226 -101.5 -415.5t-275 -298t-378.5 -108.5q-128 0 -239.5 39.5t-195.5 113t-132 187t-48 252.5zM264 571q0 -116 39 -210t107 -154.5t157 -92.5t191 -32
q123 0 236.5 53.5t198.5 146t136 226.5t51 285q0 116 -39 210t-107 154.5t-157.5 92.5t-191.5 32q-123 0 -236.5 -53.5t-198.5 -146t-135.5 -226t-50.5 -285.5zM750 1491l264 295h110l138 -295h-78l-127 231l-221 -231h-86z" />
    <glyph glyph-name="Otilde" unicode="&#xd5;" horiz-adv-x="1564" 
d="M137 567q0 170 60.5 323t162.5 262t241.5 173t293.5 64q127 0 238 -39.5t194.5 -113t131.5 -187t48 -252.5q0 -226 -101.5 -415.5t-275 -298t-378.5 -108.5q-128 0 -239.5 39.5t-195.5 113t-132 187t-48 252.5zM264 571q0 -116 39 -210t107 -154.5t157 -92.5t191 -32
q123 0 236.5 53.5t198.5 146t136 226.5t51 285q0 116 -39 210t-107 154.5t-157.5 92.5t-191.5 32q-123 0 -236.5 -53.5t-198.5 -146t-135.5 -226t-50.5 -285.5zM690 1499q25 123 83.5 199t146.5 76q43 0 72 -21.5t45 -52t30 -61.5t36.5 -52.5t55.5 -21.5q94 0 144 196h73
q-26 -124 -84.5 -199t-146.5 -75q-43 0 -72 21.5t-45 52t-30 61.5t-37 52.5t-56 21.5q-94 0 -141 -197h-74z" />
    <glyph glyph-name="Odieresis" unicode="&#xd6;" horiz-adv-x="1564" 
d="M137 567q0 170 60.5 323t162.5 262t241.5 173t293.5 64q127 0 238 -39.5t194.5 -113t131.5 -187t48 -252.5q0 -226 -101.5 -415.5t-275 -298t-378.5 -108.5q-128 0 -239.5 39.5t-195.5 113t-132 187t-48 252.5zM264 571q0 -116 39 -210t107 -154.5t157 -92.5t191 -32
q123 0 236.5 53.5t198.5 146t136 226.5t51 285q0 116 -39 210t-107 154.5t-157.5 92.5t-191.5 32q-123 0 -236.5 -53.5t-198.5 -146t-135.5 -226t-50.5 -285.5zM731 1567q0 34 26 59t60 25q29 0 48.5 -19.5t19.5 -48.5q0 -34 -25.5 -59t-60.5 -25q-28 0 -48 19.5t-20 48.5z
M1149 1567q0 34 26 59t60 25q29 0 48.5 -19.5t19.5 -48.5q0 -34 -25 -59t-59 -25q-29 0 -49.5 19.5t-20.5 48.5z" />
    <glyph glyph-name="multiply" unicode="&#xd7;" horiz-adv-x="1015" 
d="M106 375l383 315l-239 307l67 56l238 -310l385 314l51 -64l-383 -315l238 -307l-66 -54l-239 308l-381 -314z" />
    <glyph glyph-name="Oslash" unicode="&#xd8;" horiz-adv-x="1564" 
d="M137 567q0 170 60.5 323t162.5 262t241.5 173t293.5 64q219 0 379 -111l76 88h106l-119 -139q170 -163 170 -430q0 -226 -101.5 -415.5t-275 -298t-378.5 -108.5q-230 0 -387 115l-78 -90h-105l121 141q-166 163 -166 426zM264 571q0 -208 117 -338l815 955
q-133 94 -311 94q-123 0 -236.5 -53.5t-198.5 -146t-135.5 -226t-50.5 -285.5zM440 180q128 -98 318 -98q123 0 236.5 53.5t198.5 146t136 226.5t51 285q0 207 -123 340z" />
    <glyph glyph-name="Ugrave" unicode="&#xd9;" horiz-adv-x="1404" 
d="M166 420q0 46 10 104l184 842h119l-184 -840q-12 -48 -12 -92q0 -158 103 -255t286 -97q192 0 296.5 112t153.5 332l185 840h118l-184 -842q-30 -132 -73 -228.5t-109.5 -171t-163 -112t-223.5 -37.5q-235 0 -370.5 120t-135.5 325zM672 1786h127l250 -295h-91z" />
    <glyph glyph-name="Uacute" unicode="&#xda;" horiz-adv-x="1404" 
d="M166 420q0 46 10 104l184 842h119l-184 -840q-12 -48 -12 -92q0 -158 103 -255t286 -97q192 0 296.5 112t153.5 332l185 840h118l-184 -842q-30 -132 -73 -228.5t-109.5 -171t-163 -112t-223.5 -37.5q-235 0 -370.5 120t-135.5 325zM795 1491l381 295h129l-418 -295h-92z
" />
    <glyph glyph-name="Ucircumflex" unicode="&#xdb;" horiz-adv-x="1404" 
d="M166 420q0 46 10 104l184 842h119l-184 -840q-12 -48 -12 -92q0 -158 103 -255t286 -97q192 0 296.5 112t153.5 332l185 840h118l-184 -842q-30 -132 -73 -228.5t-109.5 -171t-163 -112t-223.5 -37.5q-235 0 -370.5 120t-135.5 325zM674 1491l264 295h111l137 -295h-78
l-127 231l-221 -231h-86z" />
    <glyph glyph-name="Udieresis" unicode="&#xdc;" horiz-adv-x="1404" 
d="M166 420q0 46 10 104l184 842h119l-184 -840q-12 -48 -12 -92q0 -158 103 -255t286 -97q192 0 296.5 112t153.5 332l185 840h118l-184 -842q-30 -132 -73 -228.5t-109.5 -171t-163 -112t-223.5 -37.5q-235 0 -370.5 120t-135.5 325zM655 1567q0 34 26 59t60 25
q29 0 48.5 -19.5t19.5 -48.5q0 -34 -25.5 -59t-60.5 -25q-28 0 -48 19.5t-20 48.5zM1073 1567q0 34 26 59t60 25q29 0 48.5 -19.5t19.5 -48.5q0 -34 -25 -59t-59 -25q-29 0 -49.5 19.5t-20.5 48.5z" />
    <glyph glyph-name="Yacute" unicode="&#xdd;" horiz-adv-x="1265" 
d="M221 1366h131l314 -672l608 672h151l-714 -782l-129 -584h-119l131 584zM735 1491l381 295h129l-418 -295h-92z" />
    <glyph glyph-name="Thorn" unicode="&#xde;" 
d="M59 0l301 1366h117l-55 -254h371q146 0 248 -99.5t102 -242.5q0 -65 -18 -128.5t-58 -123.5t-97.5 -105t-144 -72.5t-190.5 -27.5h-389l-70 -313h-117zM270 420h377q91 0 163.5 28.5t116 77.5t66.5 109t23 127q0 102 -74 173t-178 71h-365z" />
    <glyph glyph-name="germandbls" unicode="&#xdf;" horiz-adv-x="1183" 
d="M55 0l230 1042q34 152 136.5 248t256.5 96q82 0 156 -27t122 -81t48 -123q0 -54 -23 -96t-60 -69t-81.5 -49.5t-89 -43t-81.5 -43t-60 -56t-23 -75.5q0 -40 28.5 -71.5t73.5 -52.5t100 -40.5t110 -42.5t100 -51.5t73.5 -73.5t28.5 -102q0 -59 -23.5 -114t-68 -100.5
t-116.5 -72.5t-161 -27q-138 0 -232.5 43.5t-174.5 141.5l75 67q123 -161 334 -161q120 0 190 63t70 145q0 43 -28.5 76t-74 55t-100.5 41.5t-110 42t-100.5 50t-74 71t-28.5 99.5t23 101t59.5 74t81 53.5t89 45t81 41.5t59.5 50t23 65q0 67 -68 109t-147 42
q-103 0 -181 -67t-104 -181l-231 -1042h-107z" />
    <glyph glyph-name="agrave" unicode="&#xe0;" 
d="M92 381q0 125 38 240t104.5 202t165 139t212.5 52q118 0 211 -52.5t146 -140.5l35 168h108l-219 -989h-109l35 150q-64 -81 -151 -128t-189 -47q-173 0 -280 109t-107 297zM209 401q0 -151 81.5 -240t217.5 -89q100 0 191 54.5t145 135.5l104 475q-39 78 -125.5 129.5
t-201.5 51.5q-119 0 -215.5 -75.5t-146.5 -193t-50 -248.5zM440 1434h127l250 -295h-90z" />
    <glyph glyph-name="aacute" unicode="&#xe1;" 
d="M92 381q0 125 38 240t104.5 202t165 139t212.5 52q118 0 211 -52.5t146 -140.5l35 168h108l-219 -989h-109l35 150q-64 -81 -151 -128t-189 -47q-173 0 -280 109t-107 297zM209 401q0 -151 81.5 -240t217.5 -89q100 0 191 54.5t145 135.5l104 475q-39 78 -125.5 129.5
t-201.5 51.5q-119 0 -215.5 -75.5t-146.5 -193t-50 -248.5zM569 1139l381 295h129l-417 -295h-93z" />
    <glyph glyph-name="acircumflex" unicode="&#xe2;" 
d="M92 381q0 125 38 240t104.5 202t165 139t212.5 52q118 0 211 -52.5t146 -140.5l35 168h108l-219 -989h-109l35 150q-64 -81 -151 -128t-189 -47q-173 0 -280 109t-107 297zM209 401q0 -151 81.5 -240t217.5 -89q100 0 191 54.5t145 135.5l104 475q-39 78 -125.5 129.5
t-201.5 51.5q-119 0 -215.5 -75.5t-146.5 -193t-50 -248.5zM442 1139l265 295h110l137 -295h-77l-127 231l-222 -231h-86z" />
    <glyph glyph-name="atilde" unicode="&#xe3;" 
d="M92 381q0 125 38 240t104.5 202t165 139t212.5 52q118 0 211 -52.5t146 -140.5l35 168h108l-219 -989h-109l35 150q-64 -81 -151 -128t-189 -47q-173 0 -280 109t-107 297zM209 401q0 -151 81.5 -240t217.5 -89q100 0 191 54.5t145 135.5l104 475q-39 78 -125.5 129.5
t-201.5 51.5q-119 0 -215.5 -75.5t-146.5 -193t-50 -248.5zM383 1147q25 123 83 198.5t146 75.5q43 0 72 -21.5t45 -52t30.5 -61.5t37 -52.5t55.5 -21.5q93 0 143 197h74q-26 -124 -84.5 -199t-146.5 -75q-43 0 -72 21.5t-45 52t-30 61t-37 52t-56 21.5q-94 0 -141 -196h-74
z" />
    <glyph glyph-name="adieresis" unicode="&#xe4;" 
d="M92 381q0 125 38 240t104.5 202t165 139t212.5 52q118 0 211 -52.5t146 -140.5l35 168h108l-219 -989h-109l35 150q-64 -81 -151 -128t-189 -47q-173 0 -280 109t-107 297zM209 401q0 -151 81.5 -240t217.5 -89q100 0 191 54.5t145 135.5l104 475q-39 78 -125.5 129.5
t-201.5 51.5q-119 0 -215.5 -75.5t-146.5 -193t-50 -248.5zM432 1223q0 34 26 59t60 25q29 0 48.5 -19.5t19.5 -48.5q0 -34 -25.5 -59t-60.5 -25q-28 0 -48 19.5t-20 48.5zM850 1223q0 34 26 59t60 25q29 0 48.5 -19.5t19.5 -48.5q0 -34 -25 -59t-59 -25q-29 0 -49.5 19.5
t-20.5 48.5z" />
    <glyph glyph-name="aring" unicode="&#xe5;" 
d="M92 381q0 125 38 240t104.5 202t165 139t212.5 52q118 0 211 -52.5t146 -140.5l35 168h108l-219 -989h-109l35 150q-64 -81 -151 -128t-189 -47q-173 0 -280 109t-107 297zM209 401q0 -151 81.5 -240t217.5 -89q100 0 191 54.5t145 135.5l104 475q-39 78 -125.5 129.5
t-201.5 51.5q-119 0 -215.5 -75.5t-146.5 -193t-50 -248.5zM545 1305q0 87 64 151t151 64q78 0 128 -50.5t50 -128.5q0 -87 -64 -151t-151 -64q-78 0 -128 50.5t-50 128.5zM610 1311q0 -53 31.5 -86t83.5 -33q59 0 103 42.5t44 100.5q0 53 -31.5 86t-82.5 33
q-60 0 -104 -42.5t-44 -100.5z" />
    <glyph glyph-name="ae" unicode="&#xe6;" horiz-adv-x="1939" 
d="M92 381q0 168 63.5 311.5t183.5 232.5t271 89q119 0 212.5 -52.5t144.5 -140.5l37 168h108l-41 -186q73 98 171.5 154.5t209.5 56.5q188 0 288.5 -117.5t100.5 -306.5q0 -71 -14 -129h-826q-4 -24 -4 -58q0 -144 94.5 -239.5t268.5 -95.5q159 0 289 106l41 -78
q-157 -121 -330 -121q-165 0 -269.5 80.5t-138.5 214.5l-59 -270h-109l33 150q-62 -81 -149.5 -128t-188.5 -47q-173 0 -280 109t-107 297zM209 401q0 -151 81.5 -240t217.5 -89q99 0 189.5 54.5t146.5 135.5l104 475q-39 78 -125.5 129.5t-201.5 51.5q-119 0 -215.5 -75.5
t-146.5 -193t-50 -248.5zM1012 545h725q4 20 4 45q0 150 -82.5 241t-237.5 91q-147 0 -264.5 -111t-144.5 -266z" />
    <glyph glyph-name="ccedilla" unicode="&#xe7;" horiz-adv-x="1011" 
d="M94 414q0 161 72 299t199 219.5t278 81.5q248 0 354 -180l-82 -62q-41 73 -112 109.5t-156 36.5q-131 0 -233.5 -73t-154.5 -187t-52 -246q0 -163 94.5 -251.5t243.5 -88.5q81 0 150 34t118 93l61 -74q-147 -150 -339 -150q-5 0 -15 1t-14 1l-55 -92q33 23 69 23
q53 0 86 -31t33 -86q0 -79 -59.5 -128.5t-155.5 -49.5q-133 0 -213 76l47 61q66 -69 170 -69q66 0 100.5 29.5t34.5 74.5q0 31 -22 50.5t-60 19.5q-45 0 -75 -37l-50 32l78 134q-156 29 -248 140t-92 290z" />
    <glyph glyph-name="egrave" unicode="&#xe8;" horiz-adv-x="1161" 
d="M94 412q0 122 43 233t116 192t175 129t215 48q193 0 306.5 -121t113.5 -307q0 -58 -16 -125h-836q-4 -24 -4 -58q0 -144 94 -239.5t268 -95.5q78 0 157.5 27t141.5 79l41 -78q-70 -54 -160.5 -87.5t-183.5 -33.5q-219 0 -345 120t-126 317zM221 545h731h6q3 15 3 45
q0 149 -87 240.5t-243 91.5q-147 0 -265 -111t-145 -266zM475 1434h127l250 -295h-90z" />
    <glyph glyph-name="eacute" unicode="&#xe9;" horiz-adv-x="1161" 
d="M94 412q0 122 43 233t116 192t175 129t215 48q193 0 306.5 -121t113.5 -307q0 -58 -16 -125h-836q-4 -24 -4 -58q0 -144 94 -239.5t268 -95.5q78 0 157.5 27t141.5 79l41 -78q-70 -54 -160.5 -87.5t-183.5 -33.5q-219 0 -345 120t-126 317zM221 545h731h6q3 15 3 45
q0 149 -87 240.5t-243 91.5q-147 0 -265 -111t-145 -266zM604 1139l381 295h129l-418 -295h-92z" />
    <glyph glyph-name="ecircumflex" unicode="&#xea;" horiz-adv-x="1161" 
d="M94 412q0 122 43 233t116 192t175 129t215 48q193 0 306.5 -121t113.5 -307q0 -58 -16 -125h-836q-4 -24 -4 -58q0 -144 94 -239.5t268 -95.5q78 0 157.5 27t141.5 79l41 -78q-70 -54 -160.5 -87.5t-183.5 -33.5q-219 0 -345 120t-126 317zM221 545h731h6q3 15 3 45
q0 149 -87 240.5t-243 91.5q-147 0 -265 -111t-145 -266zM475 1139l264 295h111l137 -295h-78l-127 231l-221 -231h-86z" />
    <glyph glyph-name="edieresis" unicode="&#xeb;" horiz-adv-x="1161" 
d="M94 412q0 122 43 233t116 192t175 129t215 48q193 0 306.5 -121t113.5 -307q0 -58 -16 -125h-836q-4 -24 -4 -58q0 -144 94 -239.5t268 -95.5q78 0 157.5 27t141.5 79l41 -78q-70 -54 -160.5 -87.5t-183.5 -33.5q-219 0 -345 120t-126 317zM221 545h731h6q3 15 3 45
q0 149 -87 240.5t-243 91.5q-147 0 -265 -111t-145 -266zM463 1223q0 34 26 59t60 25q29 0 48 -19.5t19 -48.5q0 -34 -25.5 -59t-60.5 -25q-28 0 -47.5 19.5t-19.5 48.5zM881 1223q0 34 26 59t60 25q29 0 48 -19.5t19 -48.5q0 -34 -25 -59t-59 -25q-29 0 -49 19.5t-20 48.5z
" />
    <glyph glyph-name="igrave" unicode="&#xec;" horiz-adv-x="438" 
d="M55 0l219 989h107l-219 -989h-107zM104 1434h127l250 -295h-90z" />
    <glyph glyph-name="iacute" unicode="&#xed;" horiz-adv-x="438" 
d="M55 0l219 989h107l-219 -989h-107zM236 1139l380 295h129l-417 -295h-92z" />
    <glyph glyph-name="icircumflex" unicode="&#xee;" horiz-adv-x="438" 
d="M55 0l219 989h107l-219 -989h-107zM104 1139l265 295h110l137 -295h-77l-127 231l-222 -231h-86z" />
    <glyph glyph-name="idieresis" unicode="&#xef;" horiz-adv-x="438" 
d="M55 0l219 989h107l-219 -989h-107zM94 1223q0 34 26 59t60 25q29 0 48.5 -19.5t19.5 -48.5q0 -34 -25.5 -59t-60.5 -25q-28 0 -48 19.5t-20 48.5zM512 1223q0 34 26 59t60 25q29 0 48.5 -19.5t19.5 -48.5q0 -34 -25 -59t-59 -25q-29 0 -49.5 19.5t-20.5 48.5z" />
    <glyph glyph-name="eth" unicode="&#xf0;" 
d="M94 395q0 123 41 234.5t110.5 192t165.5 128t201 47.5t199.5 -52.5t144.5 -162.5q-79 210 -249 383l-320 -94l-14 68l276 82q-59 54 -143 118l80 82q107 -80 188 -164l244 74l14 -67l-205 -62q117 -134 181.5 -284t64.5 -302q0 -176 -68.5 -322.5t-192.5 -232.5t-277 -86
q-195 0 -318 119t-123 301zM209 410q0 -150 87.5 -244t240.5 -94q112 0 207.5 67.5t151.5 183t56 250.5q0 60 -19.5 116.5t-57.5 105t-103 77.5t-149 29q-169 0 -291.5 -142t-122.5 -349z" />
    <glyph glyph-name="ntilde" unicode="&#xf1;" horiz-adv-x="1105" 
d="M59 0l220 989h106l-33 -149q76 75 168.5 124.5t188.5 49.5q131 0 209.5 -62t78.5 -180q0 -38 -12 -84l-151 -688h-107l147 672q13 58 13 71q0 88 -60 131.5t-161 43.5q-86 0 -175 -50t-159 -123l-166 -745h-107zM383 1147q25 123 83 198.5t146 75.5q43 0 72 -21.5t45 -52
t30.5 -61.5t37 -52.5t55.5 -21.5q93 0 143 197h74q-26 -124 -84.5 -199t-146.5 -75q-43 0 -72 21.5t-45 52t-30 61t-37 52t-56 21.5q-94 0 -141 -196h-74z" />
    <glyph glyph-name="ograve" unicode="&#xf2;" 
d="M92 410q0 156 70 294.5t196.5 224t278.5 85.5q199 0 317.5 -118.5t118.5 -315.5q0 -156 -70 -294.5t-196.5 -224.5t-278.5 -86q-199 0 -317.5 119t-118.5 316zM209 414q0 -157 85 -249.5t236 -92.5q120 0 219 72.5t153 187.5t54 243q0 157 -85 250t-236 93
q-120 0 -219 -72.5t-153 -188t-54 -243.5zM473 1434h127l250 -295h-90z" />
    <glyph glyph-name="oacute" unicode="&#xf3;" 
d="M92 410q0 156 70 294.5t196.5 224t278.5 85.5q199 0 317.5 -118.5t118.5 -315.5q0 -156 -70 -294.5t-196.5 -224.5t-278.5 -86q-199 0 -317.5 119t-118.5 316zM209 414q0 -157 85 -249.5t236 -92.5q120 0 219 72.5t153 187.5t54 243q0 157 -85 250t-236 93
q-120 0 -219 -72.5t-153 -188t-54 -243.5zM602 1139l381 295h129l-418 -295h-92z" />
    <glyph glyph-name="ocircumflex" unicode="&#xf4;" 
d="M92 410q0 156 70 294.5t196.5 224t278.5 85.5q199 0 317.5 -118.5t118.5 -315.5q0 -156 -70 -294.5t-196.5 -224.5t-278.5 -86q-199 0 -317.5 119t-118.5 316zM209 414q0 -157 85 -249.5t236 -92.5q120 0 219 72.5t153 187.5t54 243q0 157 -85 250t-236 93
q-120 0 -219 -72.5t-153 -188t-54 -243.5zM473 1139l264 295h111l137 -295h-78l-127 231l-221 -231h-86z" />
    <glyph glyph-name="otilde" unicode="&#xf5;" 
d="M92 410q0 156 70 294.5t196.5 224t278.5 85.5q199 0 317.5 -118.5t118.5 -315.5q0 -156 -70 -294.5t-196.5 -224.5t-278.5 -86q-199 0 -317.5 119t-118.5 316zM209 414q0 -157 85 -249.5t236 -92.5q120 0 219 72.5t153 187.5t54 243q0 157 -85 250t-236 93
q-120 0 -219 -72.5t-153 -188t-54 -243.5zM414 1147q25 123 83 198.5t146 75.5q43 0 72 -21.5t45 -52t30.5 -61.5t37 -52.5t55.5 -21.5q93 0 143 197h74q-26 -123 -85 -198.5t-147 -75.5q-43 0 -72 21.5t-44.5 52t-29.5 61t-37 52t-56 21.5q-95 0 -142 -196h-73z" />
    <glyph glyph-name="odieresis" unicode="&#xf6;" 
d="M92 410q0 156 70 294.5t196.5 224t278.5 85.5q199 0 317.5 -118.5t118.5 -315.5q0 -156 -70 -294.5t-196.5 -224.5t-278.5 -86q-199 0 -317.5 119t-118.5 316zM209 414q0 -157 85 -249.5t236 -92.5q120 0 219 72.5t153 187.5t54 243q0 157 -85 250t-236 93
q-120 0 -219 -72.5t-153 -188t-54 -243.5zM461 1223q0 34 26 59t60 25q29 0 48 -19.5t19 -48.5q0 -34 -25.5 -59t-60.5 -25q-28 0 -47.5 19.5t-19.5 48.5zM879 1223q0 34 26 59t60 25q29 0 48 -19.5t19 -48.5q0 -34 -25 -59t-59 -25q-29 0 -49 19.5t-20 48.5z" />
    <glyph glyph-name="divide" unicode="&#xf7;" horiz-adv-x="1046" 
d="M92 647l19 86h927l-18 -86h-928zM395 279q0 37 25.5 61.5t62.5 24.5q31 0 52.5 -21.5t21.5 -52.5q0 -36 -26.5 -61t-63.5 -25q-31 0 -51.5 21.5t-20.5 52.5zM571 1081q0 35 26.5 60.5t61.5 25.5q32 0 53 -21t21 -52q0 -37 -25.5 -61.5t-62.5 -24.5q-31 0 -52.5 21
t-21.5 52z" />
    <glyph glyph-name="oslash" unicode="&#xf8;" 
d="M39 0l135 135q-82 111 -82 275q0 156 70 294.5t196.5 224t278.5 85.5q184 0 301 -105l78 80h94l-125 -127q88 -114 88 -282q0 -156 -70 -294.5t-196.5 -224.5t-278.5 -86q-194 0 -311 111l-84 -86h-94zM209 414q0 -120 45 -197l608 617q-87 84 -227 84q-120 0 -219 -72.5
t-153 -188t-54 -243.5zM295 164q86 -92 235 -92q120 0 219 72.5t153 187.5t54 243q0 122 -53 205z" />
    <glyph glyph-name="ugrave" unicode="&#xf9;" horiz-adv-x="1105" 
d="M111 217q0 38 12 84l149 688h109l-150 -670q-10 -45 -10 -73q0 -88 59.5 -131t159.5 -43q88 0 177.5 50t158.5 124l166 743h107l-220 -989h-106l33 150q-179 -175 -357 -175q-131 0 -209.5 62t-78.5 180zM444 1434h127l250 -295h-90z" />
    <glyph glyph-name="uacute" unicode="&#xfa;" horiz-adv-x="1105" 
d="M111 217q0 38 12 84l149 688h109l-150 -670q-10 -45 -10 -73q0 -88 59.5 -131t159.5 -43q88 0 177.5 50t158.5 124l166 743h107l-220 -989h-106l33 150q-179 -175 -357 -175q-131 0 -209.5 62t-78.5 180zM571 1139l381 295h129l-417 -295h-93z" />
    <glyph glyph-name="ucircumflex" unicode="&#xfb;" horiz-adv-x="1105" 
d="M111 217q0 38 12 84l149 688h109l-150 -670q-10 -45 -10 -73q0 -88 59.5 -131t159.5 -43q88 0 177.5 50t158.5 124l166 743h107l-220 -989h-106l33 150q-179 -175 -357 -175q-131 0 -209.5 62t-78.5 180zM438 1139l264 295h111l137 -295h-78l-127 231l-221 -231h-86z" />
    <glyph glyph-name="udieresis" unicode="&#xfc;" horiz-adv-x="1105" 
d="M111 217q0 38 12 84l149 688h109l-150 -670q-10 -45 -10 -73q0 -88 59.5 -131t159.5 -43q88 0 177.5 50t158.5 124l166 743h107l-220 -989h-106l33 150q-179 -175 -357 -175q-131 0 -209.5 62t-78.5 180zM436 1223q0 34 26 59t60 25q29 0 48.5 -19.5t19.5 -48.5
q0 -34 -25.5 -59t-60.5 -25q-28 0 -48 19.5t-20 48.5zM854 1223q0 34 26 59t60 25q29 0 48.5 -19.5t19.5 -48.5q0 -34 -25 -59t-59 -25q-29 0 -49.5 19.5t-20.5 48.5z" />
    <glyph glyph-name="yacute" unicode="&#xfd;" horiz-adv-x="985" 
d="M-94 -381l41 102q36 -18 96 -18q42 0 77.5 24.5t78.5 88.5l118 178l-194 995h115l165 -864l551 864h125l-780 -1206q-59 -94 -125.5 -139t-150.5 -45q-62 0 -117 20zM510 1139l381 295h129l-418 -295h-92z" />
    <glyph glyph-name="thorn" unicode="&#xfe;" horiz-adv-x="1161" 
d="M-29 -377l385 1743h107l-115 -526q62 81 149.5 127.5t190.5 46.5q172 0 278.5 -109t106.5 -297q0 -167 -63.5 -310.5t-183.5 -233t-271 -89.5q-119 0 -211 52.5t-145 140.5l-121 -545h-107zM217 252q39 -78 126 -129t202 -51q91 0 169.5 44t130.5 116.5t81.5 165
t29.5 190.5q0 151 -81.5 240.5t-217.5 89.5q-99 0 -189 -54.5t-146 -136.5z" />
    <glyph glyph-name="ydieresis" unicode="&#xff;" horiz-adv-x="985" 
d="M-94 -381l41 102q36 -18 96 -18q42 0 77.5 24.5t78.5 88.5l118 178l-194 995h115l165 -864l551 864h125l-780 -1206q-59 -94 -125.5 -139t-150.5 -45q-62 0 -117 20zM369 1223q0 34 26 59t60 25q29 0 48 -19.5t19 -48.5q0 -34 -25.5 -59t-60.5 -25q-28 0 -47.5 19.5
t-19.5 48.5zM786 1223q0 34 26 59t60 25q29 0 48.5 -19.5t19.5 -48.5q0 -34 -25 -59t-59 -25q-29 0 -49.5 19.5t-20.5 48.5z" />
    <glyph glyph-name="OE" unicode="&#x152;" horiz-adv-x="2283" 
d="M137 567q0 177 62 331t167 260t245.5 167t293.5 61q116 0 211.5 -32t176.5 -113t120 -207l72 332h866l-22 -106h-748l-113 -506h734l-25 -107h-733l-119 -541h748l-23 -106h-866l51 233q-89 -122 -221 -190t-301 -68q-257 0 -416.5 165.5t-159.5 426.5zM264 571
q0 -224 132.5 -356.5t348.5 -132.5q157 0 299.5 84t227.5 231l104 473q-28 195 -155 302.5t-322 107.5q-128 0 -244.5 -54t-202.5 -147t-137 -225.5t-51 -282.5z" />
    <glyph glyph-name="oe" unicode="&#x153;" horiz-adv-x="1996" 
d="M92 410q0 116 41 225.5t111 193t172 134.5t217 51q93 0 169.5 -32t122.5 -81.5t72 -100t31 -95.5q180 309 457 309q185 0 300.5 -116t115.5 -312q0 -55 -17 -125h-827q-4 -20 -4 -58q0 -144 93.5 -239.5t264.5 -95.5q79 0 157.5 28t137.5 78l43 -78q-70 -56 -159.5 -88.5
t-182.5 -32.5q-78 0 -147 20.5t-117.5 53t-85.5 74t-56.5 83t-23.5 79.5q-28 -47 -48.5 -78t-64 -79.5t-87.5 -78t-111 -52t-142 -22.5q-193 0 -312.5 117t-119.5 318zM209 414q0 -156 83.5 -249t233.5 -93q117 0 215 70t152.5 185.5t54.5 247.5q0 88 -26 156t-71 107.5
t-100.5 59.5t-119.5 20q-115 0 -213 -70t-153.5 -185.5t-55.5 -248.5zM1067 545h729q4 24 4 45q0 145 -85.5 238.5t-239.5 93.5q-79 0 -152.5 -35.5t-125.5 -91t-86 -121.5t-44 -129z" />
    <glyph glyph-name="Ydieresis" unicode="&#x178;" horiz-adv-x="1265" 
d="M221 1366h131l314 -672l608 672h151l-714 -782l-129 -584h-119l131 584zM592 1567q0 34 26 59t60 25q29 0 48 -19.5t19 -48.5q0 -34 -25.5 -59t-60.5 -25q-28 0 -47.5 19.5t-19.5 48.5zM1010 1567q0 34 26 59t60 25q29 0 48 -19.5t19 -48.5q0 -34 -25 -59t-59 -25
q-29 0 -49 19.5t-20 48.5z" />
    <glyph glyph-name="circumflex" unicode="&#x2c6;" horiz-adv-x="512" 
d="M141 1139l265 295h110l137 -295h-78l-126 231l-222 -231h-86z" />
    <glyph glyph-name="tilde" unicode="&#x2dc;" horiz-adv-x="628" 
d="M143 1147q25 123 83.5 198.5t146.5 75.5q43 0 72 -21.5t45 -52t30 -61.5t36.5 -52.5t55.5 -21.5q94 0 144 197h73q-26 -124 -84.5 -199t-146.5 -75q-43 0 -72 21.5t-45 52t-30 61t-37 52t-56 21.5q-94 0 -141 -196h-74z" />
    <glyph glyph-name="uni2000" unicode="&#x2000;" horiz-adv-x="905" 
 />
    <glyph glyph-name="uni2001" unicode="&#x2001;" horiz-adv-x="1810" 
 />
    <glyph glyph-name="uni2002" unicode="&#x2002;" horiz-adv-x="905" 
 />
    <glyph glyph-name="uni2003" unicode="&#x2003;" horiz-adv-x="1810" 
 />
    <glyph glyph-name="uni2004" unicode="&#x2004;" horiz-adv-x="603" 
 />
    <glyph glyph-name="uni2005" unicode="&#x2005;" horiz-adv-x="452" 
 />
    <glyph glyph-name="uni2006" unicode="&#x2006;" horiz-adv-x="301" 
 />
    <glyph glyph-name="uni2007" unicode="&#x2007;" horiz-adv-x="301" 
 />
    <glyph glyph-name="uni2008" unicode="&#x2008;" horiz-adv-x="226" 
 />
    <glyph glyph-name="uni2009" unicode="&#x2009;" horiz-adv-x="362" 
 />
    <glyph glyph-name="uni200A" unicode="&#x200a;" horiz-adv-x="100" 
 />
    <glyph glyph-name="uni2010" unicode="&#x2010;" horiz-adv-x="614" 
d="M49 446l21 99h491l-20 -99h-492z" />
    <glyph glyph-name="uni2011" unicode="&#x2011;" horiz-adv-x="614" 
d="M49 446l21 99h491l-20 -99h-492z" />
    <glyph glyph-name="figuredash" unicode="&#x2012;" horiz-adv-x="614" 
d="M49 446l21 99h491l-20 -99h-492z" />
    <glyph glyph-name="endash" unicode="&#x2013;" horiz-adv-x="1214" 
d="M49 446l21 99h1091l-20 -99h-1092z" />
    <glyph glyph-name="emdash" unicode="&#x2014;" horiz-adv-x="1705" 
d="M49 446l21 99h1583l-21 -99h-1583z" />
    <glyph glyph-name="quoteleft" unicode="&#x2018;" horiz-adv-x="448" 
d="M238 1087q0 84 62.5 169t148.5 130l49 -53q-57 -29 -102 -77t-58 -95h14q28 0 49 -22t21 -54q0 -39 -28.5 -67.5t-67.5 -28.5t-63.5 25t-24.5 73z" />
    <glyph glyph-name="quoteright" unicode="&#x2019;" horiz-adv-x="448" 
d="M236 1042q57 29 101.5 77t57.5 95h-14q-28 0 -49 22t-21 52q0 41 29 69.5t68 28.5t63.5 -25t24.5 -73q0 -84 -62.5 -169t-148.5 -130z" />
    <glyph glyph-name="quotesinglbase" unicode="&#x201a;" horiz-adv-x="448" 
d="M-37 -184q57 29 102 77t58 95h-14q-28 0 -49 21.5t-21 51.5q0 41 28.5 70t67.5 29q38 0 63 -26.5t25 -72.5q0 -85 -63 -170.5t-148 -128.5z" />
    <glyph glyph-name="quotedblleft" unicode="&#x201c;" horiz-adv-x="739" 
d="M258 1087q0 85 62 169.5t147 129.5l51 -53q-57 -29 -102 -77t-58 -95h15q28 0 48.5 -22t20.5 -54q0 -39 -29.5 -67.5t-68.5 -28.5q-37 0 -61.5 25.5t-24.5 72.5zM547 1087q0 85 62 169.5t147 129.5l49 -53q-57 -30 -102 -78t-58 -94h14q30 0 51 -22t21 -54
q0 -39 -29.5 -67.5t-68.5 -28.5q-38 0 -62 25t-24 73z" />
    <glyph glyph-name="quotedblright" unicode="&#x201d;" horiz-adv-x="739" 
d="M236 1042q57 29 101.5 77t57.5 95h-14q-28 0 -49 22t-21 52q0 41 29 69.5t68 28.5t63.5 -25t24.5 -73q0 -84 -62.5 -169t-148.5 -130zM524 1042q57 29 102 77t58 95h-14q-29 0 -49.5 21.5t-20.5 52.5q0 41 28.5 69.5t67.5 28.5q38 0 62 -25t24 -73q0 -85 -62 -169.5
t-147 -129.5z" />
    <glyph glyph-name="quotedblbase" unicode="&#x201e;" horiz-adv-x="739" 
d="M-37 -184q57 29 102 77t58 95h-14q-28 0 -49 21.5t-21 51.5q0 41 28.5 70t67.5 29q38 0 63 -26.5t25 -72.5q0 -85 -63 -170.5t-148 -128.5zM252 -184q57 30 102 78t58 94h-15q-29 0 -50 21t-21 52q0 41 29.5 70t68.5 29q38 0 62 -26.5t24 -72.5q0 -85 -62 -170.5
t-147 -128.5z" />
    <glyph glyph-name="bullet" unicode="&#x2022;" horiz-adv-x="733" 
d="M154 477q0 93 70.5 161.5t164.5 68.5q82 0 136.5 -54.5t54.5 -136.5q0 -93 -71 -161t-165 -68q-82 0 -136 54t-54 136z" />
    <glyph glyph-name="ellipsis" unicode="&#x2026;" horiz-adv-x="1345" 
d="M39 63q0 40 29 68.5t69 28.5q35 0 58.5 -24t23.5 -58q0 -41 -29 -69.5t-69 -28.5q-35 0 -58.5 24t-23.5 59zM487 63q0 40 29.5 68.5t69.5 28.5q35 0 58.5 -24t23.5 -58q0 -41 -29.5 -69.5t-69.5 -28.5q-35 0 -58.5 24t-23.5 59zM936 63q0 40 29 68.5t69 28.5
q35 0 58.5 -24t23.5 -58q0 -41 -28.5 -69.5t-69.5 -28.5q-34 0 -58 24t-24 59z" />
    <glyph glyph-name="uni202F" unicode="&#x202f;" horiz-adv-x="362" 
 />
    <glyph glyph-name="guilsinglleft" unicode="&#x2039;" horiz-adv-x="567" 
d="M59 498l410 362h125l-418 -373l238 -358h-109z" />
    <glyph glyph-name="guilsinglright" unicode="&#x203a;" horiz-adv-x="567" 
d="M-23 129l418 373l-237 358h108l246 -368l-410 -363h-125z" />
    <glyph glyph-name="uni205F" unicode="&#x205f;" horiz-adv-x="452" 
 />
    <glyph glyph-name="Euro" unicode="&#x20ac;" horiz-adv-x="1413" 
d="M70 496l18 84h94q0 97 27 208h-74l19 84h79q57 156 167.5 274.5t250.5 180.5t289 62q180 0 319.5 -76t217.5 -217l-113 -52q-68 122 -180 180t-252 58q-177 0 -333.5 -110.5t-233.5 -299.5h694l-21 -84h-702q-27 -111 -27 -208h684l-18 -84h-662q23 -191 154 -302.5
t336 -111.5q206 0 387 156l82 -70q-99 -96 -223 -144.5t-252 -48.5q-251 0 -419.5 142.5t-191.5 378.5h-116z" />
    <glyph glyph-name="trademark" unicode="&#x2122;" horiz-adv-x="929" 
d="M215 1313l10 53h312l-11 -53h-127l-88 -398h-57l88 398h-127zM512 915l98 451h88l60 -328l203 328h88l-99 -451h-57l82 373l-236 -373h-16l-72 373l-82 -373h-57z" />
    <glyph glyph-name="uni25FC" unicode="&#x25fc;" horiz-adv-x="993" 
d="M0 0v993h993v-993h-993z" />
    <hkern g1="A,Agrave,Aacute,Acircumflex,Atilde,Adieresis,Aring"
	g2="J"
	k="-10" />
    <hkern g1="A,Agrave,Aacute,Acircumflex,Atilde,Adieresis,Aring"
	g2="S"
	k="39" />
    <hkern g1="A,Agrave,Aacute,Acircumflex,Atilde,Adieresis,Aring"
	g2="T"
	k="162" />
    <hkern g1="A,Agrave,Aacute,Acircumflex,Atilde,Adieresis,Aring"
	g2="U,Ugrave,Uacute,Ucircumflex,Udieresis"
	k="68" />
    <hkern g1="A,Agrave,Aacute,Acircumflex,Atilde,Adieresis,Aring"
	g2="C,G,O,Q,Ccedilla,Ograve,Oacute,Ocircumflex,Otilde,Odieresis,Oslash,OE"
	k="100" />
    <hkern g1="A,Agrave,Aacute,Acircumflex,Atilde,Adieresis,Aring"
	g2="V"
	k="137" />
    <hkern g1="A,Agrave,Aacute,Acircumflex,Atilde,Adieresis,Aring"
	g2="W"
	k="119" />
    <hkern g1="A,Agrave,Aacute,Acircumflex,Atilde,Adieresis,Aring"
	g2="Y,Yacute,Ydieresis"
	k="147" />
    <hkern g1="A,Agrave,Aacute,Acircumflex,Atilde,Adieresis,Aring"
	g2="question"
	k="162" />
    <hkern g1="A,Agrave,Aacute,Acircumflex,Atilde,Adieresis,Aring"
	g2="asterisk"
	k="217" />
    <hkern g1="A,Agrave,Aacute,Acircumflex,Atilde,Adieresis,Aring"
	g2="quotedbl,quotesingle,registered,quoteleft,quoteright,quotedblleft,quotedblright,trademark"
	k="203" />
    <hkern g1="A,Agrave,Aacute,Acircumflex,Atilde,Adieresis,Aring"
	g2="f,uniFB01,uniFB02,uniFB03,uniFB04"
	k="10" />
    <hkern g1="A,Agrave,Aacute,Acircumflex,Atilde,Adieresis,Aring"
	g2="t"
	k="10" />
    <hkern g1="A,Agrave,Aacute,Acircumflex,Atilde,Adieresis,Aring"
	g2="u"
	k="23" />
    <hkern g1="A,Agrave,Aacute,Acircumflex,Atilde,Adieresis,Aring"
	g2="v"
	k="41" />
    <hkern g1="A,Agrave,Aacute,Acircumflex,Atilde,Adieresis,Aring"
	g2="w"
	k="39" />
    <hkern g1="A,Agrave,Aacute,Acircumflex,Atilde,Adieresis,Aring"
	g2="y,yacute,ydieresis"
	k="41" />
    <hkern g1="B"
	g2="T"
	k="39" />
    <hkern g1="B"
	g2="V"
	k="25" />
    <hkern g1="B"
	g2="W"
	k="20" />
    <hkern g1="B"
	g2="Y,Yacute,Ydieresis"
	k="61" />
    <hkern g1="B"
	g2="quotedbl,quotesingle,registered,quoteleft,quoteright,quotedblleft,quotedblright,trademark"
	k="20" />
    <hkern g1="C,Ccedilla"
	g2="S"
	k="-4" />
    <hkern g1="C,Ccedilla"
	g2="T"
	k="4" />
    <hkern g1="C,Ccedilla"
	g2="C,G,O,Q,Ccedilla,Ograve,Oacute,Ocircumflex,Otilde,Odieresis,Oslash,OE"
	k="-4" />
    <hkern g1="C,Ccedilla"
	g2="V"
	k="23" />
    <hkern g1="C,Ccedilla"
	g2="W"
	k="20" />
    <hkern g1="C,Ccedilla"
	g2="Y,Yacute,Ydieresis"
	k="47" />
    <hkern g1="C,Ccedilla"
	g2="question"
	k="4" />
    <hkern g1="C,Ccedilla"
	g2="A,Agrave,Aacute,Acircumflex,Atilde,Adieresis,Aring,AE"
	k="4" />
    <hkern g1="D,O,Q,Eth,Ograve,Oacute,Ocircumflex,Otilde,Odieresis,Oslash,Thorn"
	g2="J"
	k="41" />
    <hkern g1="D,O,Q,Eth,Ograve,Oacute,Ocircumflex,Otilde,Odieresis,Oslash,Thorn"
	g2="T"
	k="80" />
    <hkern g1="D,O,Q,Eth,Ograve,Oacute,Ocircumflex,Otilde,Odieresis,Oslash,Thorn"
	g2="V"
	k="66" />
    <hkern g1="D,O,Q,Eth,Ograve,Oacute,Ocircumflex,Otilde,Odieresis,Oslash,Thorn"
	g2="W"
	k="63" />
    <hkern g1="D,O,Q,Eth,Ograve,Oacute,Ocircumflex,Otilde,Odieresis,Oslash,Thorn"
	g2="Y,Yacute,Ydieresis"
	k="109" />
    <hkern g1="D,O,Q,Eth,Ograve,Oacute,Ocircumflex,Otilde,Odieresis,Oslash,Thorn"
	g2="question"
	k="27" />
    <hkern g1="D,O,Q,Eth,Ograve,Oacute,Ocircumflex,Otilde,Odieresis,Oslash,Thorn"
	g2="quotedbl,quotesingle,registered,quoteleft,quoteright,quotedblleft,quotedblright,trademark"
	k="20" />
    <hkern g1="D,O,Q,Eth,Ograve,Oacute,Ocircumflex,Otilde,Odieresis,Oslash,Thorn"
	g2="A,Agrave,Aacute,Acircumflex,Atilde,Adieresis,Aring,AE"
	k="55" />
    <hkern g1="D,O,Q,Eth,Ograve,Oacute,Ocircumflex,Otilde,Odieresis,Oslash,Thorn"
	g2="X"
	k="61" />
    <hkern g1="D,O,Q,Eth,Ograve,Oacute,Ocircumflex,Otilde,Odieresis,Oslash,Thorn"
	g2="Z"
	k="39" />
    <hkern g1="D,O,Q,Eth,Ograve,Oacute,Ocircumflex,Otilde,Odieresis,Oslash,Thorn"
	g2="comma,period,quotesinglbase,quotedblbase,ellipsis"
	k="59" />
    <hkern g1="F"
	g2="comma,period,quotesinglbase,quotedblbase,ellipsis"
	k="102" />
    <hkern g1="F"
	g2="A,Agrave,Aacute,Acircumflex,Atilde,Adieresis,Aring,AE"
	k="68" />
    <hkern g1="F"
	g2="J"
	k="113" />
    <hkern g1="F"
	g2="ampersand"
	k="6" />
    <hkern g1="G"
	g2="V"
	k="45" />
    <hkern g1="G"
	g2="Y,Yacute,Ydieresis"
	k="51" />
    <hkern g1="G"
	g2="W"
	k="14" />
    <hkern g1="G"
	g2="X"
	k="4" />
    <hkern g1="G"
	g2="question"
	k="6" />
    <hkern g1="G"
	g2="T"
	k="41" />
    <hkern g1="G"
	g2="A,Agrave,Aacute,Acircumflex,Atilde,Adieresis,Aring,AE"
	k="4" />
    <hkern g1="K"
	g2="Y,Yacute,Ydieresis"
	k="53" />
    <hkern g1="K"
	g2="C,G,O,Q,Ccedilla,Ograve,Oacute,Ocircumflex,Otilde,Odieresis,Oslash,OE"
	k="117" />
    <hkern g1="K"
	g2="a,c,d,e,g,o,q,ae,ccedilla,eth,oslash,oe"
	k="76" />
    <hkern g1="K"
	g2="f,uniFB01,uniFB02,uniFB03,uniFB04"
	k="47" />
    <hkern g1="K"
	g2="t"
	k="72" />
    <hkern g1="K"
	g2="u"
	k="41" />
    <hkern g1="K"
	g2="v"
	k="123" />
    <hkern g1="K"
	g2="w"
	k="82" />
    <hkern g1="K"
	g2="x"
	k="47" />
    <hkern g1="K"
	g2="y,yacute,ydieresis"
	k="123" />
    <hkern g1="K"
	g2="hyphen,periodcentered,endash,emdash"
	k="102" />
    <hkern g1="L"
	g2="V"
	k="184" />
    <hkern g1="L"
	g2="Y,Yacute,Ydieresis"
	k="250" />
    <hkern g1="L"
	g2="W"
	k="129" />
    <hkern g1="L"
	g2="question"
	k="240" />
    <hkern g1="L"
	g2="quotedbl,quotesingle,registered,quoteleft,quoteright,quotedblleft,quotedblright,trademark"
	k="238" />
    <hkern g1="L"
	g2="T"
	k="205" />
    <hkern g1="L"
	g2="ampersand"
	k="18" />
    <hkern g1="L"
	g2="C,G,O,Q,Ccedilla,Ograve,Oacute,Ocircumflex,Otilde,Odieresis,Oslash,OE"
	k="76" />
    <hkern g1="L"
	g2="a,c,d,e,g,o,q,ae,ccedilla,eth,oslash,oe"
	k="53" />
    <hkern g1="L"
	g2="t"
	k="66" />
    <hkern g1="L"
	g2="u"
	k="35" />
    <hkern g1="L"
	g2="U,Ugrave,Uacute,Ucircumflex,Udieresis"
	k="59" />
    <hkern g1="L"
	g2="asterisk"
	k="362" />
    <hkern g1="L"
	g2="v"
	k="121" />
    <hkern g1="L"
	g2="w"
	k="80" />
    <hkern g1="L"
	g2="y,yacute,ydieresis"
	k="121" />
    <hkern g1="P"
	g2="V"
	k="4" />
    <hkern g1="P"
	g2="W"
	k="4" />
    <hkern g1="P"
	g2="Y,Yacute,Ydieresis"
	k="41" />
    <hkern g1="P"
	g2="hyphen,periodcentered,endash,emdash"
	k="76" />
    <hkern g1="P"
	g2="A,Agrave,Aacute,Acircumflex,Atilde,Adieresis,Aring,AE"
	k="162" />
    <hkern g1="P"
	g2="J"
	k="215" />
    <hkern g1="P"
	g2="X"
	k="10" />
    <hkern g1="P"
	g2="ampersand"
	k="47" />
    <hkern g1="P"
	g2="comma,period,quotesinglbase,quotedblbase,ellipsis"
	k="199" />
    <hkern g1="P"
	g2="a,c,d,e,g,o,q,ae,ccedilla,eth,oslash,oe"
	k="25" />
    <hkern g1="R"
	g2="T"
	k="20" />
    <hkern g1="R"
	g2="V"
	k="20" />
    <hkern g1="R"
	g2="Y,Yacute,Ydieresis"
	k="33" />
    <hkern g1="R"
	g2="quotedbl,quotesingle,registered,quoteleft,quoteright,quotedblleft,quotedblright,trademark"
	k="4" />
    <hkern g1="R"
	g2="ampersand"
	k="4" />
    <hkern g1="R"
	g2="a,c,d,e,g,o,q,ae,ccedilla,eth,oslash,oe"
	k="61" />
    <hkern g1="R"
	g2="s"
	k="6" />
    <hkern g1="S"
	g2="v"
	k="6" />
    <hkern g1="S"
	g2="w"
	k="4" />
    <hkern g1="S"
	g2="y,yacute,ydieresis"
	k="6" />
    <hkern g1="S"
	g2="T"
	k="27" />
    <hkern g1="S"
	g2="V"
	k="23" />
    <hkern g1="S"
	g2="W"
	k="20" />
    <hkern g1="S"
	g2="Y,Yacute,Ydieresis"
	k="55" />
    <hkern g1="S"
	g2="A,Agrave,Aacute,Acircumflex,Atilde,Adieresis,Aring,AE"
	k="18" />
    <hkern g1="S"
	g2="t"
	k="39" />
    <hkern g1="S"
	g2="x"
	k="25" />
    <hkern g1="T"
	g2="C,G,O,Q,Ccedilla,Ograve,Oacute,Ocircumflex,Otilde,Odieresis,Oslash,OE"
	k="37" />
    <hkern g1="T"
	g2="A,Agrave,Aacute,Acircumflex,Atilde,Adieresis,Aring,AE"
	k="121" />
    <hkern g1="T"
	g2="J"
	k="168" />
    <hkern g1="T"
	g2="ampersand"
	k="82" />
    <hkern g1="T"
	g2="comma,period,quotesinglbase,quotedblbase,ellipsis"
	k="188" />
    <hkern g1="T"
	g2="a,c,d,e,g,o,q,ae,ccedilla,eth,oslash,oe"
	k="252" />
    <hkern g1="T"
	g2="S"
	k="-18" />
    <hkern g1="T"
	g2="colon,semicolon"
	k="102" />
    <hkern g1="T"
	g2="f,uniFB01,uniFB02,uniFB03,uniFB04"
	k="74" />
    <hkern g1="T"
	g2="m,n,p,r,z"
	k="190" />
    <hkern g1="T"
	g2="s"
	k="197" />
    <hkern g1="T"
	g2="v"
	k="139" />
    <hkern g1="T"
	g2="w"
	k="139" />
    <hkern g1="T"
	g2="x"
	k="160" />
    <hkern g1="T"
	g2="y,yacute,ydieresis"
	k="139" />
    <hkern g1="T"
	g2="hyphen,periodcentered,endash,emdash"
	k="123" />
    <hkern g1="T"
	g2="u"
	k="190" />
    <hkern g1="J,U,Ugrave,Uacute,Ucircumflex,Udieresis"
	g2="A,Agrave,Aacute,Acircumflex,Atilde,Adieresis,Aring,AE"
	k="27" />
    <hkern g1="J,U,Ugrave,Uacute,Ucircumflex,Udieresis"
	g2="comma,period,quotesinglbase,quotedblbase,ellipsis"
	k="61" />
    <hkern g1="J,U,Ugrave,Uacute,Ucircumflex,Udieresis"
	g2="J"
	k="12" />
    <hkern g1="V"
	g2="f,uniFB01,uniFB02,uniFB03,uniFB04"
	k="45" />
    <hkern g1="V"
	g2="m,n,p,r,z"
	k="74" />
    <hkern g1="V"
	g2="s"
	k="72" />
    <hkern g1="V"
	g2="v"
	k="25" />
    <hkern g1="V"
	g2="w"
	k="6" />
    <hkern g1="V"
	g2="x"
	k="45" />
    <hkern g1="V"
	g2="y,yacute,ydieresis"
	k="6" />
    <hkern g1="V"
	g2="hyphen,periodcentered,endash,emdash"
	k="106" />
    <hkern g1="V"
	g2="u"
	k="74" />
    <hkern g1="V"
	g2="A,Agrave,Aacute,Acircumflex,Atilde,Adieresis,Aring,AE"
	k="96" />
    <hkern g1="V"
	g2="comma,period,quotesinglbase,quotedblbase,ellipsis"
	k="184" />
    <hkern g1="V"
	g2="ampersand"
	k="12" />
    <hkern g1="V"
	g2="J"
	k="188" />
    <hkern g1="V"
	g2="C,G,O,Q,Ccedilla,Ograve,Oacute,Ocircumflex,Otilde,Odieresis,Oslash,OE"
	k="18" />
    <hkern g1="V"
	g2="a,c,d,e,g,o,q,ae,ccedilla,eth,oslash,oe"
	k="123" />
    <hkern g1="V"
	g2="t"
	k="25" />
    <hkern g1="V"
	g2="S"
	k="-23" />
    <hkern g1="W"
	g2="f,uniFB01,uniFB02,uniFB03,uniFB04"
	k="25" />
    <hkern g1="W"
	g2="m,n,p,r,z"
	k="61" />
    <hkern g1="W"
	g2="s"
	k="31" />
    <hkern g1="W"
	g2="A,Agrave,Aacute,Acircumflex,Atilde,Adieresis,Aring,AE"
	k="80" />
    <hkern g1="W"
	g2="comma,period,quotesinglbase,quotedblbase,ellipsis"
	k="141" />
    <hkern g1="W"
	g2="ampersand"
	k="20" />
    <hkern g1="W"
	g2="J"
	k="59" />
    <hkern g1="W"
	g2="C,G,O,Q,Ccedilla,Ograve,Oacute,Ocircumflex,Otilde,Odieresis,Oslash,OE"
	k="18" />
    <hkern g1="W"
	g2="a,c,d,e,g,o,q,ae,ccedilla,eth,oslash,oe"
	k="82" />
    <hkern g1="W"
	g2="t"
	k="25" />
    <hkern g1="W"
	g2="u"
	k="61" />
    <hkern g1="W"
	g2="x"
	k="45" />
    <hkern g1="W"
	g2="v"
	k="4" />
    <hkern g1="W"
	g2="y,yacute,ydieresis"
	k="4" />
    <hkern g1="W"
	g2="hyphen,periodcentered,endash,emdash"
	k="66" />
    <hkern g1="W"
	g2="S"
	k="-20" />
    <hkern g1="Y,Yacute,Ydieresis"
	g2="u"
	k="184" />
    <hkern g1="Y,Yacute,Ydieresis"
	g2="x"
	k="147" />
    <hkern g1="Y,Yacute,Ydieresis"
	g2="v"
	k="123" />
    <hkern g1="Y,Yacute,Ydieresis"
	g2="y,yacute,ydieresis"
	k="123" />
    <hkern g1="Y,Yacute,Ydieresis"
	g2="hyphen,periodcentered,endash,emdash"
	k="231" />
    <hkern g1="Y,Yacute,Ydieresis"
	g2="S"
	k="12" />
    <hkern g1="Y,Yacute,Ydieresis"
	g2="A,Agrave,Aacute,Acircumflex,Atilde,Adieresis,Aring,AE"
	k="106" />
    <hkern g1="Y,Yacute,Ydieresis"
	g2="comma,period,quotesinglbase,quotedblbase,ellipsis"
	k="184" />
    <hkern g1="Y,Yacute,Ydieresis"
	g2="ampersand"
	k="84" />
    <hkern g1="Y,Yacute,Ydieresis"
	g2="J"
	k="229" />
    <hkern g1="Y,Yacute,Ydieresis"
	g2="C,G,O,Q,Ccedilla,Ograve,Oacute,Ocircumflex,Otilde,Odieresis,Oslash,OE"
	k="55" />
    <hkern g1="Y,Yacute,Ydieresis"
	g2="colon,semicolon"
	k="113" />
    <hkern g1="Y,Yacute,Ydieresis"
	g2="a,c,d,e,g,o,q,ae,ccedilla,eth,oslash,oe"
	k="264" />
    <hkern g1="Y,Yacute,Ydieresis"
	g2="f,uniFB01,uniFB02,uniFB03,uniFB04"
	k="92" />
    <hkern g1="Y,Yacute,Ydieresis"
	g2="m,n,p,r,z"
	k="184" />
    <hkern g1="Y,Yacute,Ydieresis"
	g2="s"
	k="205" />
    <hkern g1="Y,Yacute,Ydieresis"
	g2="t"
	k="47" />
    <hkern g1="Y,Yacute,Ydieresis"
	g2="w"
	k="123" />
    <hkern g1="Z"
	g2="C,G,O,Q,Ccedilla,Ograve,Oacute,Ocircumflex,Otilde,Odieresis,Oslash,OE"
	k="39" />
    <hkern g1="ampersand"
	g2="y,yacute,ydieresis"
	k="41" />
    <hkern g1="ampersand"
	g2="T"
	k="197" />
    <hkern g1="ampersand"
	g2="Y,Yacute,Ydieresis"
	k="236" />
    <hkern g1="ampersand"
	g2="V"
	k="141" />
    <hkern g1="ampersand"
	g2="W"
	k="131" />
    <hkern g1="ampersand"
	g2="quotedbl,quotesingle,registered,quoteleft,quoteright,quotedblleft,quotedblright,trademark"
	k="53" />
    <hkern g1="asterisk"
	g2="A,Agrave,Aacute,Acircumflex,Atilde,Adieresis,Aring,AE"
	k="217" />
    <hkern g1="asterisk"
	g2="J"
	k="231" />
    <hkern g1="b,o,p,oslash,thorn"
	g2="comma,period,quotesinglbase,quotedblbase,ellipsis"
	k="18" />
    <hkern g1="b,o,p,oslash,thorn"
	g2="Y,Yacute,Ydieresis"
	k="260" />
    <hkern g1="b,o,p,oslash,thorn"
	g2="quotedbl,quotesingle,registered,quoteleft,quoteright,quotedblleft,quotedblright,trademark"
	k="20" />
    <hkern g1="b,o,p,oslash,thorn"
	g2="question"
	k="88" />
    <hkern g1="b,o,p,oslash,thorn"
	g2="T"
	k="252" />
    <hkern g1="b,o,p,oslash,thorn"
	g2="V"
	k="123" />
    <hkern g1="b,o,p,oslash,thorn"
	g2="W"
	k="82" />
    <hkern g1="b,o,p,oslash,thorn"
	g2="x"
	k="80" />
    <hkern g1="c,cent,ccedilla"
	g2="T"
	k="176" />
    <hkern g1="c,cent,ccedilla"
	g2="V"
	k="68" />
    <hkern g1="c,cent,ccedilla"
	g2="W"
	k="45" />
    <hkern g1="c,cent,ccedilla"
	g2="Y,Yacute,Ydieresis"
	k="127" />
    <hkern g1="c,cent,ccedilla"
	g2="question"
	k="45" />
    <hkern g1="c,cent,ccedilla"
	g2="quotedbl,quotesingle,registered,quoteleft,quoteright,quotedblleft,quotedblright,trademark"
	k="4" />
    <hkern g1="colon,semicolon"
	g2="T"
	k="102" />
    <hkern g1="colon,semicolon"
	g2="Y,Yacute,Ydieresis"
	k="113" />
    <hkern g1="e,ae,oe"
	g2="T"
	k="217" />
    <hkern g1="e,ae,oe"
	g2="V"
	k="106" />
    <hkern g1="e,ae,oe"
	g2="W"
	k="82" />
    <hkern g1="e,ae,oe"
	g2="Y,Yacute,Ydieresis"
	k="225" />
    <hkern g1="e,ae,oe"
	g2="question"
	k="68" />
    <hkern g1="e,ae,oe"
	g2="quotedbl,quotesingle,registered,quoteleft,quoteright,quotedblleft,quotedblright,trademark"
	k="4" />
    <hkern g1="e,ae,oe"
	g2="asterisk"
	k="39" />
    <hkern g1="e,ae,oe"
	g2="comma,period,quotesinglbase,quotedblbase,ellipsis"
	k="18" />
    <hkern g1="eth"
	g2="comma,period,quotesinglbase,quotedblbase,ellipsis"
	k="18" />
    <hkern g1="f"
	g2="T"
	k="-82" />
    <hkern g1="f"
	g2="V"
	k="-127" />
    <hkern g1="f"
	g2="W"
	k="-127" />
    <hkern g1="f"
	g2="X"
	k="-82" />
    <hkern g1="f"
	g2="Y,Yacute,Ydieresis"
	k="-109" />
    <hkern g1="f"
	g2="Z"
	k="-82" />
    <hkern g1="f"
	g2="question"
	k="-121" />
    <hkern g1="f"
	g2="quotedbl,quotesingle,registered,quoteleft,quoteright,quotedblleft,quotedblright,trademark"
	k="-141" />
    <hkern g1="f"
	g2="asterisk"
	k="-141" />
    <hkern g1="f"
	g2="comma,period,quotesinglbase,quotedblbase,ellipsis"
	k="86" />
    <hkern g1="f"
	g2="ampersand"
	k="4" />
    <hkern g1="f"
	g2="parenright,bracketright,braceright"
	k="-158" />
    <hkern g1="f"
	g2="exclam,B,D,E,F,H,I,K,L,M,N,P,R,Egrave,Eacute,Ecircumflex,Edieresis,Igrave,Iacute,Icircumflex,Idieresis,Eth,Ntilde"
	k="-82" />
    <hkern g1="f"
	g2="S"
	k="-45" />
    <hkern g1="f"
	g2="U,Ugrave,Uacute,Ucircumflex,Udieresis"
	k="-82" />
    <hkern g1="g,q"
	g2="T"
	k="190" />
    <hkern g1="g,q"
	g2="V"
	k="74" />
    <hkern g1="g,q"
	g2="W"
	k="61" />
    <hkern g1="g,q"
	g2="Y,Yacute,Ydieresis"
	k="184" />
    <hkern g1="g,q"
	g2="question"
	k="45" />
    <hkern g1="g,q"
	g2="j"
	k="-88" />
    <hkern g1="hyphen,periodcentered,endash,emdash"
	g2="V"
	k="106" />
    <hkern g1="hyphen,periodcentered,endash,emdash"
	g2="W"
	k="66" />
    <hkern g1="hyphen,periodcentered,endash,emdash"
	g2="X"
	k="86" />
    <hkern g1="hyphen,periodcentered,endash,emdash"
	g2="Y,Yacute,Ydieresis"
	k="215" />
    <hkern g1="k"
	g2="T"
	k="164" />
    <hkern g1="k"
	g2="V"
	k="45" />
    <hkern g1="k"
	g2="W"
	k="45" />
    <hkern g1="k"
	g2="Y,Yacute,Ydieresis"
	k="129" />
    <hkern g1="k"
	g2="a,c,d,e,g,o,q,ae,ccedilla,eth,oslash,oe"
	k="4" />
    <hkern g1="k"
	g2="bullet"
	k="59" />
    <hkern g1="k"
	g2="hyphen,periodcentered,endash,emdash"
	k="59" />
    <hkern g1="comma,period,quotesinglbase,quotedblbase,ellipsis"
	g2="T"
	k="188" />
    <hkern g1="comma,period,quotesinglbase,quotedblbase,ellipsis"
	g2="V"
	k="182" />
    <hkern g1="comma,period,quotesinglbase,quotedblbase,ellipsis"
	g2="W"
	k="141" />
    <hkern g1="comma,period,quotesinglbase,quotedblbase,ellipsis"
	g2="Y,Yacute,Ydieresis"
	k="184" />
    <hkern g1="comma,period,quotesinglbase,quotedblbase,ellipsis"
	g2="quotedbl,quotesingle,registered,quoteleft,quoteright,quotedblleft,quotedblright,trademark"
	k="150" />
    <hkern g1="comma,period,quotesinglbase,quotedblbase,ellipsis"
	g2="U,Ugrave,Uacute,Ucircumflex,Udieresis"
	k="61" />
    <hkern g1="comma,period,quotesinglbase,quotedblbase,ellipsis"
	g2="j"
	k="-82" />
    <hkern g1="comma,period,quotesinglbase,quotedblbase,ellipsis"
	g2="a,c,d,e,g,o,q,ae,ccedilla,eth,oslash,oe"
	k="18" />
    <hkern g1="comma,period,quotesinglbase,quotedblbase,ellipsis"
	g2="f,uniFB01,uniFB02,uniFB03,uniFB04"
	k="45" />
    <hkern g1="comma,period,quotesinglbase,quotedblbase,ellipsis"
	g2="t"
	k="45" />
    <hkern g1="comma,period,quotesinglbase,quotedblbase,ellipsis"
	g2="v"
	k="141" />
    <hkern g1="comma,period,quotesinglbase,quotedblbase,ellipsis"
	g2="w"
	k="96" />
    <hkern g1="comma,period,quotesinglbase,quotedblbase,ellipsis"
	g2="y,yacute,ydieresis"
	k="121" />
    <hkern g1="comma,period,quotesinglbase,quotedblbase,ellipsis"
	g2="one"
	k="141" />
    <hkern g1="comma,period,quotesinglbase,quotedblbase,ellipsis"
	g2="zero,six"
	k="74" />
    <hkern g1="comma,period,quotesinglbase,quotedblbase,ellipsis"
	g2="seven"
	k="129" />
    <hkern g1="questiondown"
	g2="j"
	k="-328" />
    <hkern g1="quotedbl,quotesingle,quoteleft,quoteright,quotedblleft,quotedblright"
	g2="A,Agrave,Aacute,Acircumflex,Atilde,Adieresis,Aring,AE"
	k="219" />
    <hkern g1="quotedbl,quotesingle,quoteleft,quoteright,quotedblleft,quotedblright"
	g2="C,G,O,Q,Ccedilla,Ograve,Oacute,Ocircumflex,Otilde,Odieresis,Oslash,OE"
	k="4" />
    <hkern g1="quotedbl,quotesingle,quoteleft,quoteright,quotedblleft,quotedblright"
	g2="s"
	k="61" />
    <hkern g1="quotedbl,quotesingle,quoteleft,quoteright,quotedblleft,quotedblright"
	g2="J"
	k="176" />
    <hkern g1="quotedbl,quotesingle,quoteleft,quoteright,quotedblleft,quotedblright"
	g2="comma,period,quotesinglbase,quotedblbase,ellipsis"
	k="150" />
    <hkern g1="quotedbl,quotesingle,quoteleft,quoteright,quotedblleft,quotedblright"
	g2="ampersand"
	k="-18" />
    <hkern g1="r"
	g2="V"
	k="45" />
    <hkern g1="r"
	g2="W"
	k="6" />
    <hkern g1="r"
	g2="Y,Yacute,Ydieresis"
	k="102" />
    <hkern g1="r"
	g2="comma,period,quotesinglbase,quotedblbase,ellipsis"
	k="168" />
    <hkern g1="r"
	g2="T"
	k="111" />
    <hkern g1="r"
	g2="X"
	k="10" />
    <hkern g1="s"
	g2="V"
	k="86" />
    <hkern g1="s"
	g2="W"
	k="72" />
    <hkern g1="s"
	g2="Y,Yacute,Ydieresis"
	k="188" />
    <hkern g1="s"
	g2="T"
	k="193" />
    <hkern g1="s"
	g2="X"
	k="4" />
    <hkern g1="s"
	g2="question"
	k="86" />
    <hkern g1="s"
	g2="quotedbl,quotesingle,registered,quoteleft,quoteright,quotedblleft,quotedblright,trademark"
	k="41" />
    <hkern g1="t"
	g2="V"
	k="47" />
    <hkern g1="t"
	g2="W"
	k="25" />
    <hkern g1="t"
	g2="Y,Yacute,Ydieresis"
	k="66" />
    <hkern g1="t"
	g2="T"
	k="125" />
    <hkern g1="a,u,z"
	g2="V"
	k="74" />
    <hkern g1="a,u,z"
	g2="W"
	k="61" />
    <hkern g1="a,u,z"
	g2="Y,Yacute,Ydieresis"
	k="184" />
    <hkern g1="a,u,z"
	g2="T"
	k="190" />
    <hkern g1="a,u,z"
	g2="question"
	k="45" />
    <hkern g1="v"
	g2="V"
	k="25" />
    <hkern g1="v"
	g2="W"
	k="4" />
    <hkern g1="v"
	g2="Y,Yacute,Ydieresis"
	k="123" />
    <hkern g1="v"
	g2="A,Agrave,Aacute,Acircumflex,Atilde,Adieresis,Aring,AE"
	k="41" />
    <hkern g1="v"
	g2="comma,period,quotesinglbase,quotedblbase,ellipsis"
	k="141" />
    <hkern g1="v"
	g2="T"
	k="139" />
    <hkern g1="v"
	g2="X"
	k="80" />
    <hkern g1="w"
	g2="V"
	k="6" />
    <hkern g1="w"
	g2="Y,Yacute,Ydieresis"
	k="123" />
    <hkern g1="w"
	g2="A,Agrave,Aacute,Acircumflex,Atilde,Adieresis,Aring,AE"
	k="39" />
    <hkern g1="w"
	g2="comma,period,quotesinglbase,quotedblbase,ellipsis"
	k="96" />
    <hkern g1="w"
	g2="T"
	k="139" />
    <hkern g1="w"
	g2="X"
	k="96" />
    <hkern g1="y,yacute,ydieresis"
	g2="V"
	k="6" />
    <hkern g1="y,yacute,ydieresis"
	g2="W"
	k="4" />
    <hkern g1="y,yacute,ydieresis"
	g2="Y,Yacute,Ydieresis"
	k="123" />
    <hkern g1="y,yacute,ydieresis"
	g2="A,Agrave,Aacute,Acircumflex,Atilde,Adieresis,Aring,AE"
	k="41" />
    <hkern g1="y,yacute,ydieresis"
	g2="comma,period,quotesinglbase,quotedblbase,ellipsis"
	k="121" />
    <hkern g1="y,yacute,ydieresis"
	g2="T"
	k="139" />
    <hkern g1="y,yacute,ydieresis"
	g2="X"
	k="80" />
    <hkern g1="y,yacute,ydieresis"
	g2="question"
	k="4" />
    <hkern g1="X"
	g2="C,G,O,Q,Ccedilla,Ograve,Oacute,Ocircumflex,Otilde,Odieresis,Oslash,OE"
	k="61" />
    <hkern g1="X"
	g2="y,yacute,ydieresis"
	k="80" />
    <hkern g1="X"
	g2="w"
	k="96" />
    <hkern g1="X"
	g2="v"
	k="80" />
    <hkern g1="X"
	g2="f,uniFB01,uniFB02,uniFB03,uniFB04"
	k="61" />
    <hkern g1="X"
	g2="t"
	k="61" />
    <hkern g1="X"
	g2="hyphen,periodcentered,endash,emdash"
	k="86" />
    <hkern g1="zero,nine"
	g2="comma,period,quotesinglbase,quotedblbase,ellipsis"
	k="74" />
    <hkern g1="seven"
	g2="comma,period,quotesinglbase,quotedblbase,ellipsis"
	k="203" />
    <hkern g1="x"
	g2="V"
	k="45" />
    <hkern g1="x"
	g2="W"
	k="45" />
    <hkern g1="x"
	g2="Y,Yacute,Ydieresis"
	k="147" />
    <hkern g1="x"
	g2="T"
	k="160" />
    <hkern g1="x"
	g2="a,c,d,e,g,o,q,ae,ccedilla,eth,oslash,oe"
	k="80" />
    <hkern g1="parenleft,bracketleft,braceleft"
	g2="j"
	k="-225" />
  </font>
</defs></svg>
